 
scale
 1.0
 
scale1
 1.0
 
scale2
 1.0
 
scale3
 1.0
 
avec
   0.000000000       17.59457855       18.04990247    
   10.42111605       0.000000000       18.04990247    
   10.42111605       17.59457855       0.000000000    
 
atoms
   3                                    : nspecies
'Cs.in'                                 : spfname
   4                                    : natoms; atpos, bfcmt below
    0.25000000    0.25000000    0.25000000    0.00000000  0.00000000  0.00000000
   -0.25000000   -0.25000000   -0.25000000    0.00000000  0.00000000  0.00000000
    0.24983750   -0.24983750    0.24983750    0.00000000  0.00000000  0.00000000
   -0.24983750    0.24983750   -0.24983750    0.00000000  0.00000000  0.00000000
'V.in'                                  : spfname
  12                                    : natoms; atpos, bfcmt below
   -0.00008750    0.24848750    0.00008750    0.00000000  0.00000000  0.00000000
    0.00008750   -0.24848750   -0.00008750    0.00000000  0.00000000  0.00000000
    0.24848750   -0.00008750   -0.24848750    0.00000000  0.00000000  0.00000000
   -0.24848750    0.00008750    0.24848750    0.00000000  0.00000000  0.00000000
   -0.25087500   -0.25087500    0.25087500    0.00000000  0.00000000  0.00000000
    0.25087500    0.25087500   -0.25087500    0.00000000  0.00000000  0.00000000
   -0.24995000    0.24995000    0.24995000    0.00000000  0.00000000  0.00000000
    0.24995000   -0.24995000   -0.24995000    0.00000000  0.00000000  0.00000000
   -0.25087500   -0.49730000    0.25087500    0.00000000  0.00000000  0.00000000
    0.25087500    0.49730000   -0.25087500    0.00000000  0.00000000  0.00000000
   -0.49730000   -0.25087500    0.49730000    0.00000000  0.00000000  0.00000000
    0.49730000    0.25087500   -0.49730000    0.00000000  0.00000000  0.00000000
'Sb.in'                                 : spfname
  20                                    : natoms; atpos, bfcmt below
    0.50000000    0.50000000    0.50000000    0.00000000  0.00000000  0.00000000
    0.00000000    0.50000000    0.00000000    0.00000000  0.00000000  0.00000000
    0.50000000    0.00000000    0.50000000    0.00000000  0.00000000  0.00000000
    0.28866896    0.04509771   -0.04509771    0.00000000  0.00000000  0.00000000
   -0.28866896   -0.04509771    0.04509771    0.00000000  0.00000000  0.00000000
   -0.04509771   -0.28866896    0.28866896    0.00000000  0.00000000  0.00000000
    0.04509771    0.28866896   -0.28866896    0.00000000  0.00000000  0.00000000
    0.00000000    0.00000000    0.00000000    0.00000000  0.00000000  0.00000000
   -0.28888146    0.45553979    0.04523521    0.00000000  0.00000000  0.00000000
    0.28888146   -0.45553979   -0.04523521    0.00000000  0.00000000  0.00000000
    0.04523521   -0.21189354   -0.28888146    0.00000000  0.00000000  0.00000000
   -0.04523521    0.21189354    0.28888146    0.00000000  0.00000000  0.00000000
    0.45553979   -0.28888146   -0.21189354    0.00000000  0.00000000  0.00000000
   -0.45553979    0.28888146    0.21189354    0.00000000  0.00000000  0.00000000
   -0.21189354    0.04523521    0.45553979    0.00000000  0.00000000  0.00000000
    0.21189354   -0.04523521   -0.45553979    0.00000000  0.00000000  0.00000000
   -0.45527729   -0.21128104    0.21128104    0.00000000  0.00000000  0.00000000
    0.45527729    0.21128104   -0.21128104    0.00000000  0.00000000  0.00000000
    0.21128104    0.45527729   -0.45527729    0.00000000  0.00000000  0.00000000
   -0.21128104   -0.45527729    0.45527729    0.00000000  0.00000000  0.00000000
