  0.2875982645    
  0.2976490275    
  0.2807161383    
  0.2861136353    
  0.1787981435    
  0.2091675122    
  0.8546695954E-01
  0.1180657679    
  0.4646663473E-01
  0.3463045641E-01
  0.3113826560E-01
  0.2038024783E-01
  0.3564677231E-02
  0.1801056999E-02
  0.4403740497E-02
  0.2499564822E-02
  0.3530876431E-02
  0.1805401491E-02
  0.2031677056E-02
  0.2355647191E-02
  0.7145289792E-03
  0.1348059343E-02
  0.3524421345E-03
  0.4359434703E-03
  0.4166844378E-03
  0.2461903137E-03
  0.3187015021E-03
  0.2287742841E-03
  0.2374482484E-03
  0.1599529720E-03
  0.4302936514E-04
  0.1512748857E-03
  0.6233416667E-04
  0.6394212679E-04
  0.7244223953E-04
  0.4715018805E-04
  0.6808240798E-04
  0.1397073795E-04
  0.2094121688E-04
  0.1703065007E-04
  0.1406521690E-04
  0.1274104040E-04
  0.1478779097E-04
  0.1136668396E-04
  0.7725793356E-05
  0.3362007627E-05
  0.7534272138E-05
  0.3688449035E-05
  0.5042594642E-05
  0.3335917798E-05
  0.3779574358E-05
  0.3624938792E-05
  0.1585547708E-05
  0.3433798319E-05
  0.9711556453E-06
  0.2575397217E-05
  0.5891713047E-06
  0.1421046076E-05
  0.1098293414E-05
  0.9755597202E-06
  0.1214167880E-05
  0.5634486421E-06
  0.8202556999E-06
  0.3112738191E-06
  0.2181862998E-06
  0.3691697399E-06
  0.3044234539E-06
  0.2778411701E-06
  0.2798588168E-06
  0.1383072431E-06
  0.2098655902E-06
  0.5304450878E-07
  0.1016374869E-06
  0.8872827733E-07
  0.7167649245E-07
  0.8460450266E-07
  0.4297376110E-07
  0.4952542153E-07
  0.3057410326E-07
  0.3271241954E-07
  0.4887380972E-07
  0.1947814764E-07
  0.4328241337E-07
  0.1125200299E-07
