  0.2931651597E-20 -0.3323996428E-17  0.1720388161E-20
 -0.1750012230E-20 -0.3735177450E-17 -0.1897361492E-20
  0.4371941696E-20 -0.3497254179E-17 -0.1413857211E-20
  0.4528377203E-20 -0.3827860353E-17  0.2694850403E-20
 -0.2229203556E-20 -0.4038886660E-17 -0.3597695480E-20
 -0.5804222532E-21 -0.4397874064E-17 -0.4092853558E-20
 -0.1755200606E-19 -0.9819417024E-18  0.1666291728E-20
  0.1142328357E-19 -0.1631184788E-17  0.7968118798E-20
 -0.3266526177E-20 -0.2504492741E-17 -0.7866548528E-20
 -0.7872021093E-20 -0.2517231041E-18  0.1230896658E-20
 -0.8681501537E-20 -0.1299917145E-17 -0.5789769004E-21
 -0.1487337641E-19 -0.1562016172E-17  0.9050648721E-20
 -0.4132531249E-20 -0.1287045140E-17  0.4192788855E-20
 -0.1063451713E-19 -0.1251010389E-17 -0.3096505999E-20
 -0.7439238938E-20 -0.1526171232E-17 -0.5500792860E-21
 -0.1379503269E-20 -0.1364355531E-17 -0.4659894740E-21
  0.8819766338E-21 -0.1256839187E-17 -0.2833249184E-20
  0.2724125170E-20 -0.1456354456E-17  0.5265309038E-20
  0.1574926204E-20 -0.1406619037E-17 -0.9507513905E-21
 -0.3020078030E-20 -0.1378543603E-17 -0.2199186050E-20
  0.6285292231E-20 -0.1379765688E-17 -0.3054639758E-20
 -0.1304506416E-20 -0.1407991792E-17  0.2789344442E-20
 -0.1170297126E-20 -0.1342232852E-17  0.2945370591E-21
 -0.6022976953E-21 -0.1365806574E-17 -0.6588447191E-22
 -0.5880213075E-20 -0.1360318645E-17 -0.3172659629E-20
  0.5994352319E-20 -0.1406181110E-17  0.4450196420E-20
 -0.5145511624E-21 -0.1402352684E-17 -0.4200805111E-20
  0.8895688088E-20 -0.1392530579E-17  0.5016854390E-22
 -0.1029191152E-19 -0.1416137258E-17  0.1449157651E-20
 -0.3788203532E-20 -0.1414599439E-17 -0.2914856148E-20
 -0.6972653539E-20 -0.1369609172E-17 -0.2058454769E-20
  0.2630446370E-20 -0.1372849477E-17  0.3438483772E-21
  0.5075270703E-20 -0.1370054711E-17  0.2489947169E-20
 -0.4474201171E-20 -0.1409090232E-17 -0.1017897083E-20
 -0.4551467923E-20 -0.1380737860E-17 -0.1020821458E-20
  0.1178333735E-20 -0.1340198884E-17  0.2215095654E-20
 -0.1279193392E-20 -0.1361629287E-17  0.4136337437E-20
 -0.1028188647E-19 -0.1407319660E-17 -0.7768264137E-20
  0.3857984302E-20 -0.1372119033E-17  0.4969119607E-21
 -0.3819006015E-20 -0.1406795785E-17  0.1618591785E-20
  0.4542884002E-20 -0.1355188378E-17  0.8114040193E-21
 -0.5827650486E-20 -0.1365272726E-17 -0.3572867210E-20
  0.9497787925E-21 -0.1352544434E-17 -0.2260669625E-20
  0.2019193222E-20 -0.1335603127E-17 -0.3331909384E-20
  0.6535736575E-20 -0.1414159625E-17 -0.7790534384E-20
 -0.1654792072E-20 -0.1343124236E-17  0.3511410249E-20
  0.5435435723E-22 -0.1382496226E-17  0.5176401080E-20
  0.5755372056E-20 -0.1354213178E-17  0.2352513339E-20
 -0.1189509392E-20 -0.1380113931E-17  0.2583353350E-21
  0.1247035018E-20 -0.1361702842E-17 -0.3316413412E-20
 -0.9141915315E-21 -0.1377354312E-17 -0.2159431779E-20
  0.2770123261E-20 -0.1358910075E-17  0.5657766957E-20
 -0.4151399138E-20 -0.1394794460E-17  0.2972805772E-20
 -0.1340466930E-19 -0.1365064657E-17  0.3114913764E-20
