    -172408.897377    
    -172389.605976    
    -172404.110535    
    -172388.773283    
    -172385.029354    
    -172330.964662    
    -172173.406023    
    -172136.700011    
    -172174.295454    
    -172160.667552    
    -172109.307021    
    -172156.966742    
    -172140.272832    
    -172147.344923    
    -172145.696488    
    -172147.556448    
    -172146.044765    
    -172145.261088    
    -172148.079953    
    -172145.417531    
    -172145.905735    
    -172146.600347    
    -172146.180424    
    -172146.274770    
    -172146.173180    
    -172146.100598    
    -172146.325742    
    -172146.082629    
    -172146.209806    
    -172146.196969    
    -172146.189029    
    -172146.179331    
    -172146.193306    
    -172146.189963    
    -172146.178348    
    -172146.194801    
    -172146.185929    
    -172146.187091    
    -172146.186332    
    -172146.186938    
    -172146.187164    
    -172146.186905    
    -172146.186195    
    -172146.187422    
    -172146.186655    
    -172146.186825    
    -172146.186703    
    -172146.186781    
    -172146.186750    
    -172146.186745    
    -172146.186707    
    -172146.186739    
    -172146.186743    
    -172146.186710    
