 
Species :    1 (Cs), atom :    1
 n =  1, l =  0, k =  1 :   -1313.604998    
 n =  2, l =  0, k =  1 :   -205.6693712    
 n =  2, l =  1, k =  1 :   -193.4851443    
 n =  2, l =  1, k =  2 :   -180.5481931    
 n =  3, l =  0, k =  1 :   -42.44558878    
 n =  3, l =  1, k =  1 :   -37.35541572    
 n =  3, l =  1, k =  2 :   -34.87659668    
 n =  3, l =  2, k =  2 :   -25.92720511    
 n =  3, l =  2, k =  3 :   -25.40066309    
 n =  4, l =  0, k =  1 :   -7.686087278    
 n =  4, l =  1, k =  1 :   -5.859791615    
 n =  4, l =  1, k =  2 :   -5.352709183    
 
Species :    2 (Sb), atom :    1
 n =  1, l =  0, k =  1 :   -1111.995833    
 n =  2, l =  0, k =  1 :   -168.8301673    
 n =  2, l =  1, k =  1 :   -157.9406535    
 n =  2, l =  1, k =  2 :   -148.6936210    
 n =  3, l =  0, k =  1 :   -32.76640709    
 n =  3, l =  1, k =  1 :   -28.31502294    
 n =  3, l =  1, k =  2 :   -26.60903735    
 n =  3, l =  2, k =  2 :   -18.74348930    
 n =  3, l =  2, k =  3 :   -18.38875141    
 n =  4, l =  0, k =  1 :   -5.049370393    
 n =  4, l =  1, k =  1 :   -3.544125881    
 n =  4, l =  1, k =  2 :   -3.227776835    
 
Species :    2 (Sb), atom :    2
 n =  1, l =  0, k =  1 :   -1111.995833    
 n =  2, l =  0, k =  1 :   -168.8301673    
 n =  2, l =  1, k =  1 :   -157.9406535    
 n =  2, l =  1, k =  2 :   -148.6936210    
 n =  3, l =  0, k =  1 :   -32.76640709    
 n =  3, l =  1, k =  1 :   -28.31502294    
 n =  3, l =  1, k =  2 :   -26.60903735    
 n =  3, l =  2, k =  2 :   -18.74348930    
 n =  3, l =  2, k =  3 :   -18.38875141    
 n =  4, l =  0, k =  1 :   -5.049370393    
 n =  4, l =  1, k =  1 :   -3.544125881    
 n =  4, l =  1, k =  2 :   -3.227776835    
 
Species :    2 (Sb), atom :    3
 n =  1, l =  0, k =  1 :   -1111.995833    
 n =  2, l =  0, k =  1 :   -168.8301673    
 n =  2, l =  1, k =  1 :   -157.9406535    
 n =  2, l =  1, k =  2 :   -148.6936210    
 n =  3, l =  0, k =  1 :   -32.76640709    
 n =  3, l =  1, k =  1 :   -28.31502294    
 n =  3, l =  1, k =  2 :   -26.60903735    
 n =  3, l =  2, k =  2 :   -18.74348930    
 n =  3, l =  2, k =  3 :   -18.38875141    
 n =  4, l =  0, k =  1 :   -5.049370393    
 n =  4, l =  1, k =  1 :   -3.544125881    
 n =  4, l =  1, k =  2 :   -3.227776835    
 
Species :    2 (Sb), atom :    4
 n =  1, l =  0, k =  1 :   -1111.995833    
 n =  2, l =  0, k =  1 :   -168.8301673    
 n =  2, l =  1, k =  1 :   -157.9406535    
 n =  2, l =  1, k =  2 :   -148.6936210    
 n =  3, l =  0, k =  1 :   -32.76640709    
 n =  3, l =  1, k =  1 :   -28.31502294    
 n =  3, l =  1, k =  2 :   -26.60903735    
 n =  3, l =  2, k =  2 :   -18.74348930    
 n =  3, l =  2, k =  3 :   -18.38875141    
 n =  4, l =  0, k =  1 :   -5.049370393    
 n =  4, l =  1, k =  1 :   -3.544125881    
 n =  4, l =  1, k =  2 :   -3.227776835    
 
Species :    2 (Sb), atom :    5
 n =  1, l =  0, k =  1 :   -1112.006448    
 n =  2, l =  0, k =  1 :   -168.8404996    
 n =  2, l =  1, k =  1 :   -157.9509776    
 n =  2, l =  1, k =  2 :   -148.7039419    
 n =  3, l =  0, k =  1 :   -32.77694226    
 n =  3, l =  1, k =  1 :   -28.32555000    
 n =  3, l =  1, k =  2 :   -26.61956956    
 n =  3, l =  2, k =  2 :   -18.75398577    
 n =  3, l =  2, k =  3 :   -18.39925061    
 n =  4, l =  0, k =  1 :   -5.060154894    
 n =  4, l =  1, k =  1 :   -3.554915086    
 n =  4, l =  1, k =  2 :   -3.238574804    
 
Species :    3 (V), atom :    1
 n =  1, l =  0, k =  1 :   -196.4488681    
 n =  2, l =  0, k =  1 :   -21.67610921    
 n =  2, l =  1, k =  1 :   -18.20718309    
 n =  2, l =  1, k =  2 :   -17.94672654    
 
Species :    3 (V), atom :    2
 n =  1, l =  0, k =  1 :   -196.4488681    
 n =  2, l =  0, k =  1 :   -21.67610921    
 n =  2, l =  1, k =  1 :   -18.20718309    
 n =  2, l =  1, k =  2 :   -17.94672654    
 
Species :    3 (V), atom :    3
 n =  1, l =  0, k =  1 :   -196.4488681    
 n =  2, l =  0, k =  1 :   -21.67610921    
 n =  2, l =  1, k =  1 :   -18.20718309    
 n =  2, l =  1, k =  2 :   -17.94672654    
