 
Species :    1 (Cs), atom :    1
 n =  1, l =  0, k =  1 :   -1313.579665    
 n =  2, l =  0, k =  1 :   -205.6482238    
 n =  2, l =  1, k =  1 :   -193.4644189    
 n =  2, l =  1, k =  2 :   -180.5275452    
 n =  3, l =  0, k =  1 :   -42.42649819    
 n =  3, l =  1, k =  1 :   -37.33653760    
 n =  3, l =  1, k =  2 :   -34.85770406    
 n =  3, l =  2, k =  2 :   -25.90826922    
 n =  3, l =  2, k =  3 :   -25.38175012    
 n =  4, l =  0, k =  1 :   -7.670499317    
 n =  4, l =  1, k =  1 :   -5.844208891    
 n =  4, l =  1, k =  2 :   -5.337098131    
 
Species :    1 (Cs), atom :    2
 n =  1, l =  0, k =  1 :   -1313.579665    
 n =  2, l =  0, k =  1 :   -205.6482238    
 n =  2, l =  1, k =  1 :   -193.4644189    
 n =  2, l =  1, k =  2 :   -180.5275452    
 n =  3, l =  0, k =  1 :   -42.42649819    
 n =  3, l =  1, k =  1 :   -37.33653760    
 n =  3, l =  1, k =  2 :   -34.85770406    
 n =  3, l =  2, k =  2 :   -25.90826922    
 n =  3, l =  2, k =  3 :   -25.38175012    
 n =  4, l =  0, k =  1 :   -7.670499317    
 n =  4, l =  1, k =  1 :   -5.844208891    
 n =  4, l =  1, k =  2 :   -5.337098131    
 
Species :    1 (Cs), atom :    3
 n =  1, l =  0, k =  1 :   -1313.579665    
 n =  2, l =  0, k =  1 :   -205.6482238    
 n =  2, l =  1, k =  1 :   -193.4644189    
 n =  2, l =  1, k =  2 :   -180.5275452    
 n =  3, l =  0, k =  1 :   -42.42649819    
 n =  3, l =  1, k =  1 :   -37.33653760    
 n =  3, l =  1, k =  2 :   -34.85770406    
 n =  3, l =  2, k =  2 :   -25.90826922    
 n =  3, l =  2, k =  3 :   -25.38175012    
 n =  4, l =  0, k =  1 :   -7.670499317    
 n =  4, l =  1, k =  1 :   -5.844208891    
 n =  4, l =  1, k =  2 :   -5.337098131    
 
Species :    1 (Cs), atom :    4
 n =  1, l =  0, k =  1 :   -1313.579665    
 n =  2, l =  0, k =  1 :   -205.6482238    
 n =  2, l =  1, k =  1 :   -193.4644189    
 n =  2, l =  1, k =  2 :   -180.5275452    
 n =  3, l =  0, k =  1 :   -42.42649819    
 n =  3, l =  1, k =  1 :   -37.33653760    
 n =  3, l =  1, k =  2 :   -34.85770406    
 n =  3, l =  2, k =  2 :   -25.90826922    
 n =  3, l =  2, k =  3 :   -25.38175012    
 n =  4, l =  0, k =  1 :   -7.670499317    
 n =  4, l =  1, k =  1 :   -5.844208891    
 n =  4, l =  1, k =  2 :   -5.337098131    
 
Species :    2 (V), atom :    1
 n =  1, l =  0, k =  1 :   -196.4270429    
 n =  2, l =  0, k =  1 :   -21.65812098    
 n =  2, l =  1, k =  1 :   -18.18967126    
 n =  2, l =  1, k =  2 :   -17.92922497    
 
Species :    2 (V), atom :    2
 n =  1, l =  0, k =  1 :   -196.4270429    
 n =  2, l =  0, k =  1 :   -21.65812098    
 n =  2, l =  1, k =  1 :   -18.18967126    
 n =  2, l =  1, k =  2 :   -17.92922497    
 
Species :    2 (V), atom :    3
 n =  1, l =  0, k =  1 :   -196.4270422    
 n =  2, l =  0, k =  1 :   -21.65811975    
 n =  2, l =  1, k =  1 :   -18.18967006    
 n =  2, l =  1, k =  2 :   -17.92922377    
 
Species :    2 (V), atom :    4
 n =  1, l =  0, k =  1 :   -196.4270422    
 n =  2, l =  0, k =  1 :   -21.65811975    
 n =  2, l =  1, k =  1 :   -18.18967006    
 n =  2, l =  1, k =  2 :   -17.92922377    
 
Species :    2 (V), atom :    5
 n =  1, l =  0, k =  1 :   -196.4270422    
 n =  2, l =  0, k =  1 :   -21.65811975    
 n =  2, l =  1, k =  1 :   -18.18967006    
 n =  2, l =  1, k =  2 :   -17.92922377    
 
Species :    2 (V), atom :    6
 n =  1, l =  0, k =  1 :   -196.4270422    
 n =  2, l =  0, k =  1 :   -21.65811975    
 n =  2, l =  1, k =  1 :   -18.18967006    
 n =  2, l =  1, k =  2 :   -17.92922377    
 
Species :    2 (V), atom :    7
 n =  1, l =  0, k =  1 :   -196.4270429    
 n =  2, l =  0, k =  1 :   -21.65812098    
 n =  2, l =  1, k =  1 :   -18.18967126    
 n =  2, l =  1, k =  2 :   -17.92922497    
 
Species :    2 (V), atom :    8
 n =  1, l =  0, k =  1 :   -196.4270429    
 n =  2, l =  0, k =  1 :   -21.65812098    
 n =  2, l =  1, k =  1 :   -18.18967126    
 n =  2, l =  1, k =  2 :   -17.92922497    
 
Species :    2 (V), atom :    9
 n =  1, l =  0, k =  1 :   -196.4270422    
 n =  2, l =  0, k =  1 :   -21.65811975    
 n =  2, l =  1, k =  1 :   -18.18967006    
 n =  2, l =  1, k =  2 :   -17.92922377    
 
Species :    2 (V), atom :   10
 n =  1, l =  0, k =  1 :   -196.4270422    
 n =  2, l =  0, k =  1 :   -21.65811975    
 n =  2, l =  1, k =  1 :   -18.18967006    
 n =  2, l =  1, k =  2 :   -17.92922377    
 
Species :    2 (V), atom :   11
 n =  1, l =  0, k =  1 :   -196.4270422    
 n =  2, l =  0, k =  1 :   -21.65811975    
 n =  2, l =  1, k =  1 :   -18.18967006    
 n =  2, l =  1, k =  2 :   -17.92922377    
 
Species :    2 (V), atom :   12
 n =  1, l =  0, k =  1 :   -196.4270422    
 n =  2, l =  0, k =  1 :   -21.65811975    
 n =  2, l =  1, k =  1 :   -18.18967006    
 n =  2, l =  1, k =  2 :   -17.92922377    
 
Species :    3 (Sb), atom :    1
 n =  1, l =  0, k =  1 :   -1111.980314    
 n =  2, l =  0, k =  1 :   -168.8194062    
 n =  2, l =  1, k =  1 :   -157.9304605    
 n =  2, l =  1, k =  2 :   -148.6834991    
 n =  3, l =  0, k =  1 :   -32.75800411    
 n =  3, l =  1, k =  1 :   -28.30688625    
 n =  3, l =  1, k =  2 :   -26.60085810    
 n =  3, l =  2, k =  2 :   -18.73528803    
 n =  3, l =  2, k =  3 :   -18.38056976    
 n =  4, l =  0, k =  1 :   -5.044682534    
 n =  4, l =  1, k =  1 :   -3.539346460    
 n =  4, l =  1, k =  2 :   -3.222917826    
 
Species :    3 (Sb), atom :    2
 n =  1, l =  0, k =  1 :   -1111.980314    
 n =  2, l =  0, k =  1 :   -168.8194062    
 n =  2, l =  1, k =  1 :   -157.9304605    
 n =  2, l =  1, k =  2 :   -148.6834991    
 n =  3, l =  0, k =  1 :   -32.75800411    
 n =  3, l =  1, k =  1 :   -28.30688625    
 n =  3, l =  1, k =  2 :   -26.60085810    
 n =  3, l =  2, k =  2 :   -18.73528803    
 n =  3, l =  2, k =  3 :   -18.38056976    
 n =  4, l =  0, k =  1 :   -5.044682534    
 n =  4, l =  1, k =  1 :   -3.539346460    
 n =  4, l =  1, k =  2 :   -3.222917826    
 
Species :    3 (Sb), atom :    3
 n =  1, l =  0, k =  1 :   -1111.980314    
 n =  2, l =  0, k =  1 :   -168.8194062    
 n =  2, l =  1, k =  1 :   -157.9304605    
 n =  2, l =  1, k =  2 :   -148.6834991    
 n =  3, l =  0, k =  1 :   -32.75800411    
 n =  3, l =  1, k =  1 :   -28.30688625    
 n =  3, l =  1, k =  2 :   -26.60085810    
 n =  3, l =  2, k =  2 :   -18.73528803    
 n =  3, l =  2, k =  3 :   -18.38056976    
 n =  4, l =  0, k =  1 :   -5.044682534    
 n =  4, l =  1, k =  1 :   -3.539346460    
 n =  4, l =  1, k =  2 :   -3.222917826    
 
Species :    3 (Sb), atom :    4
 n =  1, l =  0, k =  1 :   -1111.970284    
 n =  2, l =  0, k =  1 :   -168.8096435    
 n =  2, l =  1, k =  1 :   -157.9207073    
 n =  2, l =  1, k =  2 :   -148.6737487    
 n =  3, l =  0, k =  1 :   -32.74805170    
 n =  3, l =  1, k =  1 :   -28.29694160    
 n =  3, l =  1, k =  2 :   -26.59090890    
 n =  3, l =  2, k =  2 :   -18.72537168    
 n =  3, l =  2, k =  3 :   -18.37065091    
 n =  4, l =  0, k =  1 :   -5.034501660    
 n =  4, l =  1, k =  1 :   -3.529161908    
 n =  4, l =  1, k =  2 :   -3.212725201    
 
Species :    3 (Sb), atom :    5
 n =  1, l =  0, k =  1 :   -1111.970284    
 n =  2, l =  0, k =  1 :   -168.8096435    
 n =  2, l =  1, k =  1 :   -157.9207073    
 n =  2, l =  1, k =  2 :   -148.6737487    
 n =  3, l =  0, k =  1 :   -32.74805170    
 n =  3, l =  1, k =  1 :   -28.29694160    
 n =  3, l =  1, k =  2 :   -26.59090890    
 n =  3, l =  2, k =  2 :   -18.72537168    
 n =  3, l =  2, k =  3 :   -18.37065091    
 n =  4, l =  0, k =  1 :   -5.034501660    
 n =  4, l =  1, k =  1 :   -3.529161908    
 n =  4, l =  1, k =  2 :   -3.212725201    
 
Species :    3 (Sb), atom :    6
 n =  1, l =  0, k =  1 :   -1111.970284    
 n =  2, l =  0, k =  1 :   -168.8096435    
 n =  2, l =  1, k =  1 :   -157.9207073    
 n =  2, l =  1, k =  2 :   -148.6737487    
 n =  3, l =  0, k =  1 :   -32.74805170    
 n =  3, l =  1, k =  1 :   -28.29694160    
 n =  3, l =  1, k =  2 :   -26.59090890    
 n =  3, l =  2, k =  2 :   -18.72537168    
 n =  3, l =  2, k =  3 :   -18.37065091    
 n =  4, l =  0, k =  1 :   -5.034501660    
 n =  4, l =  1, k =  1 :   -3.529161908    
 n =  4, l =  1, k =  2 :   -3.212725201    
 
Species :    3 (Sb), atom :    7
 n =  1, l =  0, k =  1 :   -1111.970284    
 n =  2, l =  0, k =  1 :   -168.8096435    
 n =  2, l =  1, k =  1 :   -157.9207073    
 n =  2, l =  1, k =  2 :   -148.6737487    
 n =  3, l =  0, k =  1 :   -32.74805170    
 n =  3, l =  1, k =  1 :   -28.29694160    
 n =  3, l =  1, k =  2 :   -26.59090890    
 n =  3, l =  2, k =  2 :   -18.72537168    
 n =  3, l =  2, k =  3 :   -18.37065091    
 n =  4, l =  0, k =  1 :   -5.034501660    
 n =  4, l =  1, k =  1 :   -3.529161908    
 n =  4, l =  1, k =  2 :   -3.212725201    
 
Species :    3 (Sb), atom :    8
 n =  1, l =  0, k =  1 :   -1111.970284    
 n =  2, l =  0, k =  1 :   -168.8096435    
 n =  2, l =  1, k =  1 :   -157.9207073    
 n =  2, l =  1, k =  2 :   -148.6737487    
 n =  3, l =  0, k =  1 :   -32.74805170    
 n =  3, l =  1, k =  1 :   -28.29694160    
 n =  3, l =  1, k =  2 :   -26.59090890    
 n =  3, l =  2, k =  2 :   -18.72537168    
 n =  3, l =  2, k =  3 :   -18.37065091    
 n =  4, l =  0, k =  1 :   -5.034501660    
 n =  4, l =  1, k =  1 :   -3.529161908    
 n =  4, l =  1, k =  2 :   -3.212725201    
 
Species :    3 (Sb), atom :    9
 n =  1, l =  0, k =  1 :   -1111.970284    
 n =  2, l =  0, k =  1 :   -168.8096435    
 n =  2, l =  1, k =  1 :   -157.9207073    
 n =  2, l =  1, k =  2 :   -148.6737487    
 n =  3, l =  0, k =  1 :   -32.74805170    
 n =  3, l =  1, k =  1 :   -28.29694160    
 n =  3, l =  1, k =  2 :   -26.59090890    
 n =  3, l =  2, k =  2 :   -18.72537168    
 n =  3, l =  2, k =  3 :   -18.37065091    
 n =  4, l =  0, k =  1 :   -5.034501660    
 n =  4, l =  1, k =  1 :   -3.529161908    
 n =  4, l =  1, k =  2 :   -3.212725201    
 
Species :    3 (Sb), atom :   10
 n =  1, l =  0, k =  1 :   -1111.970284    
 n =  2, l =  0, k =  1 :   -168.8096435    
 n =  2, l =  1, k =  1 :   -157.9207073    
 n =  2, l =  1, k =  2 :   -148.6737487    
 n =  3, l =  0, k =  1 :   -32.74805170    
 n =  3, l =  1, k =  1 :   -28.29694160    
 n =  3, l =  1, k =  2 :   -26.59090890    
 n =  3, l =  2, k =  2 :   -18.72537168    
 n =  3, l =  2, k =  3 :   -18.37065091    
 n =  4, l =  0, k =  1 :   -5.034501660    
 n =  4, l =  1, k =  1 :   -3.529161908    
 n =  4, l =  1, k =  2 :   -3.212725201    
 
Species :    3 (Sb), atom :   11
 n =  1, l =  0, k =  1 :   -1111.970284    
 n =  2, l =  0, k =  1 :   -168.8096435    
 n =  2, l =  1, k =  1 :   -157.9207073    
 n =  2, l =  1, k =  2 :   -148.6737487    
 n =  3, l =  0, k =  1 :   -32.74805170    
 n =  3, l =  1, k =  1 :   -28.29694160    
 n =  3, l =  1, k =  2 :   -26.59090890    
 n =  3, l =  2, k =  2 :   -18.72537168    
 n =  3, l =  2, k =  3 :   -18.37065091    
 n =  4, l =  0, k =  1 :   -5.034501660    
 n =  4, l =  1, k =  1 :   -3.529161908    
 n =  4, l =  1, k =  2 :   -3.212725201    
 
Species :    3 (Sb), atom :   12
 n =  1, l =  0, k =  1 :   -1111.970284    
 n =  2, l =  0, k =  1 :   -168.8096435    
 n =  2, l =  1, k =  1 :   -157.9207073    
 n =  2, l =  1, k =  2 :   -148.6737487    
 n =  3, l =  0, k =  1 :   -32.74805170    
 n =  3, l =  1, k =  1 :   -28.29694160    
 n =  3, l =  1, k =  2 :   -26.59090890    
 n =  3, l =  2, k =  2 :   -18.72537168    
 n =  3, l =  2, k =  3 :   -18.37065091    
 n =  4, l =  0, k =  1 :   -5.034501660    
 n =  4, l =  1, k =  1 :   -3.529161908    
 n =  4, l =  1, k =  2 :   -3.212725201    
 
Species :    3 (Sb), atom :   13
 n =  1, l =  0, k =  1 :   -1111.970284    
 n =  2, l =  0, k =  1 :   -168.8096435    
 n =  2, l =  1, k =  1 :   -157.9207073    
 n =  2, l =  1, k =  2 :   -148.6737487    
 n =  3, l =  0, k =  1 :   -32.74805170    
 n =  3, l =  1, k =  1 :   -28.29694160    
 n =  3, l =  1, k =  2 :   -26.59090890    
 n =  3, l =  2, k =  2 :   -18.72537168    
 n =  3, l =  2, k =  3 :   -18.37065091    
 n =  4, l =  0, k =  1 :   -5.034501660    
 n =  4, l =  1, k =  1 :   -3.529161908    
 n =  4, l =  1, k =  2 :   -3.212725201    
 
Species :    3 (Sb), atom :   14
 n =  1, l =  0, k =  1 :   -1111.970284    
 n =  2, l =  0, k =  1 :   -168.8096435    
 n =  2, l =  1, k =  1 :   -157.9207073    
 n =  2, l =  1, k =  2 :   -148.6737487    
 n =  3, l =  0, k =  1 :   -32.74805170    
 n =  3, l =  1, k =  1 :   -28.29694160    
 n =  3, l =  1, k =  2 :   -26.59090890    
 n =  3, l =  2, k =  2 :   -18.72537168    
 n =  3, l =  2, k =  3 :   -18.37065091    
 n =  4, l =  0, k =  1 :   -5.034501660    
 n =  4, l =  1, k =  1 :   -3.529161908    
 n =  4, l =  1, k =  2 :   -3.212725201    
 
Species :    3 (Sb), atom :   15
 n =  1, l =  0, k =  1 :   -1111.970284    
 n =  2, l =  0, k =  1 :   -168.8096435    
 n =  2, l =  1, k =  1 :   -157.9207073    
 n =  2, l =  1, k =  2 :   -148.6737487    
 n =  3, l =  0, k =  1 :   -32.74805170    
 n =  3, l =  1, k =  1 :   -28.29694160    
 n =  3, l =  1, k =  2 :   -26.59090890    
 n =  3, l =  2, k =  2 :   -18.72537168    
 n =  3, l =  2, k =  3 :   -18.37065091    
 n =  4, l =  0, k =  1 :   -5.034501660    
 n =  4, l =  1, k =  1 :   -3.529161908    
 n =  4, l =  1, k =  2 :   -3.212725201    
 
Species :    3 (Sb), atom :   16
 n =  1, l =  0, k =  1 :   -1111.970284    
 n =  2, l =  0, k =  1 :   -168.8096435    
 n =  2, l =  1, k =  1 :   -157.9207073    
 n =  2, l =  1, k =  2 :   -148.6737487    
 n =  3, l =  0, k =  1 :   -32.74805170    
 n =  3, l =  1, k =  1 :   -28.29694160    
 n =  3, l =  1, k =  2 :   -26.59090890    
 n =  3, l =  2, k =  2 :   -18.72537168    
 n =  3, l =  2, k =  3 :   -18.37065091    
 n =  4, l =  0, k =  1 :   -5.034501660    
 n =  4, l =  1, k =  1 :   -3.529161908    
 n =  4, l =  1, k =  2 :   -3.212725201    
 
Species :    3 (Sb), atom :   17
 n =  1, l =  0, k =  1 :   -1111.970284    
 n =  2, l =  0, k =  1 :   -168.8096435    
 n =  2, l =  1, k =  1 :   -157.9207073    
 n =  2, l =  1, k =  2 :   -148.6737487    
 n =  3, l =  0, k =  1 :   -32.74805170    
 n =  3, l =  1, k =  1 :   -28.29694160    
 n =  3, l =  1, k =  2 :   -26.59090890    
 n =  3, l =  2, k =  2 :   -18.72537168    
 n =  3, l =  2, k =  3 :   -18.37065091    
 n =  4, l =  0, k =  1 :   -5.034501660    
 n =  4, l =  1, k =  1 :   -3.529161908    
 n =  4, l =  1, k =  2 :   -3.212725201    
 
Species :    3 (Sb), atom :   18
 n =  1, l =  0, k =  1 :   -1111.970284    
 n =  2, l =  0, k =  1 :   -168.8096435    
 n =  2, l =  1, k =  1 :   -157.9207073    
 n =  2, l =  1, k =  2 :   -148.6737487    
 n =  3, l =  0, k =  1 :   -32.74805170    
 n =  3, l =  1, k =  1 :   -28.29694160    
 n =  3, l =  1, k =  2 :   -26.59090890    
 n =  3, l =  2, k =  2 :   -18.72537168    
 n =  3, l =  2, k =  3 :   -18.37065091    
 n =  4, l =  0, k =  1 :   -5.034501660    
 n =  4, l =  1, k =  1 :   -3.529161908    
 n =  4, l =  1, k =  2 :   -3.212725201    
 
Species :    3 (Sb), atom :   19
 n =  1, l =  0, k =  1 :   -1111.970284    
 n =  2, l =  0, k =  1 :   -168.8096435    
 n =  2, l =  1, k =  1 :   -157.9207073    
 n =  2, l =  1, k =  2 :   -148.6737487    
 n =  3, l =  0, k =  1 :   -32.74805170    
 n =  3, l =  1, k =  1 :   -28.29694160    
 n =  3, l =  1, k =  2 :   -26.59090890    
 n =  3, l =  2, k =  2 :   -18.72537168    
 n =  3, l =  2, k =  3 :   -18.37065091    
 n =  4, l =  0, k =  1 :   -5.034501660    
 n =  4, l =  1, k =  1 :   -3.529161908    
 n =  4, l =  1, k =  2 :   -3.212725201    
 
Species :    3 (Sb), atom :   20
 n =  1, l =  0, k =  1 :   -1111.980314    
 n =  2, l =  0, k =  1 :   -168.8194062    
 n =  2, l =  1, k =  1 :   -157.9304605    
 n =  2, l =  1, k =  2 :   -148.6834991    
 n =  3, l =  0, k =  1 :   -32.75800411    
 n =  3, l =  1, k =  1 :   -28.30688625    
 n =  3, l =  1, k =  2 :   -26.60085810    
 n =  3, l =  2, k =  2 :   -18.73528803    
 n =  3, l =  2, k =  3 :   -18.38056976    
 n =  4, l =  0, k =  1 :   -5.044682534    
 n =  4, l =  1, k =  1 :   -3.539346460    
 n =  4, l =  1, k =  2 :   -3.222917826    
