    0.205312971066E-03
    0.280346883717E-03
    0.903961903396E-04
    0.197703570928E-03
    0.577252196972E-04
    0.343309352273E-03
    0.165626887415E-03
    0.734567628965E-04
    0.125140731256E-03
    0.322593039808E-04
    0.132285421629E-03
    0.175504368051E-03
    0.112061419264E-03
    0.101837700172E-03
    0.918989012099E-04
    0.943725199977E-04
    0.982240478558E-04
    0.974507464165E-04
    0.982072040943E-04
    0.981027066326E-04
    0.980554679472E-04
    0.980831537980E-04
    0.980811516977E-04
    0.980775725714E-04
