 -0.9905981974E-16 -0.4312587393E-15  0.2251189716E-16
 -0.9452709833E-16 -0.5274431269E-15  0.4640231053E-17
 -0.7874487981E-16 -0.4836215066E-15  0.9406027084E-17
 -0.7179856552E-16 -0.5795038712E-15 -0.3096915892E-17
 -0.4412046735E-16 -0.8913005492E-15 -0.2276802412E-16
  0.1320596326E-15 -0.1140486268E-14 -0.4147718702E-16
 -0.1579887021E-16 -0.1103546194E-14  0.2250794622E-15
 -0.3675569679E-16 -0.9035570731E-15  0.2161302918E-15
 -0.1622262882E-15 -0.9137579260E-15  0.3741662603E-15
 -0.2252556781E-15 -0.9045057602E-15  0.4550633780E-15
 -0.2665513051E-15 -0.8666083572E-15  0.5209804388E-15
 -0.2762461404E-15 -0.9194300193E-15  0.5367171449E-15
 -0.3346949704E-15 -0.8744278969E-15  0.6067432516E-15
 -0.3678172296E-15 -0.8830985229E-15  0.6564066591E-15
 -0.3838691889E-15 -0.9006927948E-15  0.6826412089E-15
 -0.3844509791E-15 -0.9266058263E-15  0.6879237749E-15
 -0.3845425740E-15 -0.9529914035E-15  0.6915675800E-15
 -0.3862199324E-15 -0.9653326554E-15  0.6947563604E-15
 -0.3873935028E-15 -0.9879503556E-15  0.6979051201E-15
 -0.3884433305E-15 -0.1006309666E-14  0.7000483207E-15
 -0.3888685590E-15 -0.1020489024E-14  0.7011101801E-15
 -0.3890760281E-15 -0.1028182854E-14  0.7014878704E-15
 -0.3891102687E-15 -0.1033996188E-14  0.7015809755E-15
 -0.3893076882E-15 -0.1044514939E-14  0.7019793993E-15
