 
Species :    1 (Cs)
 atom    1 is equivalent to atom(s)
   1
 
Species :    2 (Sb)
 atom    1 is equivalent to atom(s)
   1   2   3   4
 atom    2 is equivalent to atom(s)
   1   2   3   4
 atom    3 is equivalent to atom(s)
   1   2   3   4
 atom    4 is equivalent to atom(s)
   1   2   3   4
 atom    5 is equivalent to atom(s)
   5
 
Species :    3 (V)
 atom    1 is equivalent to atom(s)
   1   2   3
 atom    2 is equivalent to atom(s)
   1   2   3
 atom    3 is equivalent to atom(s)
   1   2   3
