 
Distance between is =    1 (Cs), ia =    1 and
 is =    1 (Cs), ia =    1 :    0.000000000    
 is =    2 (Sb), ia =    1 :    7.509748846    
 is =    2 (Sb), ia =    2 :    7.509748846    
 is =    2 (Sb), ia =    3 :    7.509748846    
 is =    2 (Sb), ia =    4 :    7.509748846    
 is =    2 (Sb), ia =    5 :    8.782691023    
 is =    3 (V), ia =    1 :    10.20783083    
 is =    3 (V), ia =    2 :    10.20783083    
 is =    3 (V), ia =    3 :    10.20783083    
 
Distance between is =    2 (Sb), ia =    1 and
 is =    1 (Cs), ia =    1 :    7.509748846    
 is =    2 (Sb), ia =    1 :    0.000000000    
 is =    2 (Sb), ia =    2 :    10.45084760    
 is =    2 (Sb), ia =    3 :    8.551881903    
 is =    2 (Sb), ia =    4 :    6.007123399    
 is =    2 (Sb), ia =    5 :    7.373547487    
 is =    3 (V), ia =    1 :    5.225423801    
 is =    3 (V), ia =    2 :    5.225423801    
 is =    3 (V), ia =    3 :    5.225423801    
 
Distance between is =    2 (Sb), ia =    2 and
 is =    1 (Cs), ia =    1 :    7.509748846    
 is =    2 (Sb), ia =    1 :    10.45084760    
 is =    2 (Sb), ia =    2 :    0.000000000    
 is =    2 (Sb), ia =    3 :    6.007123399    
 is =    2 (Sb), ia =    4 :    8.551881903    
 is =    2 (Sb), ia =    5 :    7.373547487    
 is =    3 (V), ia =    1 :    5.225423801    
 is =    3 (V), ia =    2 :    5.225423801    
 is =    3 (V), ia =    3 :    5.225423801    
 
Distance between is =    2 (Sb), ia =    3 and
 is =    1 (Cs), ia =    1 :    7.509748846    
 is =    2 (Sb), ia =    1 :    8.551881903    
 is =    2 (Sb), ia =    2 :    6.007123399    
 is =    2 (Sb), ia =    3 :    0.000000000    
 is =    2 (Sb), ia =    4 :    10.45084760    
 is =    2 (Sb), ia =    5 :    7.373547487    
 is =    3 (V), ia =    1 :    5.225423801    
 is =    3 (V), ia =    2 :    5.225423801    
 is =    3 (V), ia =    3 :    5.225423801    
 
Distance between is =    2 (Sb), ia =    4 and
 is =    1 (Cs), ia =    1 :    7.509748846    
 is =    2 (Sb), ia =    1 :    6.007123399    
 is =    2 (Sb), ia =    2 :    8.551881903    
 is =    2 (Sb), ia =    3 :    10.45084760    
 is =    2 (Sb), ia =    4 :    0.000000000    
 is =    2 (Sb), ia =    5 :    7.373547487    
 is =    3 (V), ia =    1 :    5.225423801    
 is =    3 (V), ia =    2 :    5.225423801    
 is =    3 (V), ia =    3 :    5.225423801    
 
Distance between is =    2 (Sb), ia =    5 and
 is =    1 (Cs), ia =    1 :    8.782691023    
 is =    2 (Sb), ia =    1 :    7.373547487    
 is =    2 (Sb), ia =    2 :    7.373547487    
 is =    2 (Sb), ia =    3 :    7.373547487    
 is =    2 (Sb), ia =    4 :    7.373547487    
 is =    2 (Sb), ia =    5 :    0.000000000    
 is =    3 (V), ia =    1 :    5.202321467    
 is =    3 (V), ia =    2 :    5.202321467    
 is =    3 (V), ia =    3 :    5.202321467    
 
Distance between is =    3 (V), ia =    1 and
 is =    1 (Cs), ia =    1 :    10.20783083    
 is =    2 (Sb), ia =    1 :    5.225423801    
 is =    2 (Sb), ia =    2 :    5.225423801    
 is =    2 (Sb), ia =    3 :    5.225423801    
 is =    2 (Sb), ia =    4 :    5.225423801    
 is =    2 (Sb), ia =    5 :    5.202321467    
 is =    3 (V), ia =    1 :    0.000000000    
 is =    3 (V), ia =    2 :    5.202321467    
 is =    3 (V), ia =    3 :    5.202321467    
 
Distance between is =    3 (V), ia =    2 and
 is =    1 (Cs), ia =    1 :    10.20783083    
 is =    2 (Sb), ia =    1 :    5.225423801    
 is =    2 (Sb), ia =    2 :    5.225423801    
 is =    2 (Sb), ia =    3 :    5.225423801    
 is =    2 (Sb), ia =    4 :    5.225423801    
 is =    2 (Sb), ia =    5 :    5.202321467    
 is =    3 (V), ia =    1 :    5.202321467    
 is =    3 (V), ia =    2 :    0.000000000    
 is =    3 (V), ia =    3 :    5.202321467    
 
Distance between is =    3 (V), ia =    3 and
 is =    1 (Cs), ia =    1 :    10.20783083    
 is =    2 (Sb), ia =    1 :    5.225423801    
 is =    2 (Sb), ia =    2 :    5.225423801    
 is =    2 (Sb), ia =    3 :    5.225423801    
 is =    2 (Sb), ia =    4 :    5.225423801    
 is =    2 (Sb), ia =    5 :    5.202321467    
 is =    3 (V), ia =    1 :    5.202321467    
 is =    3 (V), ia =    2 :    5.202321467    
 is =    3 (V), ia =    3 :    0.000000000    
