 
+----------------------------+
| Real-space lattice vectors |
+----------------------------+
 
vector a1 :    9.010685098      -5.202321467       0.000000000    
vector a2 :    0.000000000       10.40464293       0.000000000    
vector a3 :    0.000000000       0.000000000       17.56538205    
 
Stored column-wise as a matrix :
   9.010685098       0.000000000       0.000000000    
  -5.202321467       10.40464293       0.000000000    
   0.000000000       0.000000000       17.56538205    
 
Inverse of matrix :
  0.1109793527       0.000000000       0.000000000    
  0.5548967637E-01  0.9611093877E-01   0.000000000    
   0.000000000       0.000000000      0.5693015941E-01
 
Unit cell volume :    1646.806579    
 
 
+----------------------------------+
| Reciprocal-space lattice vectors |
+----------------------------------+
 
vector b1 :   0.6973038386       0.000000000       0.000000000    
vector b2 :   0.3486519193      0.6038828384       0.000000000    
vector b3 :    0.000000000       0.000000000      0.3577027412    
 
Stored column-wise as a matrix :
  0.6973038386      0.3486519193       0.000000000    
   0.000000000      0.6038828384       0.000000000    
   0.000000000       0.000000000      0.3577027412    
 
Inverse of matrix :
   1.434095074     -0.8279751770       0.000000000    
   0.000000000       1.655950354       0.000000000    
   0.000000000       0.000000000       2.795617380    
 
Brillouin zone volume :   0.1506249833    
