 
+---------------------------------+
| Elk code version 9.2.12 started |
+---------------------------------+
 
Info(readinput): parameters set by highq option
 rgkmax :    8.000000000    
 gmaxvr :    16.00000000    
 lmaxapw :    9
 lmaxo :    7
 nrmtscf :    1.500000000    
 nxlo :    2
 lorbcnd : T
 radkpt :    50.00000000    
 autokpt : T
 vkloff :    0.000000000       0.000000000       0.000000000    
 nempty0 :    10.00000000    
 epspot :   0.1000000000E-06
 epsengy :   0.1000000000E-04
 epsforce :   0.5000000000E-03
 epsstress :   0.1000000000E-02
 autolinengy : T
 gmaxrf :    4.000000000    
 
Number of MPI processes :      1
Number of OpenMP threads per MPI process :   24
Total number of threads (MPI x OpenMP) :     24
Maximum OpenMP nesting level :    4
Number of OpenMP threads at first nesting level :   24
Number of MKL threads :   24
 
RAM disk enabled
 
+-----------------------+
| Current task :      0 |
+-----------------------+
 
+-----------------------+
| Current task :    115 |
+-----------------------+
 
Info(writeefg): electric field gradient written to EFG.OUT
 
+------------------+
| Elk code stopped |
+------------------+
