    -172408.797901    
    -172389.520165    
    -172404.017004    
    -172388.138858    
    -172383.419258    
    -172299.469373    
    -172164.039412    
    -172140.822543    
    -172164.517068    
    -172157.272448    
    -172120.398157    
    -172156.990889    
    -172144.737338    
    -172145.963607    
    -172146.344212    
    -172146.747720    
    -172146.299740    
    -172145.722068    
    -172146.722371    
    -172146.453638    
    -172145.936984    
    -172146.311234    
    -172146.230051    
    -172146.166005    
    -172146.166380    
    -172146.253437    
    -172146.179123    
    -172146.171190    
    -172146.200416    
    -172146.183400    
    -172146.185339    
    -172146.190118    
    -172146.189094    
    -172146.180693    
    -172146.187284    
    -172146.189212    
    -172146.185558    
    -172146.186857    
    -172146.186970    
    -172146.186584    
    -172146.186371    
    -172146.187047    
    -172146.186668    
    -172146.186467    
    -172146.186705    
    -172146.186666    
    -172146.186657    
