   19.29485359    
   9.683290010    
   12.72276590    
   7.071200429    
   51.85313643    
   166.5377046    
   82.10930819    
   14.83488479    
   23.45898354    
   25.85637504    
   17.64868359    
   4.759728913    
   1.026881516    
  0.3132888879    
   1.481850900    
   1.382481650    
  0.9853635778    
   1.710689192    
   1.387585609    
  0.4364165073    
  0.1395681836    
  0.4087861089E-01
  0.1128302741    
  0.3473586697E-01
  0.4540820286E-01
  0.8831918024E-01
  0.5514468774E-01
  0.9411941399E-02
  0.8674662909E-02
  0.9316564247E-03
  0.6757417403E-02
  0.4240361333E-02
  0.3178510058E-02
  0.2865613118E-02
  0.1880342694E-02
  0.3512373805E-02
  0.1303346304E-02
  0.8159846766E-04
  0.2053909993E-03
  0.1013652654E-03
  0.8519933908E-04
  0.2336190664E-04
  0.7877836470E-04
  0.4041852662E-05
  0.5711879930E-04
  0.3772630589E-04
  0.5982932635E-05
