    0.105015352561E-03
    0.106815740090E-03
    0.540856241809E-04
    0.214654661190E-03
    0.126755713879E-04
    0.863543875730E-04
    0.713430581248E-04
    0.160188527578E-03
    0.167491157655E-03
    0.140162255327E-04
    0.528097370451E-04
    0.776228362285E-04
    0.226228186858E-03
    0.256205763190E-04
    0.506640781010E-04
    0.165990694407E-03
    0.463921869756E-04
    0.686498451430E-04
    0.188569808360E-03
    0.147732851288E-03
    0.451744006287E-04
    0.345845511694E-04
    0.348965458792E-04
    0.158360900380E-03
    0.138496344773E-03
    0.144534474708E-03
    0.152824832329E-03
    0.140876781570E-03
    0.146021970553E-03
    0.145898461439E-03
    0.146337518665E-03
    0.144909331150E-03
    0.145891556926E-03
    0.145878523369E-03
    0.145824483349E-03
    0.145282482003E-03
    0.145998523574E-03
    0.145709513014E-03
    0.145730090349E-03
    0.145758481868E-03
    0.145731478820E-03
    0.145753920811E-03
    0.145744121845E-03
    0.145753342494E-03
    0.145754513013E-03
    0.145742330233E-03
    0.145751851112E-03
    0.145749506837E-03
    0.145749891042E-03
