 
scale
 1.0
 
scale1
 1.0
 
scale2
 1.0
 
scale3
 1.0
 
avec
   0.000000000       17.59457855       18.04990247    
   10.42111605       0.000000000       18.04990247    
   10.42111605       17.59457855       0.000000000    
 
atoms
   3                                    : nspecies
'Cs.in'                                 : spfname
   4                                    : natoms; atpos, bfcmt below
    0.25000000    0.25000000    0.25000000    0.00000000  0.00000000  0.00000000
   -0.25000000   -0.25000000   -0.25000000    0.00000000  0.00000000  0.00000000
    0.24980500   -0.24980500    0.24980500    0.00000000  0.00000000  0.00000000
   -0.24980500    0.24980500   -0.24980500    0.00000000  0.00000000  0.00000000
'V.in'                                  : spfname
  12                                    : natoms; atpos, bfcmt below
   -0.00010500    0.24818500    0.00010500    0.00000000  0.00000000  0.00000000
    0.00010500   -0.24818500   -0.00010500    0.00000000  0.00000000  0.00000000
    0.24818500   -0.00010500   -0.24818500    0.00000000  0.00000000  0.00000000
   -0.24818500    0.00010500    0.24818500    0.00000000  0.00000000  0.00000000
   -0.25105000   -0.25105000    0.25105000    0.00000000  0.00000000  0.00000000
    0.25105000    0.25105000   -0.25105000    0.00000000  0.00000000  0.00000000
   -0.24994000    0.24994000    0.24994000    0.00000000  0.00000000  0.00000000
    0.24994000   -0.24994000   -0.24994000    0.00000000  0.00000000  0.00000000
   -0.25105000   -0.49676000    0.25105000    0.00000000  0.00000000  0.00000000
    0.25105000    0.49676000   -0.25105000    0.00000000  0.00000000  0.00000000
   -0.49676000   -0.25105000    0.49676000    0.00000000  0.00000000  0.00000000
    0.49676000    0.25105000   -0.49676000    0.00000000  0.00000000  0.00000000
'Sb.in'                                 : spfname
  20                                    : natoms; atpos, bfcmt below
    0.50000000    0.50000000    0.50000000    0.00000000  0.00000000  0.00000000
    0.00000000    0.50000000    0.00000000    0.00000000  0.00000000  0.00000000
    0.50000000    0.00000000    0.50000000    0.00000000  0.00000000  0.00000000
    0.28869792    0.04515542   -0.04515542    0.00000000  0.00000000  0.00000000
   -0.28869792   -0.04515542    0.04515542    0.00000000  0.00000000  0.00000000
   -0.04515542   -0.28869792    0.28869792    0.00000000  0.00000000  0.00000000
    0.04515542    0.28869792   -0.28869792    0.00000000  0.00000000  0.00000000
    0.00000000    0.00000000    0.00000000    0.00000000  0.00000000  0.00000000
   -0.28895292    0.45560958    0.04532042    0.00000000  0.00000000  0.00000000
    0.28895292   -0.45560958   -0.04532042    0.00000000  0.00000000  0.00000000
    0.04532042   -0.21197708   -0.28895292    0.00000000  0.00000000  0.00000000
   -0.04532042    0.21197708    0.28895292    0.00000000  0.00000000  0.00000000
    0.45560958   -0.28895292   -0.21197708    0.00000000  0.00000000  0.00000000
   -0.45560958    0.28895292    0.21197708    0.00000000  0.00000000  0.00000000
   -0.21197708    0.04532042    0.45560958    0.00000000  0.00000000  0.00000000
    0.21197708   -0.04532042   -0.45560958    0.00000000  0.00000000  0.00000000
   -0.45529458   -0.21124208    0.21124208    0.00000000  0.00000000  0.00000000
    0.45529458    0.21124208   -0.21124208    0.00000000  0.00000000  0.00000000
    0.21124208    0.45529458   -0.45529458    0.00000000  0.00000000  0.00000000
   -0.21124208   -0.45529458    0.45529458    0.00000000  0.00000000  0.00000000
