 
(rotation matrices are in lattice coordinates)
 
 
Species :    1 (Cs), atom :    1
   4 : nsymsite
 
 Site symmetry :    1
  spatial rotation :
   1   0   0
   0   1   0
   0   0   1
  global spin rotation :
   1   0   0
   0   1   0
   0   0   1
 
 Site symmetry :    2
  spatial rotation :
   0   0   1
  -1  -1  -1
   1   0   0
  global spin rotation :
   0   0   1
  -1  -1  -1
   1   0   0
 
 Site symmetry :    3
  spatial rotation :
   0   1   0
   1   0   0
  -1  -1  -1
  global spin rotation :
   0   1   0
   1   0   0
  -1  -1  -1
 
 Site symmetry :    4
  spatial rotation :
  -1  -1  -1
   0   0   1
   0   1   0
  global spin rotation :
  -1  -1  -1
   0   0   1
   0   1   0
 
 
Species :    1 (Cs), atom :    2
   4 : nsymsite
 
 Site symmetry :    1
  spatial rotation :
   1   0   0
   0   1   0
   0   0   1
  global spin rotation :
   1   0   0
   0   1   0
   0   0   1
 
 Site symmetry :    2
  spatial rotation :
   0   0   1
  -1  -1  -1
   1   0   0
  global spin rotation :
   0   0   1
  -1  -1  -1
   1   0   0
 
 Site symmetry :    3
  spatial rotation :
   0   1   0
   1   0   0
  -1  -1  -1
  global spin rotation :
   0   1   0
   1   0   0
  -1  -1  -1
 
 Site symmetry :    4
  spatial rotation :
  -1  -1  -1
   0   0   1
   0   1   0
  global spin rotation :
  -1  -1  -1
   0   0   1
   0   1   0
 
 
Species :    1 (Cs), atom :    3
   4 : nsymsite
 
 Site symmetry :    1
  spatial rotation :
   1   0   0
   0   1   0
   0   0   1
  global spin rotation :
   1   0   0
   0   1   0
   0   0   1
 
 Site symmetry :    2
  spatial rotation :
   0  -1   0
  -1   0   0
   1   1   1
  global spin rotation :
   0  -1   0
  -1   0   0
   1   1   1
 
 Site symmetry :    3
  spatial rotation :
   0   0   1
  -1  -1  -1
   1   0   0
  global spin rotation :
   0   0   1
  -1  -1  -1
   1   0   0
 
 Site symmetry :    4
  spatial rotation :
   1   1   1
   0   0  -1
   0  -1   0
  global spin rotation :
   1   1   1
   0   0  -1
   0  -1   0
 
 
Species :    1 (Cs), atom :    4
   4 : nsymsite
 
 Site symmetry :    1
  spatial rotation :
   1   0   0
   0   1   0
   0   0   1
  global spin rotation :
   1   0   0
   0   1   0
   0   0   1
 
 Site symmetry :    2
  spatial rotation :
   0  -1   0
  -1   0   0
   1   1   1
  global spin rotation :
   0  -1   0
  -1   0   0
   1   1   1
 
 Site symmetry :    3
  spatial rotation :
   0   0   1
  -1  -1  -1
   1   0   0
  global spin rotation :
   0   0   1
  -1  -1  -1
   1   0   0
 
 Site symmetry :    4
  spatial rotation :
   1   1   1
   0   0  -1
   0  -1   0
  global spin rotation :
   1   1   1
   0   0  -1
   0  -1   0
 
 
Species :    2 (V), atom :    1
   2 : nsymsite
 
 Site symmetry :    1
  spatial rotation :
   1   0   0
   0   1   0
   0   0   1
  global spin rotation :
   1   0   0
   0   1   0
   0   0   1
 
 Site symmetry :    2
  spatial rotation :
   0   0  -1
   1   1   1
  -1   0   0
  global spin rotation :
   0   0  -1
   1   1   1
  -1   0   0
 
 
Species :    2 (V), atom :    2
   2 : nsymsite
 
 Site symmetry :    1
  spatial rotation :
   1   0   0
   0   1   0
   0   0   1
  global spin rotation :
   1   0   0
   0   1   0
   0   0   1
 
 Site symmetry :    2
  spatial rotation :
   0   0  -1
   1   1   1
  -1   0   0
  global spin rotation :
   0   0  -1
   1   1   1
  -1   0   0
 
 
Species :    2 (V), atom :    3
   2 : nsymsite
 
 Site symmetry :    1
  spatial rotation :
   1   0   0
   0   1   0
   0   0   1
  global spin rotation :
   1   0   0
   0   1   0
   0   0   1
 
 Site symmetry :    2
  spatial rotation :
   0   0  -1
   1   1   1
  -1   0   0
  global spin rotation :
   0   0  -1
   1   1   1
  -1   0   0
 
 
Species :    2 (V), atom :    4
   2 : nsymsite
 
 Site symmetry :    1
  spatial rotation :
   1   0   0
   0   1   0
   0   0   1
  global spin rotation :
   1   0   0
   0   1   0
   0   0   1
 
 Site symmetry :    2
  spatial rotation :
   0   0  -1
   1   1   1
  -1   0   0
  global spin rotation :
   0   0  -1
   1   1   1
  -1   0   0
 
 
Species :    2 (V), atom :    5
   4 : nsymsite
 
 Site symmetry :    1
  spatial rotation :
   1   0   0
   0   1   0
   0   0   1
  global spin rotation :
   1   0   0
   0   1   0
   0   0   1
 
 Site symmetry :    2
  spatial rotation :
   0   0  -1
   1   1   1
  -1   0   0
  global spin rotation :
   0   0  -1
   1   1   1
  -1   0   0
 
 Site symmetry :    3
  spatial rotation :
   0   1   0
   1   0   0
  -1  -1  -1
  global spin rotation :
   0   1   0
   1   0   0
  -1  -1  -1
 
 Site symmetry :    4
  spatial rotation :
   1   1   1
   0   0  -1
   0  -1   0
  global spin rotation :
   1   1   1
   0   0  -1
   0  -1   0
 
 
Species :    2 (V), atom :    6
   4 : nsymsite
 
 Site symmetry :    1
  spatial rotation :
   1   0   0
   0   1   0
   0   0   1
  global spin rotation :
   1   0   0
   0   1   0
   0   0   1
 
 Site symmetry :    2
  spatial rotation :
   0   0  -1
   1   1   1
  -1   0   0
  global spin rotation :
   0   0  -1
   1   1   1
  -1   0   0
 
 Site symmetry :    3
  spatial rotation :
   0   1   0
   1   0   0
  -1  -1  -1
  global spin rotation :
   0   1   0
   1   0   0
  -1  -1  -1
 
 Site symmetry :    4
  spatial rotation :
   1   1   1
   0   0  -1
   0  -1   0
  global spin rotation :
   1   1   1
   0   0  -1
   0  -1   0
 
 
Species :    2 (V), atom :    7
   4 : nsymsite
 
 Site symmetry :    1
  spatial rotation :
   1   0   0
   0   1   0
   0   0   1
  global spin rotation :
   1   0   0
   0   1   0
   0   0   1
 
 Site symmetry :    2
  spatial rotation :
   0  -1   0
  -1   0   0
   1   1   1
  global spin rotation :
   0  -1   0
  -1   0   0
   1   1   1
 
 Site symmetry :    3
  spatial rotation :
   0   0  -1
   1   1   1
  -1   0   0
  global spin rotation :
   0   0  -1
   1   1   1
  -1   0   0
 
 Site symmetry :    4
  spatial rotation :
  -1  -1  -1
   0   0   1
   0   1   0
  global spin rotation :
  -1  -1  -1
   0   0   1
   0   1   0
 
 
Species :    2 (V), atom :    8
   4 : nsymsite
 
 Site symmetry :    1
  spatial rotation :
   1   0   0
   0   1   0
   0   0   1
  global spin rotation :
   1   0   0
   0   1   0
   0   0   1
 
 Site symmetry :    2
  spatial rotation :
   0  -1   0
  -1   0   0
   1   1   1
  global spin rotation :
   0  -1   0
  -1   0   0
   1   1   1
 
 Site symmetry :    3
  spatial rotation :
   0   0  -1
   1   1   1
  -1   0   0
  global spin rotation :
   0   0  -1
   1   1   1
  -1   0   0
 
 Site symmetry :    4
  spatial rotation :
  -1  -1  -1
   0   0   1
   0   1   0
  global spin rotation :
  -1  -1  -1
   0   0   1
   0   1   0
 
 
Species :    2 (V), atom :    9
   2 : nsymsite
 
 Site symmetry :    1
  spatial rotation :
   1   0   0
   0   1   0
   0   0   1
  global spin rotation :
   1   0   0
   0   1   0
   0   0   1
 
 Site symmetry :    2
  spatial rotation :
   0   0  -1
   1   1   1
  -1   0   0
  global spin rotation :
   0   0  -1
   1   1   1
  -1   0   0
 
 
Species :    2 (V), atom :   10
   2 : nsymsite
 
 Site symmetry :    1
  spatial rotation :
   1   0   0
   0   1   0
   0   0   1
  global spin rotation :
   1   0   0
   0   1   0
   0   0   1
 
 Site symmetry :    2
  spatial rotation :
   0   0  -1
   1   1   1
  -1   0   0
  global spin rotation :
   0   0  -1
   1   1   1
  -1   0   0
 
 
Species :    2 (V), atom :   11
   2 : nsymsite
 
 Site symmetry :    1
  spatial rotation :
   1   0   0
   0   1   0
   0   0   1
  global spin rotation :
   1   0   0
   0   1   0
   0   0   1
 
 Site symmetry :    2
  spatial rotation :
   0   0  -1
   1   1   1
  -1   0   0
  global spin rotation :
   0   0  -1
   1   1   1
  -1   0   0
 
 
Species :    2 (V), atom :   12
   2 : nsymsite
 
 Site symmetry :    1
  spatial rotation :
   1   0   0
   0   1   0
   0   0   1
  global spin rotation :
   1   0   0
   0   1   0
   0   0   1
 
 Site symmetry :    2
  spatial rotation :
   0   0  -1
   1   1   1
  -1   0   0
  global spin rotation :
   0   0  -1
   1   1   1
  -1   0   0
 
 
Species :    3 (Sb), atom :    1
   8 : nsymsite
 
 Site symmetry :    1
  spatial rotation :
   1   0   0
   0   1   0
   0   0   1
  global spin rotation :
   1   0   0
   0   1   0
   0   0   1
 
 Site symmetry :    2
  spatial rotation :
  -1   0   0
   0  -1   0
   0   0  -1
  global spin rotation :
  -1   0   0
   0  -1   0
   0   0  -1
 
 Site symmetry :    3
  spatial rotation :
   0  -1   0
  -1   0   0
   1   1   1
  global spin rotation :
   0  -1   0
  -1   0   0
   1   1   1
 
 Site symmetry :    4
  spatial rotation :
   0   0  -1
   1   1   1
  -1   0   0
  global spin rotation :
   0   0  -1
   1   1   1
  -1   0   0
 
 Site symmetry :    5
  spatial rotation :
   0   0   1
  -1  -1  -1
   1   0   0
  global spin rotation :
   0   0   1
  -1  -1  -1
   1   0   0
 
 Site symmetry :    6
  spatial rotation :
   0   1   0
   1   0   0
  -1  -1  -1
  global spin rotation :
   0   1   0
   1   0   0
  -1  -1  -1
 
 Site symmetry :    7
  spatial rotation :
  -1  -1  -1
   0   0   1
   0   1   0
  global spin rotation :
  -1  -1  -1
   0   0   1
   0   1   0
 
 Site symmetry :    8
  spatial rotation :
   1   1   1
   0   0  -1
   0  -1   0
  global spin rotation :
   1   1   1
   0   0  -1
   0  -1   0
 
 
Species :    3 (Sb), atom :    2
   4 : nsymsite
 
 Site symmetry :    1
  spatial rotation :
   1   0   0
   0   1   0
   0   0   1
  global spin rotation :
   1   0   0
   0   1   0
   0   0   1
 
 Site symmetry :    2
  spatial rotation :
  -1   0   0
   0  -1   0
   0   0  -1
  global spin rotation :
  -1   0   0
   0  -1   0
   0   0  -1
 
 Site symmetry :    3
  spatial rotation :
   0   0  -1
   1   1   1
  -1   0   0
  global spin rotation :
   0   0  -1
   1   1   1
  -1   0   0
 
 Site symmetry :    4
  spatial rotation :
   0   0   1
  -1  -1  -1
   1   0   0
  global spin rotation :
   0   0   1
  -1  -1  -1
   1   0   0
 
 
Species :    3 (Sb), atom :    3
   4 : nsymsite
 
 Site symmetry :    1
  spatial rotation :
   1   0   0
   0   1   0
   0   0   1
  global spin rotation :
   1   0   0
   0   1   0
   0   0   1
 
 Site symmetry :    2
  spatial rotation :
  -1   0   0
   0  -1   0
   0   0  -1
  global spin rotation :
  -1   0   0
   0  -1   0
   0   0  -1
 
 Site symmetry :    3
  spatial rotation :
   0   0  -1
   1   1   1
  -1   0   0
  global spin rotation :
   0   0  -1
   1   1   1
  -1   0   0
 
 Site symmetry :    4
  spatial rotation :
   0   0   1
  -1  -1  -1
   1   0   0
  global spin rotation :
   0   0   1
  -1  -1  -1
   1   0   0
 
 
Species :    3 (Sb), atom :    4
   2 : nsymsite
 
 Site symmetry :    1
  spatial rotation :
   1   0   0
   0   1   0
   0   0   1
  global spin rotation :
   1   0   0
   0   1   0
   0   0   1
 
 Site symmetry :    2
  spatial rotation :
   1   1   1
   0   0  -1
   0  -1   0
  global spin rotation :
   1   1   1
   0   0  -1
   0  -1   0
 
 
Species :    3 (Sb), atom :    5
   2 : nsymsite
 
 Site symmetry :    1
  spatial rotation :
   1   0   0
   0   1   0
   0   0   1
  global spin rotation :
   1   0   0
   0   1   0
   0   0   1
 
 Site symmetry :    2
  spatial rotation :
   1   1   1
   0   0  -1
   0  -1   0
  global spin rotation :
   1   1   1
   0   0  -1
   0  -1   0
 
 
Species :    3 (Sb), atom :    6
   2 : nsymsite
 
 Site symmetry :    1
  spatial rotation :
   1   0   0
   0   1   0
   0   0   1
  global spin rotation :
   1   0   0
   0   1   0
   0   0   1
 
 Site symmetry :    2
  spatial rotation :
   1   1   1
   0   0  -1
   0  -1   0
  global spin rotation :
   1   1   1
   0   0  -1
   0  -1   0
 
 
Species :    3 (Sb), atom :    7
   2 : nsymsite
 
 Site symmetry :    1
  spatial rotation :
   1   0   0
   0   1   0
   0   0   1
  global spin rotation :
   1   0   0
   0   1   0
   0   0   1
 
 Site symmetry :    2
  spatial rotation :
   1   1   1
   0   0  -1
   0  -1   0
  global spin rotation :
   1   1   1
   0   0  -1
   0  -1   0
 
 
Species :    3 (Sb), atom :    8
   8 : nsymsite
 
 Site symmetry :    1
  spatial rotation :
   1   0   0
   0   1   0
   0   0   1
  global spin rotation :
   1   0   0
   0   1   0
   0   0   1
 
 Site symmetry :    2
  spatial rotation :
  -1   0   0
   0  -1   0
   0   0  -1
  global spin rotation :
  -1   0   0
   0  -1   0
   0   0  -1
 
 Site symmetry :    3
  spatial rotation :
   0  -1   0
  -1   0   0
   1   1   1
  global spin rotation :
   0  -1   0
  -1   0   0
   1   1   1
 
 Site symmetry :    4
  spatial rotation :
   0   0  -1
   1   1   1
  -1   0   0
  global spin rotation :
   0   0  -1
   1   1   1
  -1   0   0
 
 Site symmetry :    5
  spatial rotation :
   0   0   1
  -1  -1  -1
   1   0   0
  global spin rotation :
   0   0   1
  -1  -1  -1
   1   0   0
 
 Site symmetry :    6
  spatial rotation :
   0   1   0
   1   0   0
  -1  -1  -1
  global spin rotation :
   0   1   0
   1   0   0
  -1  -1  -1
 
 Site symmetry :    7
  spatial rotation :
  -1  -1  -1
   0   0   1
   0   1   0
  global spin rotation :
  -1  -1  -1
   0   0   1
   0   1   0
 
 Site symmetry :    8
  spatial rotation :
   1   1   1
   0   0  -1
   0  -1   0
  global spin rotation :
   1   1   1
   0   0  -1
   0  -1   0
 
 
Species :    3 (Sb), atom :    9
   1 : nsymsite
 
 Site symmetry :    1
  spatial rotation :
   1   0   0
   0   1   0
   0   0   1
  global spin rotation :
   1   0   0
   0   1   0
   0   0   1
 
 
Species :    3 (Sb), atom :   10
   1 : nsymsite
 
 Site symmetry :    1
  spatial rotation :
   1   0   0
   0   1   0
   0   0   1
  global spin rotation :
   1   0   0
   0   1   0
   0   0   1
 
 
Species :    3 (Sb), atom :   11
   1 : nsymsite
 
 Site symmetry :    1
  spatial rotation :
   1   0   0
   0   1   0
   0   0   1
  global spin rotation :
   1   0   0
   0   1   0
   0   0   1
 
 
Species :    3 (Sb), atom :   12
   1 : nsymsite
 
 Site symmetry :    1
  spatial rotation :
   1   0   0
   0   1   0
   0   0   1
  global spin rotation :
   1   0   0
   0   1   0
   0   0   1
 
 
Species :    3 (Sb), atom :   13
   1 : nsymsite
 
 Site symmetry :    1
  spatial rotation :
   1   0   0
   0   1   0
   0   0   1
  global spin rotation :
   1   0   0
   0   1   0
   0   0   1
 
 
Species :    3 (Sb), atom :   14
   1 : nsymsite
 
 Site symmetry :    1
  spatial rotation :
   1   0   0
   0   1   0
   0   0   1
  global spin rotation :
   1   0   0
   0   1   0
   0   0   1
 
 
Species :    3 (Sb), atom :   15
   1 : nsymsite
 
 Site symmetry :    1
  spatial rotation :
   1   0   0
   0   1   0
   0   0   1
  global spin rotation :
   1   0   0
   0   1   0
   0   0   1
 
 
Species :    3 (Sb), atom :   16
   1 : nsymsite
 
 Site symmetry :    1
  spatial rotation :
   1   0   0
   0   1   0
   0   0   1
  global spin rotation :
   1   0   0
   0   1   0
   0   0   1
 
 
Species :    3 (Sb), atom :   17
   2 : nsymsite
 
 Site symmetry :    1
  spatial rotation :
   1   0   0
   0   1   0
   0   0   1
  global spin rotation :
   1   0   0
   0   1   0
   0   0   1
 
 Site symmetry :    2
  spatial rotation :
   1   1   1
   0   0  -1
   0  -1   0
  global spin rotation :
   1   1   1
   0   0  -1
   0  -1   0
 
 
Species :    3 (Sb), atom :   18
   2 : nsymsite
 
 Site symmetry :    1
  spatial rotation :
   1   0   0
   0   1   0
   0   0   1
  global spin rotation :
   1   0   0
   0   1   0
   0   0   1
 
 Site symmetry :    2
  spatial rotation :
   1   1   1
   0   0  -1
   0  -1   0
  global spin rotation :
   1   1   1
   0   0  -1
   0  -1   0
 
 
Species :    3 (Sb), atom :   19
   2 : nsymsite
 
 Site symmetry :    1
  spatial rotation :
   1   0   0
   0   1   0
   0   0   1
  global spin rotation :
   1   0   0
   0   1   0
   0   0   1
 
 Site symmetry :    2
  spatial rotation :
   1   1   1
   0   0  -1
   0  -1   0
  global spin rotation :
   1   1   1
   0   0  -1
   0  -1   0
 
 
Species :    3 (Sb), atom :   20
   2 : nsymsite
 
 Site symmetry :    1
  spatial rotation :
   1   0   0
   0   1   0
   0   0   1
  global spin rotation :
   1   0   0
   0   1   0
   0   0   1
 
 Site symmetry :    2
  spatial rotation :
   1   1   1
   0   0  -1
   0  -1   0
  global spin rotation :
   1   1   1
   0   0  -1
   0  -1   0
