    0.145874355423E-04
    0.128870613682E-04
    0.114011872007E-03
    0.813615280039E-04
    0.168230215683E-04
    0.743380088063E-04
    0.255178027054E-03
    0.804349224273E-04
    0.103389226320E-03
    0.624138448013E-04
    0.128762138463E-03
    0.719195271021E-04
    0.125891509926E-03
    0.670969732616E-04
    0.133707271581E-03
    0.136814758256E-03
    0.136191592414E-03
    0.214527964492E-04
    0.168711349803E-03
    0.870412949946E-04
    0.467729745094E-04
    0.600180529479E-04
    0.566501962755E-04
    0.185741664130E-04
    0.409336897325E-04
    0.338802773165E-04
    0.400085247650E-04
    0.407318381610E-04
    0.400849791877E-04
    0.426902915852E-04
    0.405473640114E-04
    0.410545202753E-04
    0.413381002528E-04
    0.408315427343E-04
    0.413126889028E-04
    0.409082291726E-04
    0.410602464779E-04
    0.409704419201E-04
    0.411231718768E-04
    0.410062867993E-04
    0.410060718534E-04
    0.410395217297E-04
    0.410120603755E-04
    0.410266581914E-04
    0.410226537620E-04
    0.410268212439E-04
    0.410191174124E-04
    0.410257648377E-04
    0.410233600607E-04
    0.410254255994E-04
