 -0.1333678446E-20 -0.3013768087E-21  0.6211434337E-21
 -0.1004356155E-20 -0.2130319032E-20 -0.3042106272E-21
 -0.2773022176E-21  0.8777645191E-22 -0.1736197322E-20
  0.2151321539E-21 -0.1635234630E-20 -0.1855588155E-20
 -0.9135821664E-21 -0.5225760283E-20  0.8431270624E-20
  0.2673077852E-20  0.6749784414E-20  0.1676253878E-20
 -0.2475705886E-19  0.5410852473E-21 -0.6219939279E-20
 -0.4320364374E-20 -0.1436922850E-19  0.1046889368E-19
 -0.2549341012E-20 -0.4006274505E-20 -0.4543385332E-20
  0.2478729489E-21  0.4332576512E-20 -0.2681802154E-20
  0.2165864808E-20  0.5626927097E-20  0.4740765533E-20
  0.1978435512E-20  0.4385541369E-20 -0.1992717307E-21
 -0.1956210811E-20  0.1105710318E-20  0.4867011719E-20
  0.1849515361E-21  0.5759360184E-20 -0.2255192868E-21
 -0.3926580776E-20  0.3440744478E-20 -0.9912329322E-21
  0.1510562678E-21 -0.2312182537E-21  0.2923278979E-20
  0.1194448120E-20  0.1480855136E-20  0.3652527821E-20
  0.2656008215E-20 -0.2771640259E-20  0.3593524537E-20
  0.1834277067E-20 -0.2995660410E-20 -0.5163041910E-20
 -0.7825084407E-21  0.2291034898E-20  0.2949672375E-20
  0.4612399510E-20 -0.2659595957E-20  0.4996679017E-20
 -0.2469087018E-20 -0.4091780387E-20  0.4578980099E-20
 -0.4824575489E-20 -0.2842326518E-20 -0.2007880390E-20
  0.3239926092E-20 -0.1919531443E-20  0.1871496374E-21
  0.2331486938E-20 -0.1855750873E-20  0.8400888729E-21
  0.9946810067E-21 -0.6786991932E-20 -0.8648464150E-20
 -0.4338726706E-20  0.3327909441E-20  0.3483140085E-20
  0.4217473611E-20  0.2026971429E-20 -0.1766346929E-20
  0.2790132702E-21  0.1396785311E-20  0.7058708639E-20
 -0.1833162889E-20 -0.4691427520E-20 -0.1001901528E-19
 -0.2779683890E-20 -0.3519580591E-20 -0.2245182283E-20
  0.5092269393E-22 -0.3158310659E-20 -0.7369234652E-21
 -0.2388767140E-21 -0.1012317067E-20  0.8125280662E-21
  0.7056498431E-20 -0.1773903996E-20 -0.9487289089E-20
 -0.3335212980E-20 -0.2033195065E-20 -0.8194024532E-20
  0.1612595077E-20 -0.4211388327E-21  0.5169646848E-20
 -0.1473252718E-20  0.2845164762E-20  0.2796359499E-20
 -0.3069358129E-20 -0.1773008839E-20 -0.2244736693E-20
  0.2617898057E-21  0.5918940815E-20  0.6512144830E-20
 -0.6238563724E-21  0.1579884525E-20 -0.6214896191E-20
  0.8074981703E-21  0.2850198270E-20 -0.7183432187E-20
  0.2023635096E-20 -0.1464246557E-20  0.1876029178E-20
  0.2273987545E-20 -0.1800595976E-20  0.7470078376E-20
  0.5639080579E-21  0.2935008213E-20  0.3138861025E-20
 -0.6293931939E-20  0.1004919525E-20  0.3168489771E-20
 -0.3108634615E-20 -0.7165266232E-20 -0.2390499348E-20
 -0.7331803106E-21  0.2122175420E-20 -0.8459929989E-21
  0.8493068898E-21  0.2614971147E-20 -0.2942675475E-20
 -0.7209192776E-21 -0.3274254155E-20 -0.1812962355E-20
  0.2173729863E-20  0.1667852561E-20  0.7480853789E-20
 -0.1579227663E-20  0.9544049841E-21  0.3540757451E-20
  0.5272680876E-20 -0.4504578507E-21 -0.4111766404E-20
