    46 : nkpt; k-point, vkl, wkpt, nmat below
     1   0.000000000       0.000000000       0.000000000      0.4629629630E-02    6887
     2  0.1666666667       0.000000000       0.000000000      0.3703703704E-01    6859
     3  0.3333333333       0.000000000       0.000000000      0.3703703704E-01    6844
     4  0.5000000000       0.000000000       0.000000000      0.1851851852E-01    6850
     5  0.1666666667      0.1666666667       0.000000000      0.9259259259E-02    6853
     6  0.3333333333      0.1666666667       0.000000000      0.3703703704E-01    6844
     7  0.5000000000      0.1666666667       0.000000000      0.3703703704E-01    6844
     8  0.6666666667      0.1666666667       0.000000000      0.3703703704E-01    6843
     9  0.8333333333      0.1666666667       0.000000000      0.1851851852E-01    6857
    10  0.3333333333      0.3333333333       0.000000000      0.9259259259E-02    6824
    11  0.5000000000      0.3333333333       0.000000000      0.3703703704E-01    6851
    12  0.6666666667      0.3333333333       0.000000000      0.1851851852E-01    6841
    13  0.5000000000      0.5000000000       0.000000000      0.4629629630E-02    6830
    14  0.1666666667       0.000000000      0.1666666667      0.9259259259E-02    6852
    15  0.3333333333       0.000000000      0.1666666667      0.3703703704E-01    6844
    16  0.5000000000       0.000000000      0.1666666667      0.3703703704E-01    6845
    17  0.6666666667       0.000000000      0.1666666667      0.3703703704E-01    6842
    18  0.8333333333       0.000000000      0.1666666667      0.1851851852E-01    6854
    19   0.000000000      0.1666666667      0.1666666667      0.9259259259E-02    6845
    20  0.3333333333      0.1666666667      0.1666666667      0.1851851852E-01    6844
    21  0.5000000000      0.1666666667      0.1666666667      0.3703703704E-01    6837
    22  0.6666666667      0.1666666667      0.1666666667      0.3703703704E-01    6839
    23  0.8333333333      0.1666666667      0.1666666667      0.3703703704E-01    6848
    24  0.5000000000      0.3333333333      0.1666666667      0.1851851852E-01    6842
    25  0.6666666667      0.3333333333      0.1666666667      0.3703703704E-01    6853
    26  0.8333333333      0.3333333333      0.1666666667      0.1851851852E-01    6842
    27  0.3333333333      0.5000000000      0.1666666667      0.1851851852E-01    6845
    28  0.6666666667      0.5000000000      0.1666666667      0.9259259259E-02    6868
    29  0.3333333333      0.6666666667      0.1666666667      0.3703703704E-01    6842
    30  0.5000000000      0.6666666667      0.1666666667      0.9259259259E-02    6858
    31  0.3333333333      0.8333333333      0.1666666667      0.1851851852E-01    6842
    32  0.3333333333       0.000000000      0.3333333333      0.9259259259E-02    6824
    33  0.5000000000       0.000000000      0.3333333333      0.3703703704E-01    6829
    34  0.6666666667       0.000000000      0.3333333333      0.1851851852E-01    6841
    35  0.5000000000      0.1666666667      0.3333333333      0.1851851852E-01    6847
    36  0.6666666667      0.1666666667      0.3333333333      0.3703703704E-01    6837
    37  0.8333333333      0.1666666667      0.3333333333      0.1851851852E-01    6834
    38   0.000000000      0.3333333333      0.3333333333      0.9259259259E-02    6834
    39  0.6666666667      0.3333333333      0.3333333333      0.1851851852E-01    6848
    40  0.8333333333      0.3333333333      0.3333333333      0.3703703704E-01    6848
    41  0.8333333333      0.5000000000      0.3333333333      0.9259259259E-02    6856
    42  0.5000000000      0.8333333333      0.3333333333      0.9259259259E-02    6830
    43  0.5000000000       0.000000000      0.5000000000      0.4629629630E-02    6826
    44  0.6666666667      0.1666666667      0.5000000000      0.9259259259E-02    6808
    45  0.8333333333      0.3333333333      0.5000000000      0.9259259259E-02    6848
    46   0.000000000      0.5000000000      0.5000000000      0.4629629630E-02    6870
