    -172408.743191    
    -172389.474025    
    -172403.969587    
    -172387.843496    
    -172298.498104    
    -172200.703010    
    -172144.342078    
    -172146.328350    
    -172145.299292    
    -172148.216767    
    -172145.767061    
    -172146.260271    
    -172146.297937    
    -172146.240160    
    -172146.221356    
    -172146.198623    
    -172146.189177    
    -172146.193150    
    -172146.191606    
    -172146.192318    
    -172146.192703    
    -172146.192561    
    -172146.192494    
    -172146.192537    
    -172146.192610    
    -172146.192624    
    -172146.192478    
    -172146.192545    
    -172146.192687    
    -172146.192623    
    -172146.192609    
    -172146.192630    
    -172146.192532    
    -172146.192738    
    -172146.192649    
    -172146.192594    
    -172146.192523    
    -172146.192715    
    -172146.192532    
    -172146.192528    
    -172146.192670    
    -172146.192493    
    -172146.192699    
    -172146.192740    
    -172146.192479    
    -172146.192677    
    -172146.192614    
    -172146.192514    
    -172146.192549    
    -172146.192697    
