   19.29016945    
   9.681868030    
   12.82679673    
   6.969142029    
   52.52435854    
   158.3981101    
   93.22497187    
   20.91163717    
   16.78535391    
   53.99637127    
   29.68162773    
   3.888897954    
  0.7145896237    
  0.9375276366    
  0.4396942154    
  0.2410100881E-01
  0.5159253930    
  0.6517937866    
  0.3294096456E-01
  0.5930212242    
  0.2842943211    
  0.8949074254E-03
  0.4624448076E-01
  0.3080984665E-01
  0.2841918284E-01
  0.3095747234E-01
  0.1232832734E-01
  0.4794379350E-01
  0.2494784442E-01
  0.3908147453E-02
  0.2078219462E-02
  0.5069851177E-03
  0.2385777974E-02
  0.1242466562E-02
  0.4437242751E-04
  0.6727971486E-03
  0.5106682947E-03
  0.8395356417E-03
  0.4215372610E-03
  0.2907501766E-04
  0.8934672223E-05
  0.1235079544E-03
  0.6393322838E-04
  0.7002602797E-04
  0.9203495574E-04
  0.5983095616E-04
  0.4848607932E-04
  0.5334382877E-05
