 
+----------------------------+
| Real-space lattice vectors |
+----------------------------+
 
vector a1 :    0.000000000       17.59457855       18.04990247    
vector a2 :    10.42111605       0.000000000       18.04990247    
vector a3 :    10.42111605       17.59457855       0.000000000    
 
Stored column-wise as a matrix :
   0.000000000       10.42111605       10.42111605    
   17.59457855       0.000000000       17.59457855    
   18.04990247       18.04990247       0.000000000    
 
Inverse of matrix :
 -0.4797950599E-01  0.2841784465E-01  0.2770098070E-01
  0.4797950599E-01 -0.2841784465E-01  0.2770098070E-01
  0.4797950599E-01  0.2841784465E-01 -0.2770098070E-01
 
Unit cell volume :    6619.084969    
 
 
+----------------------------------+
| Reciprocal-space lattice vectors |
+----------------------------------+
 
vector b1 :  -0.3014641271      0.1785545840      0.1740503949    
vector b2 :   0.3014641271     -0.1785545840      0.1740503949    
vector b3 :   0.3014641271      0.1785545840     -0.1740503949    
 
Stored column-wise as a matrix :
 -0.3014641271      0.3014641271      0.3014641271    
  0.1785545840     -0.1785545840      0.1785545840    
  0.1740503949      0.1740503949     -0.1740503949    
 
Inverse of matrix :
  0.1139171710E-16   2.800264148       2.872731201    
   1.658572132       0.000000000       2.872731201    
   1.658572132       2.800264148       0.000000000    
 
Brillouin zone volume :   0.3747500064E-01
