 
Distance between is =    1 (Cs), ia =    1 and
 is =    1 (Cs), ia =    1 :    0.000000000    
 is =    1 (Cs), ia =    2 :    10.42111605    
 is =    1 (Cs), ia =    3 :    10.42111630    
 is =    1 (Cs), ia =    4 :    10.42111630    
 is =    2 (V), ia =    1 :    10.21798296    
 is =    2 (V), ia =    2 :    10.21798296    
 is =    2 (V), ia =    3 :    10.21798296    
 is =    2 (V), ia =    4 :    10.21798296    
 is =    2 (V), ia =    5 :    10.22459648    
 is =    2 (V), ia =    6 :    10.22459648    
 is =    2 (V), ia =    7 :    12.60325528    
 is =    2 (V), ia =    8 :    12.60325528    
 is =    2 (V), ia =    9 :    10.22662589    
 is =    2 (V), ia =   10 :    10.22662589    
 is =    2 (V), ia =   11 :    10.22662589    
 is =    2 (V), ia =   12 :    10.22662589    
 is =    3 (Sb), ia =    1 :    13.63788687    
 is =    3 (Sb), ia =    2 :    8.797289277    
 is =    3 (Sb), ia =    3 :    8.797289277    
 is =    3 (Sb), ia =    4 :    7.519489456    
 is =    3 (Sb), ia =    5 :    7.519489456    
 is =    3 (Sb), ia =    6 :    7.519489456    
 is =    3 (Sb), ia =    7 :    7.519489456    
 is =    3 (Sb), ia =    8 :    13.63788687    
 is =    3 (Sb), ia =    9 :    12.84757805    
 is =    3 (Sb), ia =   10 :    7.518506094    
 is =    3 (Sb), ia =   11 :    12.84757805    
 is =    3 (Sb), ia =   12 :    7.518506094    
 is =    3 (Sb), ia =   13 :    12.84757805    
 is =    3 (Sb), ia =   14 :    7.518506094    
 is =    3 (Sb), ia =   15 :    12.84757805    
 is =    3 (Sb), ia =   16 :    7.518506094    
 is =    3 (Sb), ia =   17 :    7.520343898    
 is =    3 (Sb), ia =   18 :    7.520343898    
 is =    3 (Sb), ia =   19 :    7.520343898    
 is =    3 (Sb), ia =   20 :    7.520343898    
 
Distance between is =    1 (Cs), ia =    2 and
 is =    1 (Cs), ia =    1 :    10.42111605    
 is =    1 (Cs), ia =    2 :    0.000000000    
 is =    1 (Cs), ia =    3 :    10.42111630    
 is =    1 (Cs), ia =    4 :    10.42111630    
 is =    2 (V), ia =    1 :    10.21798296    
 is =    2 (V), ia =    2 :    10.21798296    
 is =    2 (V), ia =    3 :    10.21798296    
 is =    2 (V), ia =    4 :    10.21798296    
 is =    2 (V), ia =    5 :    10.22459648    
 is =    2 (V), ia =    6 :    10.22459648    
 is =    2 (V), ia =    7 :    12.60325528    
 is =    2 (V), ia =    8 :    12.60325528    
 is =    2 (V), ia =    9 :    10.22662589    
 is =    2 (V), ia =   10 :    10.22662589    
 is =    2 (V), ia =   11 :    10.22662589    
 is =    2 (V), ia =   12 :    10.22662589    
 is =    3 (Sb), ia =    1 :    13.63788687    
 is =    3 (Sb), ia =    2 :    8.797289277    
 is =    3 (Sb), ia =    3 :    8.797289277    
 is =    3 (Sb), ia =    4 :    7.519489456    
 is =    3 (Sb), ia =    5 :    7.519489456    
 is =    3 (Sb), ia =    6 :    7.519489456    
 is =    3 (Sb), ia =    7 :    7.519489456    
 is =    3 (Sb), ia =    8 :    13.63788687    
 is =    3 (Sb), ia =    9 :    7.518506094    
 is =    3 (Sb), ia =   10 :    12.84757805    
 is =    3 (Sb), ia =   11 :    7.518506094    
 is =    3 (Sb), ia =   12 :    12.84757805    
 is =    3 (Sb), ia =   13 :    7.518506094    
 is =    3 (Sb), ia =   14 :    12.84757805    
 is =    3 (Sb), ia =   15 :    7.518506094    
 is =    3 (Sb), ia =   16 :    12.84757805    
 is =    3 (Sb), ia =   17 :    7.520343898    
 is =    3 (Sb), ia =   18 :    7.520343898    
 is =    3 (Sb), ia =   19 :    7.520343898    
 is =    3 (Sb), ia =   20 :    7.520343898    
 
Distance between is =    1 (Cs), ia =    3 and
 is =    1 (Cs), ia =    1 :    10.42111630    
 is =    1 (Cs), ia =    2 :    10.42111630    
 is =    1 (Cs), ia =    3 :    0.000000000    
 is =    1 (Cs), ia =    4 :    10.42111706    
 is =    2 (V), ia =    1 :    10.23317341    
 is =    2 (V), ia =    2 :    10.23317341    
 is =    2 (V), ia =    3 :    10.23317341    
 is =    2 (V), ia =    4 :    10.23317341    
 is =    2 (V), ia =    5 :    12.59580855    
 is =    2 (V), ia =    6 :    12.59580855    
 is =    2 (V), ia =    7 :    10.22240828    
 is =    2 (V), ia =    8 :    10.22240828    
 is =    2 (V), ia =    9 :    10.22062144    
 is =    2 (V), ia =   10 :    10.22062144    
 is =    2 (V), ia =   11 :    10.22062144    
 is =    2 (V), ia =   12 :    10.22062144    
 is =    3 (Sb), ia =    1 :    8.795001982    
 is =    3 (Sb), ia =    2 :    13.63641154    
 is =    3 (Sb), ia =    3 :    13.63641154    
 is =    3 (Sb), ia =    4 :    7.517105715    
 is =    3 (Sb), ia =    5 :    12.84777380    
 is =    3 (Sb), ia =    6 :    7.517105715    
 is =    3 (Sb), ia =    7 :    12.84777380    
 is =    3 (Sb), ia =    8 :    8.799576572    
 is =    3 (Sb), ia =    9 :    7.519445815    
 is =    3 (Sb), ia =   10 :    7.517711412    
 is =    3 (Sb), ia =   11 :    7.519445815    
 is =    3 (Sb), ia =   12 :    7.517711412    
 is =    3 (Sb), ia =   13 :    7.517711412    
 is =    3 (Sb), ia =   14 :    7.519445815    
 is =    3 (Sb), ia =   15 :    7.517711412    
 is =    3 (Sb), ia =   16 :    7.519445815    
 is =    3 (Sb), ia =   17 :    7.518033167    
 is =    3 (Sb), ia =   18 :    12.85152739    
 is =    3 (Sb), ia =   19 :    7.518033167    
 is =    3 (Sb), ia =   20 :    12.85152739    
 
Distance between is =    1 (Cs), ia =    4 and
 is =    1 (Cs), ia =    1 :    10.42111630    
 is =    1 (Cs), ia =    2 :    10.42111630    
 is =    1 (Cs), ia =    3 :    10.42111706    
 is =    1 (Cs), ia =    4 :    0.000000000    
 is =    2 (V), ia =    1 :    10.23317341    
 is =    2 (V), ia =    2 :    10.23317341    
 is =    2 (V), ia =    3 :    10.23317341    
 is =    2 (V), ia =    4 :    10.23317341    
 is =    2 (V), ia =    5 :    12.59580855    
 is =    2 (V), ia =    6 :    12.59580855    
 is =    2 (V), ia =    7 :    10.22240828    
 is =    2 (V), ia =    8 :    10.22240828    
 is =    2 (V), ia =    9 :    10.22062144    
 is =    2 (V), ia =   10 :    10.22062144    
 is =    2 (V), ia =   11 :    10.22062144    
 is =    2 (V), ia =   12 :    10.22062144    
 is =    3 (Sb), ia =    1 :    8.795001982    
 is =    3 (Sb), ia =    2 :    13.63641154    
 is =    3 (Sb), ia =    3 :    13.63641154    
 is =    3 (Sb), ia =    4 :    12.84777380    
 is =    3 (Sb), ia =    5 :    7.517105715    
 is =    3 (Sb), ia =    6 :    12.84777380    
 is =    3 (Sb), ia =    7 :    7.517105715    
 is =    3 (Sb), ia =    8 :    8.799576572    
 is =    3 (Sb), ia =    9 :    7.517711412    
 is =    3 (Sb), ia =   10 :    7.519445815    
 is =    3 (Sb), ia =   11 :    7.517711412    
 is =    3 (Sb), ia =   12 :    7.519445815    
 is =    3 (Sb), ia =   13 :    7.519445815    
 is =    3 (Sb), ia =   14 :    7.517711412    
 is =    3 (Sb), ia =   15 :    7.519445815    
 is =    3 (Sb), ia =   16 :    7.517711412    
 is =    3 (Sb), ia =   17 :    12.85152739    
 is =    3 (Sb), ia =   18 :    7.518033167    
 is =    3 (Sb), ia =   19 :    12.85152739    
 is =    3 (Sb), ia =   20 :    7.518033167    
 
Distance between is =    2 (V), ia =    1 and
 is =    1 (Cs), ia =    1 :    10.21798296    
 is =    1 (Cs), ia =    2 :    10.21798296    
 is =    1 (Cs), ia =    3 :    10.23317341    
 is =    1 (Cs), ia =    4 :    10.23317341    
 is =    2 (V), ia =    1 :    0.000000000    
 is =    2 (V), ia =    2 :    10.39516755    
 is =    2 (V), ia =    3 :    5.222438098    
 is =    2 (V), ia =    4 :    9.048055111    
 is =    2 (V), ia =    5 :    9.020349358    
 is =    2 (V), ia =    6 :    5.192610212    
 is =    2 (V), ia =    7 :    5.217811386    
 is =    2 (V), ia =    8 :    9.036235003    
 is =    2 (V), ia =    9 :    5.189774707    
 is =    2 (V), ia =   10 :    9.026580177    
 is =    2 (V), ia =   11 :    10.41218326    
 is =    2 (V), ia =   12 :    10.40930236    
 is =    3 (Sb), ia =    1 :    9.025592308    
 is =    3 (Sb), ia =    2 :    5.197583775    
 is =    3 (Sb), ia =    3 :    9.024328816    
 is =    3 (Sb), ia =    4 :    5.237668251    
 is =    3 (Sb), ia =    5 :    11.65445599    
 is =    3 (Sb), ia =    6 :    11.65445599    
 is =    3 (Sb), ia =    7 :    5.237668251    
 is =    3 (Sb), ia =    8 :    5.223532353    
 is =    3 (Sb), ia =    9 :    5.237232711    
 is =    3 (Sb), ia =   10 :    11.65258585    
 is =    3 (Sb), ia =   11 :    11.65258585    
 is =    3 (Sb), ia =   12 :    5.237232711    
 is =    3 (Sb), ia =   13 :    9.045357777    
 is =    3 (Sb), ia =   14 :    9.048123158    
 is =    3 (Sb), ia =   15 :    9.048123158    
 is =    3 (Sb), ia =   16 :    9.045357777    
 is =    3 (Sb), ia =   17 :    9.032748285    
 is =    3 (Sb), ia =   18 :    9.032686170    
 is =    3 (Sb), ia =   19 :    9.032686170    
 is =    3 (Sb), ia =   20 :    9.032748285    
 
Distance between is =    2 (V), ia =    2 and
 is =    1 (Cs), ia =    1 :    10.21798296    
 is =    1 (Cs), ia =    2 :    10.21798296    
 is =    1 (Cs), ia =    3 :    10.23317341    
 is =    1 (Cs), ia =    4 :    10.23317341    
 is =    2 (V), ia =    1 :    10.39516755    
 is =    2 (V), ia =    2 :    0.000000000    
 is =    2 (V), ia =    3 :    9.048055111    
 is =    2 (V), ia =    4 :    5.222438098    
 is =    2 (V), ia =    5 :    5.192610212    
 is =    2 (V), ia =    6 :    9.020349358    
 is =    2 (V), ia =    7 :    9.036235003    
 is =    2 (V), ia =    8 :    5.217811386    
 is =    2 (V), ia =    9 :    9.026580177    
 is =    2 (V), ia =   10 :    5.189774707    
 is =    2 (V), ia =   11 :    10.40930236    
 is =    2 (V), ia =   12 :    10.41218326    
 is =    3 (Sb), ia =    1 :    9.025592308    
 is =    3 (Sb), ia =    2 :    5.197583775    
 is =    3 (Sb), ia =    3 :    9.024328816    
 is =    3 (Sb), ia =    4 :    11.65445599    
 is =    3 (Sb), ia =    5 :    5.237668251    
 is =    3 (Sb), ia =    6 :    5.237668251    
 is =    3 (Sb), ia =    7 :    11.65445599    
 is =    3 (Sb), ia =    8 :    5.223532353    
 is =    3 (Sb), ia =    9 :    11.65258585    
 is =    3 (Sb), ia =   10 :    5.237232711    
 is =    3 (Sb), ia =   11 :    5.237232711    
 is =    3 (Sb), ia =   12 :    11.65258585    
 is =    3 (Sb), ia =   13 :    9.048123158    
 is =    3 (Sb), ia =   14 :    9.045357777    
 is =    3 (Sb), ia =   15 :    9.045357777    
 is =    3 (Sb), ia =   16 :    9.048123158    
 is =    3 (Sb), ia =   17 :    9.032686170    
 is =    3 (Sb), ia =   18 :    9.032748285    
 is =    3 (Sb), ia =   19 :    9.032748285    
 is =    3 (Sb), ia =   20 :    9.032686170    
 
Distance between is =    2 (V), ia =    3 and
 is =    1 (Cs), ia =    1 :    10.21798296    
 is =    1 (Cs), ia =    2 :    10.21798296    
 is =    1 (Cs), ia =    3 :    10.23317341    
 is =    1 (Cs), ia =    4 :    10.23317341    
 is =    2 (V), ia =    1 :    5.222438098    
 is =    2 (V), ia =    2 :    9.048055111    
 is =    2 (V), ia =    3 :    0.000000000    
 is =    2 (V), ia =    4 :    10.39516755    
 is =    2 (V), ia =    5 :    9.020349358    
 is =    2 (V), ia =    6 :    5.192610212    
 is =    2 (V), ia =    7 :    9.036235003    
 is =    2 (V), ia =    8 :    5.217811386    
 is =    2 (V), ia =    9 :    10.41218326    
 is =    2 (V), ia =   10 :    10.40930236    
 is =    2 (V), ia =   11 :    5.189774707    
 is =    2 (V), ia =   12 :    9.026580177    
 is =    3 (Sb), ia =    1 :    9.025592308    
 is =    3 (Sb), ia =    2 :    9.024328816    
 is =    3 (Sb), ia =    3 :    5.197583775    
 is =    3 (Sb), ia =    4 :    5.237668251    
 is =    3 (Sb), ia =    5 :    11.65445599    
 is =    3 (Sb), ia =    6 :    11.65445599    
 is =    3 (Sb), ia =    7 :    5.237668251    
 is =    3 (Sb), ia =    8 :    5.223532353    
 is =    3 (Sb), ia =    9 :    9.045357777    
 is =    3 (Sb), ia =   10 :    9.048123158    
 is =    3 (Sb), ia =   11 :    9.048123158    
 is =    3 (Sb), ia =   12 :    9.045357777    
 is =    3 (Sb), ia =   13 :    5.237232711    
 is =    3 (Sb), ia =   14 :    11.65258585    
 is =    3 (Sb), ia =   15 :    11.65258585    
 is =    3 (Sb), ia =   16 :    5.237232711    
 is =    3 (Sb), ia =   17 :    9.032748285    
 is =    3 (Sb), ia =   18 :    9.032686170    
 is =    3 (Sb), ia =   19 :    9.032686170    
 is =    3 (Sb), ia =   20 :    9.032748285    
 
Distance between is =    2 (V), ia =    4 and
 is =    1 (Cs), ia =    1 :    10.21798296    
 is =    1 (Cs), ia =    2 :    10.21798296    
 is =    1 (Cs), ia =    3 :    10.23317341    
 is =    1 (Cs), ia =    4 :    10.23317341    
 is =    2 (V), ia =    1 :    9.048055111    
 is =    2 (V), ia =    2 :    5.222438098    
 is =    2 (V), ia =    3 :    10.39516755    
 is =    2 (V), ia =    4 :    0.000000000    
 is =    2 (V), ia =    5 :    5.192610212    
 is =    2 (V), ia =    6 :    9.020349358    
 is =    2 (V), ia =    7 :    5.217811386    
 is =    2 (V), ia =    8 :    9.036235003    
 is =    2 (V), ia =    9 :    10.40930236    
 is =    2 (V), ia =   10 :    10.41218326    
 is =    2 (V), ia =   11 :    9.026580177    
 is =    2 (V), ia =   12 :    5.189774707    
 is =    3 (Sb), ia =    1 :    9.025592308    
 is =    3 (Sb), ia =    2 :    9.024328816    
 is =    3 (Sb), ia =    3 :    5.197583775    
 is =    3 (Sb), ia =    4 :    11.65445599    
 is =    3 (Sb), ia =    5 :    5.237668251    
 is =    3 (Sb), ia =    6 :    5.237668251    
 is =    3 (Sb), ia =    7 :    11.65445599    
 is =    3 (Sb), ia =    8 :    5.223532353    
 is =    3 (Sb), ia =    9 :    9.048123158    
 is =    3 (Sb), ia =   10 :    9.045357777    
 is =    3 (Sb), ia =   11 :    9.045357777    
 is =    3 (Sb), ia =   12 :    9.048123158    
 is =    3 (Sb), ia =   13 :    11.65258585    
 is =    3 (Sb), ia =   14 :    5.237232711    
 is =    3 (Sb), ia =   15 :    5.237232711    
 is =    3 (Sb), ia =   16 :    11.65258585    
 is =    3 (Sb), ia =   17 :    9.032686170    
 is =    3 (Sb), ia =   18 :    9.032748285    
 is =    3 (Sb), ia =   19 :    9.032748285    
 is =    3 (Sb), ia =   20 :    9.032686170    
 
Distance between is =    2 (V), ia =    5 and
 is =    1 (Cs), ia =    1 :    10.22459648    
 is =    1 (Cs), ia =    2 :    10.22459648    
 is =    1 (Cs), ia =    3 :    12.59580855    
 is =    1 (Cs), ia =    4 :    12.59580855    
 is =    2 (V), ia =    1 :    9.020349358    
 is =    2 (V), ia =    2 :    5.192610212    
 is =    2 (V), ia =    3 :    9.020349358    
 is =    2 (V), ia =    4 :    5.192610212    
 is =    2 (V), ia =    5 :    0.000000000    
 is =    2 (V), ia =    6 :    10.42114669    
 is =    2 (V), ia =    7 :    10.41038444    
 is =    2 (V), ia =    8 :    10.41038444    
 is =    2 (V), ia =    9 :    5.240362418    
 is =    2 (V), ia =   10 :    9.012319785    
 is =    2 (V), ia =   11 :    5.240362418    
 is =    2 (V), ia =   12 :    9.012319785    
 is =    3 (Sb), ia =    1 :    9.037586168    
 is =    3 (Sb), ia =    2 :    5.210573345    
 is =    3 (Sb), ia =    3 :    5.210573345    
 is =    3 (Sb), ia =    4 :    11.66794253    
 is =    3 (Sb), ia =    5 :    5.233452532    
 is =    3 (Sb), ia =    6 :    5.233452532    
 is =    3 (Sb), ia =    7 :    11.66794253    
 is =    3 (Sb), ia =    8 :    9.012316305    
 is =    3 (Sb), ia =    9 :    9.051330462    
 is =    3 (Sb), ia =   10 :    9.030790405    
 is =    3 (Sb), ia =   11 :    9.030790405    
 is =    3 (Sb), ia =   12 :    9.051330462    
 is =    3 (Sb), ia =   13 :    9.051330462    
 is =    3 (Sb), ia =   14 :    9.030790405    
 is =    3 (Sb), ia =   15 :    9.030790405    
 is =    3 (Sb), ia =   16 :    9.051330462    
 is =    3 (Sb), ia =   17 :    5.244176547    
 is =    3 (Sb), ia =   18 :    11.65971562    
 is =    3 (Sb), ia =   19 :    11.65971562    
 is =    3 (Sb), ia =   20 :    5.244176547    
 
Distance between is =    2 (V), ia =    6 and
 is =    1 (Cs), ia =    1 :    10.22459648    
 is =    1 (Cs), ia =    2 :    10.22459648    
 is =    1 (Cs), ia =    3 :    12.59580855    
 is =    1 (Cs), ia =    4 :    12.59580855    
 is =    2 (V), ia =    1 :    5.192610212    
 is =    2 (V), ia =    2 :    9.020349358    
 is =    2 (V), ia =    3 :    5.192610212    
 is =    2 (V), ia =    4 :    9.020349358    
 is =    2 (V), ia =    5 :    10.42114669    
 is =    2 (V), ia =    6 :    0.000000000    
 is =    2 (V), ia =    7 :    10.41038444    
 is =    2 (V), ia =    8 :    10.41038444    
 is =    2 (V), ia =    9 :    9.012319785    
 is =    2 (V), ia =   10 :    5.240362418    
 is =    2 (V), ia =   11 :    9.012319785    
 is =    2 (V), ia =   12 :    5.240362418    
 is =    3 (Sb), ia =    1 :    9.037586168    
 is =    3 (Sb), ia =    2 :    5.210573345    
 is =    3 (Sb), ia =    3 :    5.210573345    
 is =    3 (Sb), ia =    4 :    5.233452532    
 is =    3 (Sb), ia =    5 :    11.66794253    
 is =    3 (Sb), ia =    6 :    11.66794253    
 is =    3 (Sb), ia =    7 :    5.233452532    
 is =    3 (Sb), ia =    8 :    9.012316305    
 is =    3 (Sb), ia =    9 :    9.030790405    
 is =    3 (Sb), ia =   10 :    9.051330462    
 is =    3 (Sb), ia =   11 :    9.051330462    
 is =    3 (Sb), ia =   12 :    9.030790405    
 is =    3 (Sb), ia =   13 :    9.030790405    
 is =    3 (Sb), ia =   14 :    9.051330462    
 is =    3 (Sb), ia =   15 :    9.051330462    
 is =    3 (Sb), ia =   16 :    9.030790405    
 is =    3 (Sb), ia =   17 :    11.65971562    
 is =    3 (Sb), ia =   18 :    5.244176547    
 is =    3 (Sb), ia =   19 :    5.244176547    
 is =    3 (Sb), ia =   20 :    11.65971562    
 
Distance between is =    2 (V), ia =    7 and
 is =    1 (Cs), ia =    1 :    12.60325528    
 is =    1 (Cs), ia =    2 :    12.60325528    
 is =    1 (Cs), ia =    3 :    10.22240828    
 is =    1 (Cs), ia =    4 :    10.22240828    
 is =    2 (V), ia =    1 :    5.217811386    
 is =    2 (V), ia =    2 :    9.036235003    
 is =    2 (V), ia =    3 :    9.036235003    
 is =    2 (V), ia =    4 :    5.217811386    
 is =    2 (V), ia =    5 :    10.41038444    
 is =    2 (V), ia =    6 :    10.41038444    
 is =    2 (V), ia =    7 :    0.000000000    
 is =    2 (V), ia =    8 :    10.42028236    
 is =    2 (V), ia =    9 :    5.191491679    
 is =    2 (V), ia =   10 :    9.030926969    
 is =    2 (V), ia =   11 :    9.030926969    
 is =    2 (V), ia =   12 :    5.191491679    
 is =    3 (Sb), ia =    1 :    5.210141181    
 is =    3 (Sb), ia =    2 :    9.024951246    
 is =    3 (Sb), ia =    3 :    9.024951246    
 is =    3 (Sb), ia =    4 :    9.039505894    
 is =    3 (Sb), ia =    5 :    9.039505894    
 is =    3 (Sb), ia =    6 :    9.039505894    
 is =    3 (Sb), ia =    7 :    9.039505894    
 is =    3 (Sb), ia =    8 :    5.210974870    
 is =    3 (Sb), ia =    9 :    5.238509194    
 is =    3 (Sb), ia =   10 :    11.66117443    
 is =    3 (Sb), ia =   11 :    11.66117443    
 is =    3 (Sb), ia =   12 :    5.238509194    
 is =    3 (Sb), ia =   13 :    11.66117443    
 is =    3 (Sb), ia =   14 :    5.238509194    
 is =    3 (Sb), ia =   15 :    5.238509194    
 is =    3 (Sb), ia =   16 :    11.66117443    
 is =    3 (Sb), ia =   17 :    9.039167915    
 is =    3 (Sb), ia =   18 :    9.039167915    
 is =    3 (Sb), ia =   19 :    9.039167915    
 is =    3 (Sb), ia =   20 :    9.039167915    
 
Distance between is =    2 (V), ia =    8 and
 is =    1 (Cs), ia =    1 :    12.60325528    
 is =    1 (Cs), ia =    2 :    12.60325528    
 is =    1 (Cs), ia =    3 :    10.22240828    
 is =    1 (Cs), ia =    4 :    10.22240828    
 is =    2 (V), ia =    1 :    9.036235003    
 is =    2 (V), ia =    2 :    5.217811386    
 is =    2 (V), ia =    3 :    5.217811386    
 is =    2 (V), ia =    4 :    9.036235003    
 is =    2 (V), ia =    5 :    10.41038444    
 is =    2 (V), ia =    6 :    10.41038444    
 is =    2 (V), ia =    7 :    10.42028236    
 is =    2 (V), ia =    8 :    0.000000000    
 is =    2 (V), ia =    9 :    9.030926969    
 is =    2 (V), ia =   10 :    5.191491679    
 is =    2 (V), ia =   11 :    5.191491679    
 is =    2 (V), ia =   12 :    9.030926969    
 is =    3 (Sb), ia =    1 :    5.210141181    
 is =    3 (Sb), ia =    2 :    9.024951246    
 is =    3 (Sb), ia =    3 :    9.024951246    
 is =    3 (Sb), ia =    4 :    9.039505894    
 is =    3 (Sb), ia =    5 :    9.039505894    
 is =    3 (Sb), ia =    6 :    9.039505894    
 is =    3 (Sb), ia =    7 :    9.039505894    
 is =    3 (Sb), ia =    8 :    5.210974870    
 is =    3 (Sb), ia =    9 :    11.66117443    
 is =    3 (Sb), ia =   10 :    5.238509194    
 is =    3 (Sb), ia =   11 :    5.238509194    
 is =    3 (Sb), ia =   12 :    11.66117443    
 is =    3 (Sb), ia =   13 :    5.238509194    
 is =    3 (Sb), ia =   14 :    11.66117443    
 is =    3 (Sb), ia =   15 :    11.66117443    
 is =    3 (Sb), ia =   16 :    5.238509194    
 is =    3 (Sb), ia =   17 :    9.039167915    
 is =    3 (Sb), ia =   18 :    9.039167915    
 is =    3 (Sb), ia =   19 :    9.039167915    
 is =    3 (Sb), ia =   20 :    9.039167915    
 
Distance between is =    2 (V), ia =    9 and
 is =    1 (Cs), ia =    1 :    10.22662589    
 is =    1 (Cs), ia =    2 :    10.22662589    
 is =    1 (Cs), ia =    3 :    10.22062144    
 is =    1 (Cs), ia =    4 :    10.22062144    
 is =    2 (V), ia =    1 :    5.189774707    
 is =    2 (V), ia =    2 :    9.026580177    
 is =    2 (V), ia =    3 :    10.41218326    
 is =    2 (V), ia =    4 :    10.40930236    
 is =    2 (V), ia =    5 :    5.240362418    
 is =    2 (V), ia =    6 :    9.012319785    
 is =    2 (V), ia =    7 :    5.191491679    
 is =    2 (V), ia =    8 :    9.030926969    
 is =    2 (V), ia =    9 :    0.000000000    
 is =    2 (V), ia =   10 :    10.41326899    
 is =    2 (V), ia =   11 :    5.240362418    
 is =    2 (V), ia =   12 :    8.998598379    
 is =    3 (Sb), ia =    1 :    5.206634495    
 is =    3 (Sb), ia =    2 :    5.214554488    
 is =    3 (Sb), ia =    3 :    9.044445998    
 is =    3 (Sb), ia =    4 :    9.030147530    
 is =    3 (Sb), ia =    5 :    9.059213633    
 is =    3 (Sb), ia =    6 :    9.059213633    
 is =    3 (Sb), ia =    7 :    9.030147530    
 is =    3 (Sb), ia =    8 :    9.005458212    
 is =    3 (Sb), ia =    9 :    5.228888890    
 is =    3 (Sb), ia =   10 :    11.66738701    
 is =    3 (Sb), ia =   11 :    11.66738701    
 is =    3 (Sb), ia =   12 :    5.228888890    
 is =    3 (Sb), ia =   13 :    9.054587919    
 is =    3 (Sb), ia =   14 :    9.026828691    
 is =    3 (Sb), ia =   15 :    9.026828691    
 is =    3 (Sb), ia =   16 :    9.054587919    
 is =    3 (Sb), ia =   17 :    5.247455786    
 is =    3 (Sb), ia =   18 :    11.65350867    
 is =    3 (Sb), ia =   19 :    11.65350867    
 is =    3 (Sb), ia =   20 :    5.247455786    
 
Distance between is =    2 (V), ia =   10 and
 is =    1 (Cs), ia =    1 :    10.22662589    
 is =    1 (Cs), ia =    2 :    10.22662589    
 is =    1 (Cs), ia =    3 :    10.22062144    
 is =    1 (Cs), ia =    4 :    10.22062144    
 is =    2 (V), ia =    1 :    9.026580177    
 is =    2 (V), ia =    2 :    5.189774707    
 is =    2 (V), ia =    3 :    10.40930236    
 is =    2 (V), ia =    4 :    10.41218326    
 is =    2 (V), ia =    5 :    9.012319785    
 is =    2 (V), ia =    6 :    5.240362418    
 is =    2 (V), ia =    7 :    9.030926969    
 is =    2 (V), ia =    8 :    5.191491679    
 is =    2 (V), ia =    9 :    10.41326899    
 is =    2 (V), ia =   10 :    0.000000000    
 is =    2 (V), ia =   11 :    8.998598379    
 is =    2 (V), ia =   12 :    5.240362418    
 is =    3 (Sb), ia =    1 :    5.206634495    
 is =    3 (Sb), ia =    2 :    5.214554488    
 is =    3 (Sb), ia =    3 :    9.044445998    
 is =    3 (Sb), ia =    4 :    9.059213633    
 is =    3 (Sb), ia =    5 :    9.030147530    
 is =    3 (Sb), ia =    6 :    9.030147530    
 is =    3 (Sb), ia =    7 :    9.059213633    
 is =    3 (Sb), ia =    8 :    9.005458212    
 is =    3 (Sb), ia =    9 :    11.66738701    
 is =    3 (Sb), ia =   10 :    5.228888890    
 is =    3 (Sb), ia =   11 :    5.228888890    
 is =    3 (Sb), ia =   12 :    11.66738701    
 is =    3 (Sb), ia =   13 :    9.026828691    
 is =    3 (Sb), ia =   14 :    9.054587919    
 is =    3 (Sb), ia =   15 :    9.054587919    
 is =    3 (Sb), ia =   16 :    9.026828691    
 is =    3 (Sb), ia =   17 :    11.65350867    
 is =    3 (Sb), ia =   18 :    5.247455786    
 is =    3 (Sb), ia =   19 :    5.247455786    
 is =    3 (Sb), ia =   20 :    11.65350867    
 
Distance between is =    2 (V), ia =   11 and
 is =    1 (Cs), ia =    1 :    10.22662589    
 is =    1 (Cs), ia =    2 :    10.22662589    
 is =    1 (Cs), ia =    3 :    10.22062144    
 is =    1 (Cs), ia =    4 :    10.22062144    
 is =    2 (V), ia =    1 :    10.41218326    
 is =    2 (V), ia =    2 :    10.40930236    
 is =    2 (V), ia =    3 :    5.189774707    
 is =    2 (V), ia =    4 :    9.026580177    
 is =    2 (V), ia =    5 :    5.240362418    
 is =    2 (V), ia =    6 :    9.012319785    
 is =    2 (V), ia =    7 :    9.030926969    
 is =    2 (V), ia =    8 :    5.191491679    
 is =    2 (V), ia =    9 :    5.240362418    
 is =    2 (V), ia =   10 :    8.998598379    
 is =    2 (V), ia =   11 :    0.000000000    
 is =    2 (V), ia =   12 :    10.41326899    
 is =    3 (Sb), ia =    1 :    5.206634495    
 is =    3 (Sb), ia =    2 :    9.044445998    
 is =    3 (Sb), ia =    3 :    5.214554488    
 is =    3 (Sb), ia =    4 :    9.030147530    
 is =    3 (Sb), ia =    5 :    9.059213633    
 is =    3 (Sb), ia =    6 :    9.059213633    
 is =    3 (Sb), ia =    7 :    9.030147530    
 is =    3 (Sb), ia =    8 :    9.005458212    
 is =    3 (Sb), ia =    9 :    9.054587919    
 is =    3 (Sb), ia =   10 :    9.026828691    
 is =    3 (Sb), ia =   11 :    9.026828691    
 is =    3 (Sb), ia =   12 :    9.054587919    
 is =    3 (Sb), ia =   13 :    5.228888890    
 is =    3 (Sb), ia =   14 :    11.66738701    
 is =    3 (Sb), ia =   15 :    11.66738701    
 is =    3 (Sb), ia =   16 :    5.228888890    
 is =    3 (Sb), ia =   17 :    5.247455786    
 is =    3 (Sb), ia =   18 :    11.65350867    
 is =    3 (Sb), ia =   19 :    11.65350867    
 is =    3 (Sb), ia =   20 :    5.247455786    
 
Distance between is =    2 (V), ia =   12 and
 is =    1 (Cs), ia =    1 :    10.22662589    
 is =    1 (Cs), ia =    2 :    10.22662589    
 is =    1 (Cs), ia =    3 :    10.22062144    
 is =    1 (Cs), ia =    4 :    10.22062144    
 is =    2 (V), ia =    1 :    10.40930236    
 is =    2 (V), ia =    2 :    10.41218326    
 is =    2 (V), ia =    3 :    9.026580177    
 is =    2 (V), ia =    4 :    5.189774707    
 is =    2 (V), ia =    5 :    9.012319785    
 is =    2 (V), ia =    6 :    5.240362418    
 is =    2 (V), ia =    7 :    5.191491679    
 is =    2 (V), ia =    8 :    9.030926969    
 is =    2 (V), ia =    9 :    8.998598379    
 is =    2 (V), ia =   10 :    5.240362418    
 is =    2 (V), ia =   11 :    10.41326899    
 is =    2 (V), ia =   12 :    0.000000000    
 is =    3 (Sb), ia =    1 :    5.206634495    
 is =    3 (Sb), ia =    2 :    9.044445998    
 is =    3 (Sb), ia =    3 :    5.214554488    
 is =    3 (Sb), ia =    4 :    9.059213633    
 is =    3 (Sb), ia =    5 :    9.030147530    
 is =    3 (Sb), ia =    6 :    9.030147530    
 is =    3 (Sb), ia =    7 :    9.059213633    
 is =    3 (Sb), ia =    8 :    9.005458212    
 is =    3 (Sb), ia =    9 :    9.026828691    
 is =    3 (Sb), ia =   10 :    9.054587919    
 is =    3 (Sb), ia =   11 :    9.054587919    
 is =    3 (Sb), ia =   12 :    9.026828691    
 is =    3 (Sb), ia =   13 :    11.66738701    
 is =    3 (Sb), ia =   14 :    5.228888890    
 is =    3 (Sb), ia =   15 :    5.228888890    
 is =    3 (Sb), ia =   16 :    11.66738701    
 is =    3 (Sb), ia =   17 :    11.65350867    
 is =    3 (Sb), ia =   18 :    5.247455786    
 is =    3 (Sb), ia =   19 :    5.247455786    
 is =    3 (Sb), ia =   20 :    11.65350867    
 
Distance between is =    3 (Sb), ia =    1 and
 is =    1 (Cs), ia =    1 :    13.63788687    
 is =    1 (Cs), ia =    2 :    13.63788687    
 is =    1 (Cs), ia =    3 :    8.795001982    
 is =    1 (Cs), ia =    4 :    8.795001982    
 is =    2 (V), ia =    1 :    9.025592308    
 is =    2 (V), ia =    2 :    9.025592308    
 is =    2 (V), ia =    3 :    9.025592308    
 is =    2 (V), ia =    4 :    9.025592308    
 is =    2 (V), ia =    5 :    9.037586168    
 is =    2 (V), ia =    6 :    9.037586168    
 is =    2 (V), ia =    7 :    5.210141181    
 is =    2 (V), ia =    8 :    5.210141181    
 is =    2 (V), ia =    9 :    5.206634495    
 is =    2 (V), ia =   10 :    5.206634495    
 is =    2 (V), ia =   11 :    5.206634495    
 is =    2 (V), ia =   12 :    5.206634495    
 is =    3 (Sb), ia =    1 :    0.000000000    
 is =    3 (Sb), ia =    2 :    10.42111605    
 is =    3 (Sb), ia =    3 :    10.42111605    
 is =    3 (Sb), ia =    4 :    12.77333423    
 is =    3 (Sb), ia =    5 :    12.77333423    
 is =    3 (Sb), ia =    6 :    12.77333423    
 is =    3 (Sb), ia =    7 :    12.77333423    
 is =    3 (Sb), ia =    8 :    10.42111605    
 is =    3 (Sb), ia =    9 :    7.390910400    
 is =    3 (Sb), ia =   10 :    7.390910400    
 is =    3 (Sb), ia =   11 :    7.390910400    
 is =    3 (Sb), ia =   12 :    7.390910400    
 is =    3 (Sb), ia =   13 :    7.390910400    
 is =    3 (Sb), ia =   14 :    7.390910400    
 is =    3 (Sb), ia =   15 :    7.390910400    
 is =    3 (Sb), ia =   16 :    7.390910400    
 is =    3 (Sb), ia =   17 :    7.386540833    
 is =    3 (Sb), ia =   18 :    7.386540833    
 is =    3 (Sb), ia =   19 :    7.386540833    
 is =    3 (Sb), ia =   20 :    7.386540833    
 
Distance between is =    3 (Sb), ia =    2 and
 is =    1 (Cs), ia =    1 :    8.797289277    
 is =    1 (Cs), ia =    2 :    8.797289277    
 is =    1 (Cs), ia =    3 :    13.63641154    
 is =    1 (Cs), ia =    4 :    13.63641154    
 is =    2 (V), ia =    1 :    5.197583775    
 is =    2 (V), ia =    2 :    5.197583775    
 is =    2 (V), ia =    3 :    9.024328816    
 is =    2 (V), ia =    4 :    9.024328816    
 is =    2 (V), ia =    5 :    5.210573345    
 is =    2 (V), ia =    6 :    5.210573345    
 is =    2 (V), ia =    7 :    9.024951246    
 is =    2 (V), ia =    8 :    9.024951246    
 is =    2 (V), ia =    9 :    5.214554488    
 is =    2 (V), ia =   10 :    5.214554488    
 is =    2 (V), ia =   11 :    9.044445998    
 is =    2 (V), ia =   12 :    9.044445998    
 is =    3 (Sb), ia =    1 :    10.42111605    
 is =    3 (Sb), ia =    2 :    0.000000000    
 is =    3 (Sb), ia =    3 :    10.42111605    
 is =    3 (Sb), ia =    4 :    7.390188058    
 is =    3 (Sb), ia =    5 :    7.390188058    
 is =    3 (Sb), ia =    6 :    7.390188058    
 is =    3 (Sb), ia =    7 :    7.390188058    
 is =    3 (Sb), ia =    8 :    10.42111605    
 is =    3 (Sb), ia =    9 :    7.388559038    
 is =    3 (Sb), ia =   10 :    7.388559038    
 is =    3 (Sb), ia =   11 :    7.388559038    
 is =    3 (Sb), ia =   12 :    7.388559038    
 is =    3 (Sb), ia =   13 :    12.77196667    
 is =    3 (Sb), ia =   14 :    12.77196667    
 is =    3 (Sb), ia =   15 :    12.77196667    
 is =    3 (Sb), ia =   16 :    12.77196667    
 is =    3 (Sb), ia =   17 :    7.387496425    
 is =    3 (Sb), ia =   18 :    7.387496425    
 is =    3 (Sb), ia =   19 :    7.387496425    
 is =    3 (Sb), ia =   20 :    7.387496425    
 
Distance between is =    3 (Sb), ia =    3 and
 is =    1 (Cs), ia =    1 :    8.797289277    
 is =    1 (Cs), ia =    2 :    8.797289277    
 is =    1 (Cs), ia =    3 :    13.63641154    
 is =    1 (Cs), ia =    4 :    13.63641154    
 is =    2 (V), ia =    1 :    9.024328816    
 is =    2 (V), ia =    2 :    9.024328816    
 is =    2 (V), ia =    3 :    5.197583775    
 is =    2 (V), ia =    4 :    5.197583775    
 is =    2 (V), ia =    5 :    5.210573345    
 is =    2 (V), ia =    6 :    5.210573345    
 is =    2 (V), ia =    7 :    9.024951246    
 is =    2 (V), ia =    8 :    9.024951246    
 is =    2 (V), ia =    9 :    9.044445998    
 is =    2 (V), ia =   10 :    9.044445998    
 is =    2 (V), ia =   11 :    5.214554488    
 is =    2 (V), ia =   12 :    5.214554488    
 is =    3 (Sb), ia =    1 :    10.42111605    
 is =    3 (Sb), ia =    2 :    10.42111605    
 is =    3 (Sb), ia =    3 :    0.000000000    
 is =    3 (Sb), ia =    4 :    7.390188058    
 is =    3 (Sb), ia =    5 :    7.390188058    
 is =    3 (Sb), ia =    6 :    7.390188058    
 is =    3 (Sb), ia =    7 :    7.390188058    
 is =    3 (Sb), ia =    8 :    10.42111605    
 is =    3 (Sb), ia =    9 :    12.77196667    
 is =    3 (Sb), ia =   10 :    12.77196667    
 is =    3 (Sb), ia =   11 :    12.77196667    
 is =    3 (Sb), ia =   12 :    12.77196667    
 is =    3 (Sb), ia =   13 :    7.388559038    
 is =    3 (Sb), ia =   14 :    7.388559038    
 is =    3 (Sb), ia =   15 :    7.388559038    
 is =    3 (Sb), ia =   16 :    7.388559038    
 is =    3 (Sb), ia =   17 :    7.387496425    
 is =    3 (Sb), ia =   18 :    7.387496425    
 is =    3 (Sb), ia =   19 :    7.387496425    
 is =    3 (Sb), ia =   20 :    7.387496425    
 
Distance between is =    3 (Sb), ia =    4 and
 is =    1 (Cs), ia =    1 :    7.519489456    
 is =    1 (Cs), ia =    2 :    7.519489456    
 is =    1 (Cs), ia =    3 :    7.517105715    
 is =    1 (Cs), ia =    4 :    12.84777380    
 is =    2 (V), ia =    1 :    5.237668251    
 is =    2 (V), ia =    2 :    11.65445599    
 is =    2 (V), ia =    3 :    5.237668251    
 is =    2 (V), ia =    4 :    11.65445599    
 is =    2 (V), ia =    5 :    11.66794253    
 is =    2 (V), ia =    6 :    5.233452532    
 is =    2 (V), ia =    7 :    9.039505894    
 is =    2 (V), ia =    8 :    9.039505894    
 is =    2 (V), ia =    9 :    9.030147530    
 is =    2 (V), ia =   10 :    9.059213633    
 is =    2 (V), ia =   11 :    9.030147530    
 is =    2 (V), ia =   12 :    9.059213633    
 is =    3 (Sb), ia =    1 :    12.77333423    
 is =    3 (Sb), ia =    2 :    7.390188058    
 is =    3 (Sb), ia =    3 :    7.390188058    
 is =    3 (Sb), ia =    4 :    0.000000000    
 is =    3 (Sb), ia =    5 :    10.84302665    
 is =    3 (Sb), ia =    6 :    12.02701102    
 is =    3 (Sb), ia =    7 :    8.578148801    
 is =    3 (Sb), ia =    8 :    7.386366340    
 is =    3 (Sb), ia =    9 :    10.47485736    
 is =    3 (Sb), ia =   10 :    10.41684348    
 is =    3 (Sb), ia =   11 :    13.49393231    
 is =    3 (Sb), ia =   12 :    6.012242147    
 is =    3 (Sb), ia =   13 :    6.012242147    
 is =    3 (Sb), ia =   14 :    13.49393231    
 is =    3 (Sb), ia =   15 :    10.41684348    
 is =    3 (Sb), ia =   16 :    10.47485736    
 is =    3 (Sb), ia =   17 :    9.019421136    
 is =    3 (Sb), ia =   18 :    6.020545713    
 is =    3 (Sb), ia =   19 :    10.47760906    
 is =    3 (Sb), ia =   20 :    10.42111674    
 
Distance between is =    3 (Sb), ia =    5 and
 is =    1 (Cs), ia =    1 :    7.519489456    
 is =    1 (Cs), ia =    2 :    7.519489456    
 is =    1 (Cs), ia =    3 :    12.84777380    
 is =    1 (Cs), ia =    4 :    7.517105715    
 is =    2 (V), ia =    1 :    11.65445599    
 is =    2 (V), ia =    2 :    5.237668251    
 is =    2 (V), ia =    3 :    11.65445599    
 is =    2 (V), ia =    4 :    5.237668251    
 is =    2 (V), ia =    5 :    5.233452532    
 is =    2 (V), ia =    6 :    11.66794253    
 is =    2 (V), ia =    7 :    9.039505894    
 is =    2 (V), ia =    8 :    9.039505894    
 is =    2 (V), ia =    9 :    9.059213633    
 is =    2 (V), ia =   10 :    9.030147530    
 is =    2 (V), ia =   11 :    9.059213633    
 is =    2 (V), ia =   12 :    9.030147530    
 is =    3 (Sb), ia =    1 :    12.77333423    
 is =    3 (Sb), ia =    2 :    7.390188058    
 is =    3 (Sb), ia =    3 :    7.390188058    
 is =    3 (Sb), ia =    4 :    10.84302665    
 is =    3 (Sb), ia =    5 :    0.000000000    
 is =    3 (Sb), ia =    6 :    8.578148801    
 is =    3 (Sb), ia =    7 :    12.02701102    
 is =    3 (Sb), ia =    8 :    7.386366340    
 is =    3 (Sb), ia =    9 :    10.41684348    
 is =    3 (Sb), ia =   10 :    10.47485736    
 is =    3 (Sb), ia =   11 :    6.012242147    
 is =    3 (Sb), ia =   12 :    13.49393231    
 is =    3 (Sb), ia =   13 :    13.49393231    
 is =    3 (Sb), ia =   14 :    6.012242147    
 is =    3 (Sb), ia =   15 :    10.47485736    
 is =    3 (Sb), ia =   16 :    10.41684348    
 is =    3 (Sb), ia =   17 :    6.020545713    
 is =    3 (Sb), ia =   18 :    9.019421136    
 is =    3 (Sb), ia =   19 :    10.42111674    
 is =    3 (Sb), ia =   20 :    10.47760906    
 
Distance between is =    3 (Sb), ia =    6 and
 is =    1 (Cs), ia =    1 :    7.519489456    
 is =    1 (Cs), ia =    2 :    7.519489456    
 is =    1 (Cs), ia =    3 :    7.517105715    
 is =    1 (Cs), ia =    4 :    12.84777380    
 is =    2 (V), ia =    1 :    11.65445599    
 is =    2 (V), ia =    2 :    5.237668251    
 is =    2 (V), ia =    3 :    11.65445599    
 is =    2 (V), ia =    4 :    5.237668251    
 is =    2 (V), ia =    5 :    5.233452532    
 is =    2 (V), ia =    6 :    11.66794253    
 is =    2 (V), ia =    7 :    9.039505894    
 is =    2 (V), ia =    8 :    9.039505894    
 is =    2 (V), ia =    9 :    9.059213633    
 is =    2 (V), ia =   10 :    9.030147530    
 is =    2 (V), ia =   11 :    9.059213633    
 is =    2 (V), ia =   12 :    9.030147530    
 is =    3 (Sb), ia =    1 :    12.77333423    
 is =    3 (Sb), ia =    2 :    7.390188058    
 is =    3 (Sb), ia =    3 :    7.390188058    
 is =    3 (Sb), ia =    4 :    12.02701102    
 is =    3 (Sb), ia =    5 :    8.578148801    
 is =    3 (Sb), ia =    6 :    0.000000000    
 is =    3 (Sb), ia =    7 :    10.84302665    
 is =    3 (Sb), ia =    8 :    7.386366340    
 is =    3 (Sb), ia =    9 :    13.49393231    
 is =    3 (Sb), ia =   10 :    6.012242147    
 is =    3 (Sb), ia =   11 :    10.47485736    
 is =    3 (Sb), ia =   12 :    10.41684348    
 is =    3 (Sb), ia =   13 :    10.41684348    
 is =    3 (Sb), ia =   14 :    10.47485736    
 is =    3 (Sb), ia =   15 :    6.012242147    
 is =    3 (Sb), ia =   16 :    13.49393231    
 is =    3 (Sb), ia =   17 :    10.47760906    
 is =    3 (Sb), ia =   18 :    10.42111674    
 is =    3 (Sb), ia =   19 :    9.019421136    
 is =    3 (Sb), ia =   20 :    6.020545713    
 
Distance between is =    3 (Sb), ia =    7 and
 is =    1 (Cs), ia =    1 :    7.519489456    
 is =    1 (Cs), ia =    2 :    7.519489456    
 is =    1 (Cs), ia =    3 :    12.84777380    
 is =    1 (Cs), ia =    4 :    7.517105715    
 is =    2 (V), ia =    1 :    5.237668251    
 is =    2 (V), ia =    2 :    11.65445599    
 is =    2 (V), ia =    3 :    5.237668251    
 is =    2 (V), ia =    4 :    11.65445599    
 is =    2 (V), ia =    5 :    11.66794253    
 is =    2 (V), ia =    6 :    5.233452532    
 is =    2 (V), ia =    7 :    9.039505894    
 is =    2 (V), ia =    8 :    9.039505894    
 is =    2 (V), ia =    9 :    9.030147530    
 is =    2 (V), ia =   10 :    9.059213633    
 is =    2 (V), ia =   11 :    9.030147530    
 is =    2 (V), ia =   12 :    9.059213633    
 is =    3 (Sb), ia =    1 :    12.77333423    
 is =    3 (Sb), ia =    2 :    7.390188058    
 is =    3 (Sb), ia =    3 :    7.390188058    
 is =    3 (Sb), ia =    4 :    8.578148801    
 is =    3 (Sb), ia =    5 :    12.02701102    
 is =    3 (Sb), ia =    6 :    10.84302665    
 is =    3 (Sb), ia =    7 :    0.000000000    
 is =    3 (Sb), ia =    8 :    7.386366340    
 is =    3 (Sb), ia =    9 :    6.012242147    
 is =    3 (Sb), ia =   10 :    13.49393231    
 is =    3 (Sb), ia =   11 :    10.41684348    
 is =    3 (Sb), ia =   12 :    10.47485736    
 is =    3 (Sb), ia =   13 :    10.47485736    
 is =    3 (Sb), ia =   14 :    10.41684348    
 is =    3 (Sb), ia =   15 :    13.49393231    
 is =    3 (Sb), ia =   16 :    6.012242147    
 is =    3 (Sb), ia =   17 :    10.42111674    
 is =    3 (Sb), ia =   18 :    10.47760906    
 is =    3 (Sb), ia =   19 :    6.020545713    
 is =    3 (Sb), ia =   20 :    9.019421136    
 
Distance between is =    3 (Sb), ia =    8 and
 is =    1 (Cs), ia =    1 :    13.63788687    
 is =    1 (Cs), ia =    2 :    13.63788687    
 is =    1 (Cs), ia =    3 :    8.799576572    
 is =    1 (Cs), ia =    4 :    8.799576572    
 is =    2 (V), ia =    1 :    5.223532353    
 is =    2 (V), ia =    2 :    5.223532353    
 is =    2 (V), ia =    3 :    5.223532353    
 is =    2 (V), ia =    4 :    5.223532353    
 is =    2 (V), ia =    5 :    9.012316305    
 is =    2 (V), ia =    6 :    9.012316305    
 is =    2 (V), ia =    7 :    5.210974870    
 is =    2 (V), ia =    8 :    5.210974870    
 is =    2 (V), ia =    9 :    9.005458212    
 is =    2 (V), ia =   10 :    9.005458212    
 is =    2 (V), ia =   11 :    9.005458212    
 is =    2 (V), ia =   12 :    9.005458212    
 is =    3 (Sb), ia =    1 :    10.42111605    
 is =    3 (Sb), ia =    2 :    10.42111605    
 is =    3 (Sb), ia =    3 :    10.42111605    
 is =    3 (Sb), ia =    4 :    7.386366340    
 is =    3 (Sb), ia =    5 :    7.386366340    
 is =    3 (Sb), ia =    6 :    7.386366340    
 is =    3 (Sb), ia =    7 :    7.386366340    
 is =    3 (Sb), ia =    8 :    0.000000000    
 is =    3 (Sb), ia =    9 :    7.386353955    
 is =    3 (Sb), ia =   10 :    7.386353955    
 is =    3 (Sb), ia =   11 :    7.386353955    
 is =    3 (Sb), ia =   12 :    7.386353955    
 is =    3 (Sb), ia =   13 :    7.386353955    
 is =    3 (Sb), ia =   14 :    7.386353955    
 is =    3 (Sb), ia =   15 :    7.386353955    
 is =    3 (Sb), ia =   16 :    7.386353955    
 is =    3 (Sb), ia =   17 :    12.77343514    
 is =    3 (Sb), ia =   18 :    12.77343514    
 is =    3 (Sb), ia =   19 :    12.77343514    
 is =    3 (Sb), ia =   20 :    12.77343514    
 
Distance between is =    3 (Sb), ia =    9 and
 is =    1 (Cs), ia =    1 :    12.84757805    
 is =    1 (Cs), ia =    2 :    7.518506094    
 is =    1 (Cs), ia =    3 :    7.519445815    
 is =    1 (Cs), ia =    4 :    7.517711412    
 is =    2 (V), ia =    1 :    5.237232711    
 is =    2 (V), ia =    2 :    11.65258585    
 is =    2 (V), ia =    3 :    9.045357777    
 is =    2 (V), ia =    4 :    9.048123158    
 is =    2 (V), ia =    5 :    9.051330462    
 is =    2 (V), ia =    6 :    9.030790405    
 is =    2 (V), ia =    7 :    5.238509194    
 is =    2 (V), ia =    8 :    11.66117443    
 is =    2 (V), ia =    9 :    5.228888890    
 is =    2 (V), ia =   10 :    11.66738701    
 is =    2 (V), ia =   11 :    9.054587919    
 is =    2 (V), ia =   12 :    9.026828691    
 is =    3 (Sb), ia =    1 :    7.390910400    
 is =    3 (Sb), ia =    2 :    7.388559038    
 is =    3 (Sb), ia =    3 :    12.77196667    
 is =    3 (Sb), ia =    4 :    10.47485736    
 is =    3 (Sb), ia =    5 :    10.41684348    
 is =    3 (Sb), ia =    6 :    13.49393231    
 is =    3 (Sb), ia =    7 :    6.012242147    
 is =    3 (Sb), ia =    8 :    7.386353955    
 is =    3 (Sb), ia =    9 :    0.000000000    
 is =    3 (Sb), ia =   10 :    10.84049906    
 is =    3 (Sb), ia =   11 :    12.02773347    
 is =    3 (Sb), ia =   12 :    8.577093126    
 is =    3 (Sb), ia =   13 :    9.017487742    
 is =    3 (Sb), ia =   14 :    6.016754490    
 is =    3 (Sb), ia =   15 :    10.47701585    
 is =    3 (Sb), ia =   16 :    10.41465496    
 is =    3 (Sb), ia =   17 :    6.019011689    
 is =    3 (Sb), ia =   18 :    13.49456611    
 is =    3 (Sb), ia =   19 :    10.42012682    
 is =    3 (Sb), ia =   20 :    10.47629578    
 
Distance between is =    3 (Sb), ia =   10 and
 is =    1 (Cs), ia =    1 :    7.518506094    
 is =    1 (Cs), ia =    2 :    12.84757805    
 is =    1 (Cs), ia =    3 :    7.517711412    
 is =    1 (Cs), ia =    4 :    7.519445815    
 is =    2 (V), ia =    1 :    11.65258585    
 is =    2 (V), ia =    2 :    5.237232711    
 is =    2 (V), ia =    3 :    9.048123158    
 is =    2 (V), ia =    4 :    9.045357777    
 is =    2 (V), ia =    5 :    9.030790405    
 is =    2 (V), ia =    6 :    9.051330462    
 is =    2 (V), ia =    7 :    11.66117443    
 is =    2 (V), ia =    8 :    5.238509194    
 is =    2 (V), ia =    9 :    11.66738701    
 is =    2 (V), ia =   10 :    5.228888890    
 is =    2 (V), ia =   11 :    9.026828691    
 is =    2 (V), ia =   12 :    9.054587919    
 is =    3 (Sb), ia =    1 :    7.390910400    
 is =    3 (Sb), ia =    2 :    7.388559038    
 is =    3 (Sb), ia =    3 :    12.77196667    
 is =    3 (Sb), ia =    4 :    10.41684348    
 is =    3 (Sb), ia =    5 :    10.47485736    
 is =    3 (Sb), ia =    6 :    6.012242147    
 is =    3 (Sb), ia =    7 :    13.49393231    
 is =    3 (Sb), ia =    8 :    7.386353955    
 is =    3 (Sb), ia =    9 :    10.84049906    
 is =    3 (Sb), ia =   10 :    0.000000000    
 is =    3 (Sb), ia =   11 :    8.577093126    
 is =    3 (Sb), ia =   12 :    12.02773347    
 is =    3 (Sb), ia =   13 :    6.016754490    
 is =    3 (Sb), ia =   14 :    9.017487742    
 is =    3 (Sb), ia =   15 :    10.41465496    
 is =    3 (Sb), ia =   16 :    10.47701585    
 is =    3 (Sb), ia =   17 :    13.49456611    
 is =    3 (Sb), ia =   18 :    6.019011689    
 is =    3 (Sb), ia =   19 :    10.47629578    
 is =    3 (Sb), ia =   20 :    10.42012682    
 
Distance between is =    3 (Sb), ia =   11 and
 is =    1 (Cs), ia =    1 :    12.84757805    
 is =    1 (Cs), ia =    2 :    7.518506094    
 is =    1 (Cs), ia =    3 :    7.519445815    
 is =    1 (Cs), ia =    4 :    7.517711412    
 is =    2 (V), ia =    1 :    11.65258585    
 is =    2 (V), ia =    2 :    5.237232711    
 is =    2 (V), ia =    3 :    9.048123158    
 is =    2 (V), ia =    4 :    9.045357777    
 is =    2 (V), ia =    5 :    9.030790405    
 is =    2 (V), ia =    6 :    9.051330462    
 is =    2 (V), ia =    7 :    11.66117443    
 is =    2 (V), ia =    8 :    5.238509194    
 is =    2 (V), ia =    9 :    11.66738701    
 is =    2 (V), ia =   10 :    5.228888890    
 is =    2 (V), ia =   11 :    9.026828691    
 is =    2 (V), ia =   12 :    9.054587919    
 is =    3 (Sb), ia =    1 :    7.390910400    
 is =    3 (Sb), ia =    2 :    7.388559038    
 is =    3 (Sb), ia =    3 :    12.77196667    
 is =    3 (Sb), ia =    4 :    13.49393231    
 is =    3 (Sb), ia =    5 :    6.012242147    
 is =    3 (Sb), ia =    6 :    10.47485736    
 is =    3 (Sb), ia =    7 :    10.41684348    
 is =    3 (Sb), ia =    8 :    7.386353955    
 is =    3 (Sb), ia =    9 :    12.02773347    
 is =    3 (Sb), ia =   10 :    8.577093126    
 is =    3 (Sb), ia =   11 :    0.000000000    
 is =    3 (Sb), ia =   12 :    10.84049906    
 is =    3 (Sb), ia =   13 :    10.47701585    
 is =    3 (Sb), ia =   14 :    10.41465496    
 is =    3 (Sb), ia =   15 :    9.017487742    
 is =    3 (Sb), ia =   16 :    6.016754490    
 is =    3 (Sb), ia =   17 :    10.42012682    
 is =    3 (Sb), ia =   18 :    10.47629578    
 is =    3 (Sb), ia =   19 :    6.019011689    
 is =    3 (Sb), ia =   20 :    13.49456611    
 
Distance between is =    3 (Sb), ia =   12 and
 is =    1 (Cs), ia =    1 :    7.518506094    
 is =    1 (Cs), ia =    2 :    12.84757805    
 is =    1 (Cs), ia =    3 :    7.517711412    
 is =    1 (Cs), ia =    4 :    7.519445815    
 is =    2 (V), ia =    1 :    5.237232711    
 is =    2 (V), ia =    2 :    11.65258585    
 is =    2 (V), ia =    3 :    9.045357777    
 is =    2 (V), ia =    4 :    9.048123158    
 is =    2 (V), ia =    5 :    9.051330462    
 is =    2 (V), ia =    6 :    9.030790405    
 is =    2 (V), ia =    7 :    5.238509194    
 is =    2 (V), ia =    8 :    11.66117443    
 is =    2 (V), ia =    9 :    5.228888890    
 is =    2 (V), ia =   10 :    11.66738701    
 is =    2 (V), ia =   11 :    9.054587919    
 is =    2 (V), ia =   12 :    9.026828691    
 is =    3 (Sb), ia =    1 :    7.390910400    
 is =    3 (Sb), ia =    2 :    7.388559038    
 is =    3 (Sb), ia =    3 :    12.77196667    
 is =    3 (Sb), ia =    4 :    6.012242147    
 is =    3 (Sb), ia =    5 :    13.49393231    
 is =    3 (Sb), ia =    6 :    10.41684348    
 is =    3 (Sb), ia =    7 :    10.47485736    
 is =    3 (Sb), ia =    8 :    7.386353955    
 is =    3 (Sb), ia =    9 :    8.577093126    
 is =    3 (Sb), ia =   10 :    12.02773347    
 is =    3 (Sb), ia =   11 :    10.84049906    
 is =    3 (Sb), ia =   12 :    0.000000000    
 is =    3 (Sb), ia =   13 :    10.41465496    
 is =    3 (Sb), ia =   14 :    10.47701585    
 is =    3 (Sb), ia =   15 :    6.016754490    
 is =    3 (Sb), ia =   16 :    9.017487742    
 is =    3 (Sb), ia =   17 :    10.47629578    
 is =    3 (Sb), ia =   18 :    10.42012682    
 is =    3 (Sb), ia =   19 :    13.49456611    
 is =    3 (Sb), ia =   20 :    6.019011689    
 
Distance between is =    3 (Sb), ia =   13 and
 is =    1 (Cs), ia =    1 :    12.84757805    
 is =    1 (Cs), ia =    2 :    7.518506094    
 is =    1 (Cs), ia =    3 :    7.517711412    
 is =    1 (Cs), ia =    4 :    7.519445815    
 is =    2 (V), ia =    1 :    9.045357777    
 is =    2 (V), ia =    2 :    9.048123158    
 is =    2 (V), ia =    3 :    5.237232711    
 is =    2 (V), ia =    4 :    11.65258585    
 is =    2 (V), ia =    5 :    9.051330462    
 is =    2 (V), ia =    6 :    9.030790405    
 is =    2 (V), ia =    7 :    11.66117443    
 is =    2 (V), ia =    8 :    5.238509194    
 is =    2 (V), ia =    9 :    9.054587919    
 is =    2 (V), ia =   10 :    9.026828691    
 is =    2 (V), ia =   11 :    5.228888890    
 is =    2 (V), ia =   12 :    11.66738701    
 is =    3 (Sb), ia =    1 :    7.390910400    
 is =    3 (Sb), ia =    2 :    12.77196667    
 is =    3 (Sb), ia =    3 :    7.388559038    
 is =    3 (Sb), ia =    4 :    6.012242147    
 is =    3 (Sb), ia =    5 :    13.49393231    
 is =    3 (Sb), ia =    6 :    10.41684348    
 is =    3 (Sb), ia =    7 :    10.47485736    
 is =    3 (Sb), ia =    8 :    7.386353955    
 is =    3 (Sb), ia =    9 :    9.017487742    
 is =    3 (Sb), ia =   10 :    6.016754490    
 is =    3 (Sb), ia =   11 :    10.47701585    
 is =    3 (Sb), ia =   12 :    10.41465496    
 is =    3 (Sb), ia =   13 :    0.000000000    
 is =    3 (Sb), ia =   14 :    10.84049906    
 is =    3 (Sb), ia =   15 :    12.02773347    
 is =    3 (Sb), ia =   16 :    8.577093126    
 is =    3 (Sb), ia =   17 :    10.47629578    
 is =    3 (Sb), ia =   18 :    10.42012682    
 is =    3 (Sb), ia =   19 :    13.49456611    
 is =    3 (Sb), ia =   20 :    6.019011689    
 
Distance between is =    3 (Sb), ia =   14 and
 is =    1 (Cs), ia =    1 :    7.518506094    
 is =    1 (Cs), ia =    2 :    12.84757805    
 is =    1 (Cs), ia =    3 :    7.519445815    
 is =    1 (Cs), ia =    4 :    7.517711412    
 is =    2 (V), ia =    1 :    9.048123158    
 is =    2 (V), ia =    2 :    9.045357777    
 is =    2 (V), ia =    3 :    11.65258585    
 is =    2 (V), ia =    4 :    5.237232711    
 is =    2 (V), ia =    5 :    9.030790405    
 is =    2 (V), ia =    6 :    9.051330462    
 is =    2 (V), ia =    7 :    5.238509194    
 is =    2 (V), ia =    8 :    11.66117443    
 is =    2 (V), ia =    9 :    9.026828691    
 is =    2 (V), ia =   10 :    9.054587919    
 is =    2 (V), ia =   11 :    11.66738701    
 is =    2 (V), ia =   12 :    5.228888890    
 is =    3 (Sb), ia =    1 :    7.390910400    
 is =    3 (Sb), ia =    2 :    12.77196667    
 is =    3 (Sb), ia =    3 :    7.388559038    
 is =    3 (Sb), ia =    4 :    13.49393231    
 is =    3 (Sb), ia =    5 :    6.012242147    
 is =    3 (Sb), ia =    6 :    10.47485736    
 is =    3 (Sb), ia =    7 :    10.41684348    
 is =    3 (Sb), ia =    8 :    7.386353955    
 is =    3 (Sb), ia =    9 :    6.016754490    
 is =    3 (Sb), ia =   10 :    9.017487742    
 is =    3 (Sb), ia =   11 :    10.41465496    
 is =    3 (Sb), ia =   12 :    10.47701585    
 is =    3 (Sb), ia =   13 :    10.84049906    
 is =    3 (Sb), ia =   14 :    0.000000000    
 is =    3 (Sb), ia =   15 :    8.577093126    
 is =    3 (Sb), ia =   16 :    12.02773347    
 is =    3 (Sb), ia =   17 :    10.42012682    
 is =    3 (Sb), ia =   18 :    10.47629578    
 is =    3 (Sb), ia =   19 :    6.019011689    
 is =    3 (Sb), ia =   20 :    13.49456611    
 
Distance between is =    3 (Sb), ia =   15 and
 is =    1 (Cs), ia =    1 :    12.84757805    
 is =    1 (Cs), ia =    2 :    7.518506094    
 is =    1 (Cs), ia =    3 :    7.517711412    
 is =    1 (Cs), ia =    4 :    7.519445815    
 is =    2 (V), ia =    1 :    9.048123158    
 is =    2 (V), ia =    2 :    9.045357777    
 is =    2 (V), ia =    3 :    11.65258585    
 is =    2 (V), ia =    4 :    5.237232711    
 is =    2 (V), ia =    5 :    9.030790405    
 is =    2 (V), ia =    6 :    9.051330462    
 is =    2 (V), ia =    7 :    5.238509194    
 is =    2 (V), ia =    8 :    11.66117443    
 is =    2 (V), ia =    9 :    9.026828691    
 is =    2 (V), ia =   10 :    9.054587919    
 is =    2 (V), ia =   11 :    11.66738701    
 is =    2 (V), ia =   12 :    5.228888890    
 is =    3 (Sb), ia =    1 :    7.390910400    
 is =    3 (Sb), ia =    2 :    12.77196667    
 is =    3 (Sb), ia =    3 :    7.388559038    
 is =    3 (Sb), ia =    4 :    10.41684348    
 is =    3 (Sb), ia =    5 :    10.47485736    
 is =    3 (Sb), ia =    6 :    6.012242147    
 is =    3 (Sb), ia =    7 :    13.49393231    
 is =    3 (Sb), ia =    8 :    7.386353955    
 is =    3 (Sb), ia =    9 :    10.47701585    
 is =    3 (Sb), ia =   10 :    10.41465496    
 is =    3 (Sb), ia =   11 :    9.017487742    
 is =    3 (Sb), ia =   12 :    6.016754490    
 is =    3 (Sb), ia =   13 :    12.02773347    
 is =    3 (Sb), ia =   14 :    8.577093126    
 is =    3 (Sb), ia =   15 :    0.000000000    
 is =    3 (Sb), ia =   16 :    10.84049906    
 is =    3 (Sb), ia =   17 :    13.49456611    
 is =    3 (Sb), ia =   18 :    6.019011689    
 is =    3 (Sb), ia =   19 :    10.47629578    
 is =    3 (Sb), ia =   20 :    10.42012682    
 
Distance between is =    3 (Sb), ia =   16 and
 is =    1 (Cs), ia =    1 :    7.518506094    
 is =    1 (Cs), ia =    2 :    12.84757805    
 is =    1 (Cs), ia =    3 :    7.519445815    
 is =    1 (Cs), ia =    4 :    7.517711412    
 is =    2 (V), ia =    1 :    9.045357777    
 is =    2 (V), ia =    2 :    9.048123158    
 is =    2 (V), ia =    3 :    5.237232711    
 is =    2 (V), ia =    4 :    11.65258585    
 is =    2 (V), ia =    5 :    9.051330462    
 is =    2 (V), ia =    6 :    9.030790405    
 is =    2 (V), ia =    7 :    11.66117443    
 is =    2 (V), ia =    8 :    5.238509194    
 is =    2 (V), ia =    9 :    9.054587919    
 is =    2 (V), ia =   10 :    9.026828691    
 is =    2 (V), ia =   11 :    5.228888890    
 is =    2 (V), ia =   12 :    11.66738701    
 is =    3 (Sb), ia =    1 :    7.390910400    
 is =    3 (Sb), ia =    2 :    12.77196667    
 is =    3 (Sb), ia =    3 :    7.388559038    
 is =    3 (Sb), ia =    4 :    10.47485736    
 is =    3 (Sb), ia =    5 :    10.41684348    
 is =    3 (Sb), ia =    6 :    13.49393231    
 is =    3 (Sb), ia =    7 :    6.012242147    
 is =    3 (Sb), ia =    8 :    7.386353955    
 is =    3 (Sb), ia =    9 :    10.41465496    
 is =    3 (Sb), ia =   10 :    10.47701585    
 is =    3 (Sb), ia =   11 :    6.016754490    
 is =    3 (Sb), ia =   12 :    9.017487742    
 is =    3 (Sb), ia =   13 :    8.577093126    
 is =    3 (Sb), ia =   14 :    12.02773347    
 is =    3 (Sb), ia =   15 :    10.84049906    
 is =    3 (Sb), ia =   16 :    0.000000000    
 is =    3 (Sb), ia =   17 :    6.019011689    
 is =    3 (Sb), ia =   18 :    13.49456611    
 is =    3 (Sb), ia =   19 :    10.42012682    
 is =    3 (Sb), ia =   20 :    10.47629578    
 
Distance between is =    3 (Sb), ia =   17 and
 is =    1 (Cs), ia =    1 :    7.520343898    
 is =    1 (Cs), ia =    2 :    7.520343898    
 is =    1 (Cs), ia =    3 :    7.518033167    
 is =    1 (Cs), ia =    4 :    12.85152739    
 is =    2 (V), ia =    1 :    9.032748285    
 is =    2 (V), ia =    2 :    9.032686170    
 is =    2 (V), ia =    3 :    9.032748285    
 is =    2 (V), ia =    4 :    9.032686170    
 is =    2 (V), ia =    5 :    5.244176547    
 is =    2 (V), ia =    6 :    11.65971562    
 is =    2 (V), ia =    7 :    9.039167915    
 is =    2 (V), ia =    8 :    9.039167915    
 is =    2 (V), ia =    9 :    5.247455786    
 is =    2 (V), ia =   10 :    11.65350867    
 is =    2 (V), ia =   11 :    5.247455786    
 is =    2 (V), ia =   12 :    11.65350867    
 is =    3 (Sb), ia =    1 :    7.386540833    
 is =    3 (Sb), ia =    2 :    7.387496425    
 is =    3 (Sb), ia =    3 :    7.387496425    
 is =    3 (Sb), ia =    4 :    9.019421136    
 is =    3 (Sb), ia =    5 :    6.020545713    
 is =    3 (Sb), ia =    6 :    10.47760906    
 is =    3 (Sb), ia =    7 :    10.42111674    
 is =    3 (Sb), ia =    8 :    12.77343514    
 is =    3 (Sb), ia =    9 :    6.019011689    
 is =    3 (Sb), ia =   10 :    13.49456611    
 is =    3 (Sb), ia =   11 :    10.42012682    
 is =    3 (Sb), ia =   12 :    10.47629578    
 is =    3 (Sb), ia =   13 :    10.47629578    
 is =    3 (Sb), ia =   14 :    10.42012682    
 is =    3 (Sb), ia =   15 :    13.49456611    
 is =    3 (Sb), ia =   16 :    6.019011689    
 is =    3 (Sb), ia =   17 :    0.000000000    
 is =    3 (Sb), ia =   18 :    10.84539670    
 is =    3 (Sb), ia =   19 :    12.03170399    
 is =    3 (Sb), ia =   20 :    8.572166644    
 
Distance between is =    3 (Sb), ia =   18 and
 is =    1 (Cs), ia =    1 :    7.520343898    
 is =    1 (Cs), ia =    2 :    7.520343898    
 is =    1 (Cs), ia =    3 :    12.85152739    
 is =    1 (Cs), ia =    4 :    7.518033167    
 is =    2 (V), ia =    1 :    9.032686170    
 is =    2 (V), ia =    2 :    9.032748285    
 is =    2 (V), ia =    3 :    9.032686170    
 is =    2 (V), ia =    4 :    9.032748285    
 is =    2 (V), ia =    5 :    11.65971562    
 is =    2 (V), ia =    6 :    5.244176547    
 is =    2 (V), ia =    7 :    9.039167915    
 is =    2 (V), ia =    8 :    9.039167915    
 is =    2 (V), ia =    9 :    11.65350867    
 is =    2 (V), ia =   10 :    5.247455786    
 is =    2 (V), ia =   11 :    11.65350867    
 is =    2 (V), ia =   12 :    5.247455786    
 is =    3 (Sb), ia =    1 :    7.386540833    
 is =    3 (Sb), ia =    2 :    7.387496425    
 is =    3 (Sb), ia =    3 :    7.387496425    
 is =    3 (Sb), ia =    4 :    6.020545713    
 is =    3 (Sb), ia =    5 :    9.019421136    
 is =    3 (Sb), ia =    6 :    10.42111674    
 is =    3 (Sb), ia =    7 :    10.47760906    
 is =    3 (Sb), ia =    8 :    12.77343514    
 is =    3 (Sb), ia =    9 :    13.49456611    
 is =    3 (Sb), ia =   10 :    6.019011689    
 is =    3 (Sb), ia =   11 :    10.47629578    
 is =    3 (Sb), ia =   12 :    10.42012682    
 is =    3 (Sb), ia =   13 :    10.42012682    
 is =    3 (Sb), ia =   14 :    10.47629578    
 is =    3 (Sb), ia =   15 :    6.019011689    
 is =    3 (Sb), ia =   16 :    13.49456611    
 is =    3 (Sb), ia =   17 :    10.84539670    
 is =    3 (Sb), ia =   18 :    0.000000000    
 is =    3 (Sb), ia =   19 :    8.572166644    
 is =    3 (Sb), ia =   20 :    12.03170399    
 
Distance between is =    3 (Sb), ia =   19 and
 is =    1 (Cs), ia =    1 :    7.520343898    
 is =    1 (Cs), ia =    2 :    7.520343898    
 is =    1 (Cs), ia =    3 :    7.518033167    
 is =    1 (Cs), ia =    4 :    12.85152739    
 is =    2 (V), ia =    1 :    9.032686170    
 is =    2 (V), ia =    2 :    9.032748285    
 is =    2 (V), ia =    3 :    9.032686170    
 is =    2 (V), ia =    4 :    9.032748285    
 is =    2 (V), ia =    5 :    11.65971562    
 is =    2 (V), ia =    6 :    5.244176547    
 is =    2 (V), ia =    7 :    9.039167915    
 is =    2 (V), ia =    8 :    9.039167915    
 is =    2 (V), ia =    9 :    11.65350867    
 is =    2 (V), ia =   10 :    5.247455786    
 is =    2 (V), ia =   11 :    11.65350867    
 is =    2 (V), ia =   12 :    5.247455786    
 is =    3 (Sb), ia =    1 :    7.386540833    
 is =    3 (Sb), ia =    2 :    7.387496425    
 is =    3 (Sb), ia =    3 :    7.387496425    
 is =    3 (Sb), ia =    4 :    10.47760906    
 is =    3 (Sb), ia =    5 :    10.42111674    
 is =    3 (Sb), ia =    6 :    9.019421136    
 is =    3 (Sb), ia =    7 :    6.020545713    
 is =    3 (Sb), ia =    8 :    12.77343514    
 is =    3 (Sb), ia =    9 :    10.42012682    
 is =    3 (Sb), ia =   10 :    10.47629578    
 is =    3 (Sb), ia =   11 :    6.019011689    
 is =    3 (Sb), ia =   12 :    13.49456611    
 is =    3 (Sb), ia =   13 :    13.49456611    
 is =    3 (Sb), ia =   14 :    6.019011689    
 is =    3 (Sb), ia =   15 :    10.47629578    
 is =    3 (Sb), ia =   16 :    10.42012682    
 is =    3 (Sb), ia =   17 :    12.03170399    
 is =    3 (Sb), ia =   18 :    8.572166644    
 is =    3 (Sb), ia =   19 :    0.000000000    
 is =    3 (Sb), ia =   20 :    10.84539670    
 
Distance between is =    3 (Sb), ia =   20 and
 is =    1 (Cs), ia =    1 :    7.520343898    
 is =    1 (Cs), ia =    2 :    7.520343898    
 is =    1 (Cs), ia =    3 :    12.85152739    
 is =    1 (Cs), ia =    4 :    7.518033167    
 is =    2 (V), ia =    1 :    9.032748285    
 is =    2 (V), ia =    2 :    9.032686170    
 is =    2 (V), ia =    3 :    9.032748285    
 is =    2 (V), ia =    4 :    9.032686170    
 is =    2 (V), ia =    5 :    5.244176547    
 is =    2 (V), ia =    6 :    11.65971562    
 is =    2 (V), ia =    7 :    9.039167915    
 is =    2 (V), ia =    8 :    9.039167915    
 is =    2 (V), ia =    9 :    5.247455786    
 is =    2 (V), ia =   10 :    11.65350867    
 is =    2 (V), ia =   11 :    5.247455786    
 is =    2 (V), ia =   12 :    11.65350867    
 is =    3 (Sb), ia =    1 :    7.386540833    
 is =    3 (Sb), ia =    2 :    7.387496425    
 is =    3 (Sb), ia =    3 :    7.387496425    
 is =    3 (Sb), ia =    4 :    10.42111674    
 is =    3 (Sb), ia =    5 :    10.47760906    
 is =    3 (Sb), ia =    6 :    6.020545713    
 is =    3 (Sb), ia =    7 :    9.019421136    
 is =    3 (Sb), ia =    8 :    12.77343514    
 is =    3 (Sb), ia =    9 :    10.47629578    
 is =    3 (Sb), ia =   10 :    10.42012682    
 is =    3 (Sb), ia =   11 :    13.49456611    
 is =    3 (Sb), ia =   12 :    6.019011689    
 is =    3 (Sb), ia =   13 :    6.019011689    
 is =    3 (Sb), ia =   14 :    13.49456611    
 is =    3 (Sb), ia =   15 :    10.42012682    
 is =    3 (Sb), ia =   16 :    10.47629578    
 is =    3 (Sb), ia =   17 :    8.572166644    
 is =    3 (Sb), ia =   18 :    12.03170399    
 is =    3 (Sb), ia =   19 :    10.84539670    
 is =    3 (Sb), ia =   20 :    0.000000000    
