 
Species :    1 (Cs), atom :    1
 n =  1, l =  0, k =  1 :   -1313.579472    
 n =  2, l =  0, k =  1 :   -205.6480328    
 n =  2, l =  1, k =  1 :   -193.4642277    
 n =  2, l =  1, k =  2 :   -180.5273541    
 n =  3, l =  0, k =  1 :   -42.42630776    
 n =  3, l =  1, k =  1 :   -37.33634714    
 n =  3, l =  1, k =  2 :   -34.85751365    
 n =  3, l =  2, k =  2 :   -25.90807876    
 n =  3, l =  2, k =  3 :   -25.38155967    
 n =  4, l =  0, k =  1 :   -7.670310952    
 n =  4, l =  1, k =  1 :   -5.844020735    
 n =  4, l =  1, k =  2 :   -5.336910170    
 
Species :    1 (Cs), atom :    2
 n =  1, l =  0, k =  1 :   -1313.579472    
 n =  2, l =  0, k =  1 :   -205.6480328    
 n =  2, l =  1, k =  1 :   -193.4642277    
 n =  2, l =  1, k =  2 :   -180.5273541    
 n =  3, l =  0, k =  1 :   -42.42630776    
 n =  3, l =  1, k =  1 :   -37.33634714    
 n =  3, l =  1, k =  2 :   -34.85751365    
 n =  3, l =  2, k =  2 :   -25.90807876    
 n =  3, l =  2, k =  3 :   -25.38155967    
 n =  4, l =  0, k =  1 :   -7.670310952    
 n =  4, l =  1, k =  1 :   -5.844020735    
 n =  4, l =  1, k =  2 :   -5.336910170    
 
Species :    1 (Cs), atom :    3
 n =  1, l =  0, k =  1 :   -1313.579821    
 n =  2, l =  0, k =  1 :   -205.6483784    
 n =  2, l =  1, k =  1 :   -193.4645735    
 n =  2, l =  1, k =  2 :   -180.5276998    
 n =  3, l =  0, k =  1 :   -42.42665262    
 n =  3, l =  1, k =  1 :   -37.33669206    
 n =  3, l =  1, k =  2 :   -34.85785848    
 n =  3, l =  2, k =  2 :   -25.90842364    
 n =  3, l =  2, k =  3 :   -25.38190453    
 n =  4, l =  0, k =  1 :   -7.670652734    
 n =  4, l =  1, k =  1 :   -5.844362174    
 n =  4, l =  1, k =  2 :   -5.337251301    
 
Species :    1 (Cs), atom :    4
 n =  1, l =  0, k =  1 :   -1313.579821    
 n =  2, l =  0, k =  1 :   -205.6483784    
 n =  2, l =  1, k =  1 :   -193.4645735    
 n =  2, l =  1, k =  2 :   -180.5276998    
 n =  3, l =  0, k =  1 :   -42.42665262    
 n =  3, l =  1, k =  1 :   -37.33669206    
 n =  3, l =  1, k =  2 :   -34.85785848    
 n =  3, l =  2, k =  2 :   -25.90842364    
 n =  3, l =  2, k =  3 :   -25.38190453    
 n =  4, l =  0, k =  1 :   -7.670652734    
 n =  4, l =  1, k =  1 :   -5.844362174    
 n =  4, l =  1, k =  2 :   -5.337251301    
 
Species :    2 (V), atom :    1
 n =  1, l =  0, k =  1 :   -196.4271772    
 n =  2, l =  0, k =  1 :   -21.65820352    
 n =  2, l =  1, k =  1 :   -18.18975914    
 n =  2, l =  1, k =  2 :   -17.92931247    
 
Species :    2 (V), atom :    2
 n =  1, l =  0, k =  1 :   -196.4271772    
 n =  2, l =  0, k =  1 :   -21.65820352    
 n =  2, l =  1, k =  1 :   -18.18975914    
 n =  2, l =  1, k =  2 :   -17.92931247    
 
Species :    2 (V), atom :    3
 n =  1, l =  0, k =  1 :   -196.4271431    
 n =  2, l =  0, k =  1 :   -21.65818451    
 n =  2, l =  1, k =  1 :   -18.18973852    
 n =  2, l =  1, k =  2 :   -17.92929196    
 
Species :    2 (V), atom :    4
 n =  1, l =  0, k =  1 :   -196.4271431    
 n =  2, l =  0, k =  1 :   -21.65818451    
 n =  2, l =  1, k =  1 :   -18.18973852    
 n =  2, l =  1, k =  2 :   -17.92929196    
 
Species :    2 (V), atom :    5
 n =  1, l =  0, k =  1 :   -196.4271431    
 n =  2, l =  0, k =  1 :   -21.65818451    
 n =  2, l =  1, k =  1 :   -18.18973852    
 n =  2, l =  1, k =  2 :   -17.92929196    
 
Species :    2 (V), atom :    6
 n =  1, l =  0, k =  1 :   -196.4271431    
 n =  2, l =  0, k =  1 :   -21.65818451    
 n =  2, l =  1, k =  1 :   -18.18973852    
 n =  2, l =  1, k =  2 :   -17.92929196    
 
Species :    2 (V), atom :    7
 n =  1, l =  0, k =  1 :   -196.4268127    
 n =  2, l =  0, k =  1 :   -21.65792182    
 n =  2, l =  1, k =  1 :   -18.18946912    
 n =  2, l =  1, k =  2 :   -17.92902304    
 
Species :    2 (V), atom :    8
 n =  1, l =  0, k =  1 :   -196.4268127    
 n =  2, l =  0, k =  1 :   -21.65792182    
 n =  2, l =  1, k =  1 :   -18.18946912    
 n =  2, l =  1, k =  2 :   -17.92902304    
 
Species :    2 (V), atom :    9
 n =  1, l =  0, k =  1 :   -196.4268246    
 n =  2, l =  0, k =  1 :   -21.65794161    
 n =  2, l =  1, k =  1 :   -18.18948797    
 n =  2, l =  1, k =  2 :   -17.92904195    
 
Species :    2 (V), atom :   10
 n =  1, l =  0, k =  1 :   -196.4268246    
 n =  2, l =  0, k =  1 :   -21.65794161    
 n =  2, l =  1, k =  1 :   -18.18948797    
 n =  2, l =  1, k =  2 :   -17.92904195    
 
Species :    2 (V), atom :   11
 n =  1, l =  0, k =  1 :   -196.4268246    
 n =  2, l =  0, k =  1 :   -21.65794161    
 n =  2, l =  1, k =  1 :   -18.18948797    
 n =  2, l =  1, k =  2 :   -17.92904195    
 
Species :    2 (V), atom :   12
 n =  1, l =  0, k =  1 :   -196.4268246    
 n =  2, l =  0, k =  1 :   -21.65794161    
 n =  2, l =  1, k =  1 :   -18.18948797    
 n =  2, l =  1, k =  2 :   -17.92904195    
 
Species :    3 (Sb), atom :    1
 n =  1, l =  0, k =  1 :   -1111.980409    
 n =  2, l =  0, k =  1 :   -168.8194819    
 n =  2, l =  1, k =  1 :   -157.9305388    
 n =  2, l =  1, k =  2 :   -148.6835766    
 n =  3, l =  0, k =  1 :   -32.75807225    
 n =  3, l =  1, k =  1 :   -28.30695482    
 n =  3, l =  1, k =  2 :   -26.60092626    
 n =  3, l =  2, k =  2 :   -18.73535626    
 n =  3, l =  2, k =  3 :   -18.38063787    
 n =  4, l =  0, k =  1 :   -5.044733382    
 n =  4, l =  1, k =  1 :   -3.539395486    
 n =  4, l =  1, k =  2 :   -3.222965543    
 
Species :    3 (Sb), atom :    2
 n =  1, l =  0, k =  1 :   -1111.980429    
 n =  2, l =  0, k =  1 :   -168.8194994    
 n =  2, l =  1, k =  1 :   -157.9305566    
 n =  2, l =  1, k =  2 :   -148.6835943    
 n =  3, l =  0, k =  1 :   -32.75808831    
 n =  3, l =  1, k =  1 :   -28.30697095    
 n =  3, l =  1, k =  2 :   -26.60094231    
 n =  3, l =  2, k =  2 :   -18.73537237    
 n =  3, l =  2, k =  3 :   -18.38065396    
 n =  4, l =  0, k =  1 :   -5.044746032    
 n =  4, l =  1, k =  1 :   -3.539407756    
 n =  4, l =  1, k =  2 :   -3.222977544    
 
Species :    3 (Sb), atom :    3
 n =  1, l =  0, k =  1 :   -1111.980429    
 n =  2, l =  0, k =  1 :   -168.8194994    
 n =  2, l =  1, k =  1 :   -157.9305566    
 n =  2, l =  1, k =  2 :   -148.6835943    
 n =  3, l =  0, k =  1 :   -32.75808831    
 n =  3, l =  1, k =  1 :   -28.30697095    
 n =  3, l =  1, k =  2 :   -26.60094231    
 n =  3, l =  2, k =  2 :   -18.73537237    
 n =  3, l =  2, k =  3 :   -18.38065396    
 n =  4, l =  0, k =  1 :   -5.044746032    
 n =  4, l =  1, k =  1 :   -3.539407756    
 n =  4, l =  1, k =  2 :   -3.222977544    
 
Species :    3 (Sb), atom :    4
 n =  1, l =  0, k =  1 :   -1111.970532    
 n =  2, l =  0, k =  1 :   -168.8098991    
 n =  2, l =  1, k =  1 :   -157.9209618    
 n =  2, l =  1, k =  2 :   -148.6740035    
 n =  3, l =  0, k =  1 :   -32.74831737    
 n =  3, l =  1, k =  1 :   -28.29720682    
 n =  3, l =  1, k =  2 :   -26.59117471    
 n =  3, l =  2, k =  2 :   -18.72563621    
 n =  3, l =  2, k =  3 :   -18.37091562    
 n =  4, l =  0, k =  1 :   -5.034796333    
 n =  4, l =  1, k =  1 :   -3.529460405    
 n =  4, l =  1, k =  2 :   -3.213026311    
 
Species :    3 (Sb), atom :    5
 n =  1, l =  0, k =  1 :   -1111.970532    
 n =  2, l =  0, k =  1 :   -168.8098991    
 n =  2, l =  1, k =  1 :   -157.9209618    
 n =  2, l =  1, k =  2 :   -148.6740035    
 n =  3, l =  0, k =  1 :   -32.74831737    
 n =  3, l =  1, k =  1 :   -28.29720682    
 n =  3, l =  1, k =  2 :   -26.59117471    
 n =  3, l =  2, k =  2 :   -18.72563621    
 n =  3, l =  2, k =  3 :   -18.37091562    
 n =  4, l =  0, k =  1 :   -5.034796333    
 n =  4, l =  1, k =  1 :   -3.529460405    
 n =  4, l =  1, k =  2 :   -3.213026311    
 
Species :    3 (Sb), atom :    6
 n =  1, l =  0, k =  1 :   -1111.970532    
 n =  2, l =  0, k =  1 :   -168.8098991    
 n =  2, l =  1, k =  1 :   -157.9209618    
 n =  2, l =  1, k =  2 :   -148.6740035    
 n =  3, l =  0, k =  1 :   -32.74831737    
 n =  3, l =  1, k =  1 :   -28.29720682    
 n =  3, l =  1, k =  2 :   -26.59117471    
 n =  3, l =  2, k =  2 :   -18.72563621    
 n =  3, l =  2, k =  3 :   -18.37091562    
 n =  4, l =  0, k =  1 :   -5.034796333    
 n =  4, l =  1, k =  1 :   -3.529460405    
 n =  4, l =  1, k =  2 :   -3.213026311    
 
Species :    3 (Sb), atom :    7
 n =  1, l =  0, k =  1 :   -1111.970532    
 n =  2, l =  0, k =  1 :   -168.8098991    
 n =  2, l =  1, k =  1 :   -157.9209618    
 n =  2, l =  1, k =  2 :   -148.6740035    
 n =  3, l =  0, k =  1 :   -32.74831737    
 n =  3, l =  1, k =  1 :   -28.29720682    
 n =  3, l =  1, k =  2 :   -26.59117471    
 n =  3, l =  2, k =  2 :   -18.72563621    
 n =  3, l =  2, k =  3 :   -18.37091562    
 n =  4, l =  0, k =  1 :   -5.034796333    
 n =  4, l =  1, k =  1 :   -3.529460405    
 n =  4, l =  1, k =  2 :   -3.213026311    
 
Species :    3 (Sb), atom :    8
 n =  1, l =  0, k =  1 :   -1111.970274    
 n =  2, l =  0, k =  1 :   -168.8096294    
 n =  2, l =  1, k =  1 :   -157.9206938    
 n =  2, l =  1, k =  2 :   -148.6737349    
 n =  3, l =  0, k =  1 :   -32.74803328    
 n =  3, l =  1, k =  1 :   -28.29692338    
 n =  3, l =  1, k =  2 :   -26.59089043    
 n =  3, l =  2, k =  2 :   -18.72535369    
 n =  3, l =  2, k =  3 :   -18.37063284    
 n =  4, l =  0, k =  1 :   -5.034471536    
 n =  4, l =  1, k =  1 :   -3.529130298    
 n =  4, l =  1, k =  2 :   -3.212692566    
 
Species :    3 (Sb), atom :    9
 n =  1, l =  0, k =  1 :   -1111.970274    
 n =  2, l =  0, k =  1 :   -168.8096294    
 n =  2, l =  1, k =  1 :   -157.9206938    
 n =  2, l =  1, k =  2 :   -148.6737349    
 n =  3, l =  0, k =  1 :   -32.74803328    
 n =  3, l =  1, k =  1 :   -28.29692338    
 n =  3, l =  1, k =  2 :   -26.59089043    
 n =  3, l =  2, k =  2 :   -18.72535369    
 n =  3, l =  2, k =  3 :   -18.37063284    
 n =  4, l =  0, k =  1 :   -5.034471536    
 n =  4, l =  1, k =  1 :   -3.529130298    
 n =  4, l =  1, k =  2 :   -3.212692566    
 
Species :    3 (Sb), atom :   10
 n =  1, l =  0, k =  1 :   -1111.970274    
 n =  2, l =  0, k =  1 :   -168.8096294    
 n =  2, l =  1, k =  1 :   -157.9206938    
 n =  2, l =  1, k =  2 :   -148.6737349    
 n =  3, l =  0, k =  1 :   -32.74803328    
 n =  3, l =  1, k =  1 :   -28.29692338    
 n =  3, l =  1, k =  2 :   -26.59089043    
 n =  3, l =  2, k =  2 :   -18.72535369    
 n =  3, l =  2, k =  3 :   -18.37063284    
 n =  4, l =  0, k =  1 :   -5.034471536    
 n =  4, l =  1, k =  1 :   -3.529130298    
 n =  4, l =  1, k =  2 :   -3.212692566    
 
Species :    3 (Sb), atom :   11
 n =  1, l =  0, k =  1 :   -1111.970274    
 n =  2, l =  0, k =  1 :   -168.8096294    
 n =  2, l =  1, k =  1 :   -157.9206938    
 n =  2, l =  1, k =  2 :   -148.6737349    
 n =  3, l =  0, k =  1 :   -32.74803328    
 n =  3, l =  1, k =  1 :   -28.29692338    
 n =  3, l =  1, k =  2 :   -26.59089043    
 n =  3, l =  2, k =  2 :   -18.72535369    
 n =  3, l =  2, k =  3 :   -18.37063284    
 n =  4, l =  0, k =  1 :   -5.034471536    
 n =  4, l =  1, k =  1 :   -3.529130298    
 n =  4, l =  1, k =  2 :   -3.212692566    
 
Species :    3 (Sb), atom :   12
 n =  1, l =  0, k =  1 :   -1111.970274    
 n =  2, l =  0, k =  1 :   -168.8096294    
 n =  2, l =  1, k =  1 :   -157.9206938    
 n =  2, l =  1, k =  2 :   -148.6737349    
 n =  3, l =  0, k =  1 :   -32.74803328    
 n =  3, l =  1, k =  1 :   -28.29692338    
 n =  3, l =  1, k =  2 :   -26.59089043    
 n =  3, l =  2, k =  2 :   -18.72535369    
 n =  3, l =  2, k =  3 :   -18.37063284    
 n =  4, l =  0, k =  1 :   -5.034471536    
 n =  4, l =  1, k =  1 :   -3.529130298    
 n =  4, l =  1, k =  2 :   -3.212692566    
 
Species :    3 (Sb), atom :   13
 n =  1, l =  0, k =  1 :   -1111.970274    
 n =  2, l =  0, k =  1 :   -168.8096294    
 n =  2, l =  1, k =  1 :   -157.9206938    
 n =  2, l =  1, k =  2 :   -148.6737349    
 n =  3, l =  0, k =  1 :   -32.74803328    
 n =  3, l =  1, k =  1 :   -28.29692338    
 n =  3, l =  1, k =  2 :   -26.59089043    
 n =  3, l =  2, k =  2 :   -18.72535369    
 n =  3, l =  2, k =  3 :   -18.37063284    
 n =  4, l =  0, k =  1 :   -5.034471536    
 n =  4, l =  1, k =  1 :   -3.529130298    
 n =  4, l =  1, k =  2 :   -3.212692566    
 
Species :    3 (Sb), atom :   14
 n =  1, l =  0, k =  1 :   -1111.970274    
 n =  2, l =  0, k =  1 :   -168.8096294    
 n =  2, l =  1, k =  1 :   -157.9206938    
 n =  2, l =  1, k =  2 :   -148.6737349    
 n =  3, l =  0, k =  1 :   -32.74803328    
 n =  3, l =  1, k =  1 :   -28.29692338    
 n =  3, l =  1, k =  2 :   -26.59089043    
 n =  3, l =  2, k =  2 :   -18.72535369    
 n =  3, l =  2, k =  3 :   -18.37063284    
 n =  4, l =  0, k =  1 :   -5.034471536    
 n =  4, l =  1, k =  1 :   -3.529130298    
 n =  4, l =  1, k =  2 :   -3.212692566    
 
Species :    3 (Sb), atom :   15
 n =  1, l =  0, k =  1 :   -1111.970274    
 n =  2, l =  0, k =  1 :   -168.8096294    
 n =  2, l =  1, k =  1 :   -157.9206938    
 n =  2, l =  1, k =  2 :   -148.6737349    
 n =  3, l =  0, k =  1 :   -32.74803328    
 n =  3, l =  1, k =  1 :   -28.29692338    
 n =  3, l =  1, k =  2 :   -26.59089043    
 n =  3, l =  2, k =  2 :   -18.72535369    
 n =  3, l =  2, k =  3 :   -18.37063284    
 n =  4, l =  0, k =  1 :   -5.034471536    
 n =  4, l =  1, k =  1 :   -3.529130298    
 n =  4, l =  1, k =  2 :   -3.212692566    
 
Species :    3 (Sb), atom :   16
 n =  1, l =  0, k =  1 :   -1111.970201    
 n =  2, l =  0, k =  1 :   -168.8095603    
 n =  2, l =  1, k =  1 :   -157.9206241    
 n =  2, l =  1, k =  2 :   -148.6736655    
 n =  3, l =  0, k =  1 :   -32.74796596    
 n =  3, l =  1, k =  1 :   -28.29685596    
 n =  3, l =  1, k =  2 :   -26.59082311    
 n =  3, l =  2, k =  2 :   -18.72528632    
 n =  3, l =  2, k =  3 :   -18.37056549    
 n =  4, l =  0, k =  1 :   -5.034408210    
 n =  4, l =  1, k =  1 :   -3.529067400    
 n =  4, l =  1, k =  2 :   -3.212629976    
 
Species :    3 (Sb), atom :   17
 n =  1, l =  0, k =  1 :   -1111.970201    
 n =  2, l =  0, k =  1 :   -168.8095603    
 n =  2, l =  1, k =  1 :   -157.9206241    
 n =  2, l =  1, k =  2 :   -148.6736655    
 n =  3, l =  0, k =  1 :   -32.74796596    
 n =  3, l =  1, k =  1 :   -28.29685596    
 n =  3, l =  1, k =  2 :   -26.59082311    
 n =  3, l =  2, k =  2 :   -18.72528632    
 n =  3, l =  2, k =  3 :   -18.37056549    
 n =  4, l =  0, k =  1 :   -5.034408210    
 n =  4, l =  1, k =  1 :   -3.529067400    
 n =  4, l =  1, k =  2 :   -3.212629976    
 
Species :    3 (Sb), atom :   18
 n =  1, l =  0, k =  1 :   -1111.970201    
 n =  2, l =  0, k =  1 :   -168.8095603    
 n =  2, l =  1, k =  1 :   -157.9206241    
 n =  2, l =  1, k =  2 :   -148.6736655    
 n =  3, l =  0, k =  1 :   -32.74796596    
 n =  3, l =  1, k =  1 :   -28.29685596    
 n =  3, l =  1, k =  2 :   -26.59082311    
 n =  3, l =  2, k =  2 :   -18.72528632    
 n =  3, l =  2, k =  3 :   -18.37056549    
 n =  4, l =  0, k =  1 :   -5.034408210    
 n =  4, l =  1, k =  1 :   -3.529067400    
 n =  4, l =  1, k =  2 :   -3.212629976    
 
Species :    3 (Sb), atom :   19
 n =  1, l =  0, k =  1 :   -1111.970201    
 n =  2, l =  0, k =  1 :   -168.8095603    
 n =  2, l =  1, k =  1 :   -157.9206241    
 n =  2, l =  1, k =  2 :   -148.6736655    
 n =  3, l =  0, k =  1 :   -32.74796596    
 n =  3, l =  1, k =  1 :   -28.29685596    
 n =  3, l =  1, k =  2 :   -26.59082311    
 n =  3, l =  2, k =  2 :   -18.72528632    
 n =  3, l =  2, k =  3 :   -18.37056549    
 n =  4, l =  0, k =  1 :   -5.034408210    
 n =  4, l =  1, k =  1 :   -3.529067400    
 n =  4, l =  1, k =  2 :   -3.212629976    
 
Species :    3 (Sb), atom :   20
 n =  1, l =  0, k =  1 :   -1111.980000    
 n =  2, l =  0, k =  1 :   -168.8191543    
 n =  2, l =  1, k =  1 :   -157.9301997    
 n =  2, l =  1, k =  2 :   -148.6832409    
 n =  3, l =  0, k =  1 :   -32.75778118    
 n =  3, l =  1, k =  1 :   -28.30666173    
 n =  3, l =  1, k =  2 :   -26.60063518    
 n =  3, l =  2, k =  2 :   -18.73506423    
 n =  3, l =  2, k =  3 :   -18.38034641    
 n =  4, l =  0, k =  1 :   -5.044527869    
 n =  4, l =  1, k =  1 :   -3.539199205    
 n =  4, l =  1, k =  2 :   -3.222775848    
