  0.6189858940E-20 -0.3330746496E-17  0.2878768781E-20
  0.2562501714E-20 -0.3733051008E-17 -0.1556839992E-20
 -0.1967047344E-20 -0.3506466487E-17 -0.9278602205E-21
  0.9845282208E-21 -0.3839462577E-17 -0.3342884619E-21
  0.2584061017E-23 -0.4059052979E-17 -0.2124530885E-21
  0.1751042785E-20 -0.4057977131E-17 -0.5121890405E-21
 -0.3730570791E-20 -0.2139792156E-17  0.3032192088E-21
  0.2405873775E-20 -0.1055693121E-18 -0.5016662957E-20
  0.9672110758E-20 -0.1871087875E-17 -0.2504127360E-20
  0.2628892250E-20 -0.1686480258E-17 -0.3283766702E-20
  0.2848289276E-20 -0.7264922438E-18  0.2037555038E-21
  0.3619671542E-20 -0.1338794252E-17  0.6935461295E-20
  0.1158494507E-19 -0.1410276307E-17 -0.5607957400E-20
  0.3958169553E-20 -0.1547538765E-17 -0.2529901903E-20
  0.2701631357E-20 -0.8736882985E-18 -0.1076198946E-20
  0.4393286938E-20 -0.1444130798E-17  0.1117224222E-20
  0.3056099185E-20 -0.1439948454E-17 -0.1963182281E-20
 -0.9124821257E-20 -0.1381957585E-17 -0.4394453928E-20
  0.1164638671E-20 -0.1391166791E-17  0.4366892191E-20
  0.3400201623E-20 -0.1457246499E-17 -0.3775123034E-20
 -0.4973347037E-21 -0.1399199024E-17  0.5328184492E-20
 -0.9329560792E-20 -0.1390198904E-17  0.1892548958E-20
 -0.1230411602E-20 -0.1319450859E-17 -0.1240414634E-20
  0.7788740164E-21 -0.1372694990E-17 -0.3363776465E-20
 -0.6036241465E-20 -0.1436144452E-17  0.4725730544E-20
  0.4045578553E-20 -0.1403290517E-17 -0.3010348611E-21
 -0.7848331800E-20 -0.1404948461E-17 -0.8162390701E-20
  0.3712802516E-20 -0.1380753121E-17  0.1311071337E-20
 -0.4491133205E-20 -0.1416123509E-17  0.1795766855E-20
  0.2145783245E-20 -0.1411325599E-17  0.1795872807E-21
  0.6394076193E-21 -0.1367416120E-17 -0.2041661887E-20
 -0.3158278335E-20 -0.1391843168E-17  0.2310518751E-20
 -0.8748671578E-20 -0.1422738353E-17 -0.1293369587E-20
 -0.4238011322E-20 -0.1394745672E-17  0.1001033611E-21
  0.5605926236E-21 -0.1384110883E-17 -0.7990796609E-20
  0.1880211526E-20 -0.1386114571E-17  0.1063429445E-19
 -0.1805301613E-20 -0.1429174636E-17  0.2322089249E-20
 -0.5354708620E-21 -0.1363221044E-17  0.2556704526E-20
  0.2559635241E-20 -0.1406923823E-17 -0.5464179533E-20
  0.8374937103E-20 -0.1382622400E-17 -0.2596994547E-20
  0.1943043360E-20 -0.1459875121E-17  0.3143621902E-20
 -0.5313873528E-20 -0.1373944814E-17 -0.5950939757E-20
 -0.2887305055E-20 -0.1421302515E-17  0.3981905909E-20
  0.6849212154E-20 -0.1449885136E-17 -0.4079263751E-20
  0.3851451806E-20 -0.1395803180E-17  0.7516716522E-20
  0.2854583251E-20 -0.1389993819E-17 -0.8380819585E-20
  0.5252596900E-20 -0.1388521040E-17  0.3070784134E-20
  0.5987921203E-20 -0.1419147310E-17 -0.5864680290E-21
 -0.6525054657E-20 -0.1412544050E-17 -0.1518966898E-22
  0.5038360093E-20 -0.1371652634E-17  0.9810086422E-20
  0.2699205843E-20 -0.1386723586E-17 -0.3165958399E-20
  0.3827221121E-20 -0.1429721175E-17 -0.1326724255E-20
 -0.3309761491E-20 -0.1411472301E-17  0.2047444465E-20
 -0.4660231784E-20 -0.1394297572E-17 -0.3179903867E-20
 -0.2077506987E-20 -0.1361074312E-17 -0.3057373065E-20
 -0.3434527632E-20 -0.1377290030E-17  0.3414252151E-20
  0.2520898989E-21 -0.1390250248E-17  0.1342550433E-22
 -0.4900039530E-21 -0.1395945044E-17 -0.3592128601E-20
  0.4288162850E-20 -0.1390410402E-17 -0.3224502269E-20
 -0.1529443706E-20 -0.1391997082E-17 -0.6231736346E-20
  0.4933540600E-20 -0.1384714999E-17 -0.4308324048E-20
  0.7627260324E-20 -0.1357634824E-17  0.5462796699E-20
  0.3139415349E-20 -0.1383413058E-17  0.2433529886E-20
 -0.9015728840E-22 -0.1424028708E-17 -0.4032523284E-21
  0.1929604996E-20 -0.1418506489E-17 -0.1204377904E-20
  0.6670082756E-21 -0.1390795696E-17 -0.5213534295E-20
 -0.5081784021E-20 -0.1396227970E-17 -0.2444408305E-20
  0.1009043872E-19 -0.1367509161E-17  0.4648823737E-20
 -0.1662190982E-20 -0.1382710852E-17 -0.4403652493E-22
  0.3394841830E-20 -0.1410777161E-17 -0.4996310106E-21
 -0.3600627153E-20 -0.1419957788E-17  0.1577960954E-20
 -0.2621829502E-20 -0.1372803150E-17 -0.6474338149E-20
  0.1879502308E-20 -0.1415716632E-17  0.4584198330E-21
 -0.8387988751E-21 -0.1398287922E-17  0.8767571424E-21
 -0.4164212662E-20 -0.1433464927E-17 -0.8851564795E-20
 -0.4155094306E-21 -0.1390201067E-17 -0.4759245418E-20
  0.4802570441E-20 -0.1340163160E-17  0.5581246178E-21
