  0.2876392157    
  0.2977058437    
  0.2819337152    
  0.2808289933    
  0.2186363874    
  0.2455689207    
  0.9147907235E-01
  0.2304106884    
  0.6837422387E-01
  0.5799589625E-01
  0.1418134634E-01
  0.3290712775E-01
  0.2069010070E-01
  0.2027799361E-01
  0.5571906478E-02
  0.7529909634E-02
  0.3980370650E-02
  0.3744824270E-02
  0.2344369165E-02
  0.2235306614E-02
  0.7580249758E-03
  0.1953887190E-02
  0.1254428803E-02
  0.1858857216E-02
  0.1043817898E-02
  0.1244150522E-02
  0.7806967591E-03
  0.4735084204E-03
  0.1588399843E-03
  0.1030479384E-03
  0.1334485876E-03
  0.1234849746E-03
  0.1043569325E-03
  0.7014099055E-04
  0.6576340517E-04
  0.2541136339E-04
  0.4407134116E-04
  0.1833114966E-04
  0.3939075028E-04
  0.2033083804E-04
  0.2832826998E-04
  0.1320736760E-04
  0.1421394342E-04
  0.1207799111E-04
  0.8822068984E-05
  0.7201711650E-05
  0.7235787083E-05
  0.6749610442E-05
  0.4645796892E-05
  0.4535965323E-05
  0.3301907572E-05
  0.3510137815E-05
  0.1233106381E-05
  0.3132707237E-05
  0.1401109888E-05
  0.2376686309E-05
  0.1223036316E-05
  0.1322341273E-05
  0.1619720508E-05
  0.4642112826E-06
  0.1013247815E-05
  0.3853577063E-06
  0.6943161488E-06
  0.3850711230E-06
  0.3994621400E-06
  0.4127387705E-06
  0.1970494748E-06
  0.2132019872E-06
  0.1556324360E-06
  0.1604178014E-06
  0.1041949984E-06
  0.1209395866E-06
  0.6793823780E-07
  0.8603296552E-07
  0.4903670804E-07
